NAME;EPSILON;K;total_runtime;runtime_per_elem;fValue;trueHistCnt;extractedHistCnt;histPercentage;elem;memory
STANDARD;0.1;10;4.600000;0.460000;3.227319;8.000000;4.900000;0.612500;10.000000;9472.000000
LESS;0.1;10;4.000000;0.400000;3.227319;8.000000;4.900000;0.612500;10.000000;9472.000000
DYNAMIC;0.1;10;2342.899902;0.468580;3.831748;8.000000;5.500000;0.687500;5000.000000;9635.599609
STANDARD;0.1;12;6.600000;0.442953;3.670659;8.000000;5.500000;0.687500;14.900000;9692.000000
LESS;0.1;12;6.500000;0.436242;3.670659;8.000000;5.500000;0.687500;14.900000;9692.000000
DYNAMIC;0.1;12;2356.699951;0.471340;4.243490;8.000000;5.900000;0.737500;5000.000000;9865.599609
STANDARD;0.1;14;8.400000;0.466667;4.011104;8.000000;5.600000;0.700000;18.000000;9936.000000
LESS;0.1;14;7.900000;0.438889;4.011104;8.000000;5.600000;0.700000;18.000000;9936.000000
DYNAMIC;0.1;14;2354.699951;0.470940;4.593534;8.000000;6.800000;0.850000;5000.000000;10100.799805
STANDARD;0.1;16;362.600006;0.472258;4.770639;8.000000;6.500000;0.812500;767.799988;10240.000000
LESS;0.1;16;351.799988;0.458192;4.770639;8.000000;6.500000;0.812500;767.799988;10240.000000
DYNAMIC;0.1;16;2532.199951;0.506440;4.849996;8.000000;6.800000;0.850000;5000.000000;12485.200195
STANDARD;0.1;18;701.700012;0.469145;5.249476;8.000000;6.900000;0.862500;1495.699951;13980.000000
LESS;0.1;18;674.799988;0.451160;5.249476;8.000000;6.900000;0.862500;1495.699951;13980.000000
DYNAMIC;0.1;18;2523.000000;0.504600;5.249476;8.000000;6.900000;0.862500;5000.000000;16814.000000
STANDARD;0.1;20;1944.900024;0.472568;5.636182;8.000000;7.600000;0.950000;4115.600098;18860.000000
LESS;0.1;20;1868.900024;0.454101;5.636182;8.000000;7.600000;0.950000;4115.600098;18860.000000
DYNAMIC;0.1;20;2579.800049;0.515960;5.763216;8.000000;7.300000;0.912500;5000.000000;23242.800781
STANDARD;0.1;22;2376.399902;0.475280;5.807525;8.000000;7.400000;0.925000;5000.000000;27128.000000
LESS;0.1;22;2294.199951;0.458840;5.807525;8.000000;7.400000;0.925000;5000.000000;27128.000000
DYNAMIC;0.1;22;2638.800049;0.527760;5.992817;8.000000;7.800000;0.975000;5000.000000;32120.000000
STANDARD;0.1;24;2394.500000;0.478900;6.129590;8.000000;7.400000;0.925000;5000.000000;36408.000000
LESS;0.1;24;2318.199951;0.463640;6.129590;8.000000;7.400000;0.925000;5000.000000;36408.000000
DYNAMIC;0.1;24;2624.500000;0.524900;6.333255;8.000000;8.000000;1.000000;5000.000000;43345.601562
STANDARD;0.1;26;2421.500000;0.484300;6.419578;8.000000;7.900000;0.987500;5000.000000;48900.000000
LESS;0.1;26;2339.899902;0.467980;6.419578;8.000000;7.900000;0.987500;5000.000000;48900.000000
DYNAMIC;0.1;26;2662.399902;0.532480;6.451632;8.000000;7.800000;0.975000;5000.000000;57481.601562
STANDARD;0.1;28;2449.600098;0.489920;6.449267;8.000000;6.900000;0.862500;5000.000000;63824.000000
LESS;0.1;28;2348.000000;0.469600;6.449267;8.000000;6.900000;0.862500;5000.000000;63824.000000
DYNAMIC;0.1;28;2726.000000;0.545200;6.805269;8.000000;7.900000;0.987500;5000.000000;71957.203125
STANDARD;0.1;30;2452.699951;0.490540;7.022584;8.000000;7.900000;0.987500;5000.000000;78580.000000
LESS;0.1;30;2354.899902;0.470980;7.022584;8.000000;7.900000;0.987500;5000.000000;78580.000000
DYNAMIC;0.1;30;2737.899902;0.547580;7.078991;8.000000;8.000000;1.000000;5000.000000;89559.203125
STANDARD;0.1;32;2474.199951;0.494840;7.105518;8.000000;7.600000;0.950000;5000.000000;98844.000000
LESS;0.1;32;2386.800049;0.477360;7.105518;8.000000;7.600000;0.950000;5000.000000;98844.000000
DYNAMIC;0.1;32;2735.800049;0.547160;7.205779;8.000000;7.800000;0.975000;5000.000000;107753.203125
STANDARD;0.1;34;2495.399902;0.499080;7.148639;8.000000;7.600000;0.950000;5000.000000;114680.000000
LESS;0.1;34;2395.899902;0.479180;7.148639;8.000000;7.600000;0.950000;5000.000000;114680.000000
DYNAMIC;0.1;34;2794.000000;0.558800;7.473643;8.000000;7.700000;0.962500;5000.000000;125881.203125
STANDARD;0.1;36;2509.899902;0.501980;7.636463;8.000000;7.900000;0.987500;5000.000000;134756.000000
LESS;0.1;36;2441.600098;0.488320;7.636463;8.000000;7.900000;0.987500;5000.000000;134676.000000
DYNAMIC;0.1;36;2861.699951;0.572340;7.751711;8.000000;7.900000;0.987500;5000.000000;148737.593750
STANDARD;0.1;38;2554.000000;0.510800;7.836852;8.000000;8.000000;1.000000;5000.000000;159760.000000
LESS;0.1;38;2424.800049;0.484960;7.836852;8.000000;8.000000;1.000000;5000.000000;159760.000000
DYNAMIC;0.1;38;2858.899902;0.571780;7.836852;8.000000;8.000000;1.000000;5000.000000;174684.000000
STANDARD;0.1;40;2534.699951;0.506940;7.842878;8.000000;7.500000;0.937500;5000.000000;186088.000000
LESS;0.1;40;2483.199951;0.496640;7.842878;8.000000;7.500000;0.937500;5000.000000;186088.000000
DYNAMIC;0.1;40;2904.100098;0.580820;8.064383;8.000000;7.900000;0.987500;5000.000000;201904.796875
STANDARD;0.1;42;2591.300049;0.518260;7.863364;8.000000;7.600000;0.950000;5000.000000;214056.000000
LESS;0.1;42;2455.199951;0.491040;7.863364;8.000000;7.600000;0.950000;5000.000000;214056.000000
DYNAMIC;0.1;42;2967.399902;0.593480;8.287679;8.000000;8.000000;1.000000;5000.000000;229626.796875
STANDARD;0.1;44;2653.300049;0.530660;8.209405;8.000000;8.000000;1.000000;5000.000000;241632.000000
LESS;0.1;44;2516.100098;0.503220;8.209405;8.000000;8.000000;1.000000;5000.000000;241632.000000
DYNAMIC;0.1;44;2958.199951;0.591640;8.518352;8.000000;8.000000;1.000000;5000.000000;264640.000000
STANDARD;0.1;46;2586.500000;0.517300;8.640554;8.000000;8.000000;1.000000;5000.000000;282508.000000
LESS;0.1;46;2516.000000;0.503200;8.640554;8.000000;8.000000;1.000000;5000.000000;282508.000000
DYNAMIC;0.1;46;2956.500000;0.591300;8.640554;8.000000;8.000000;1.000000;5000.000000;305228.812500
STANDARD;0.1;48;2625.000000;0.525000;8.648771;8.000000;7.900000;0.987500;5000.000000;324244.000000
LESS;0.1;48;2507.000000;0.501400;8.648771;8.000000;7.900000;0.987500;5000.000000;323960.000000
DYNAMIC;0.1;48;3007.899902;0.601580;8.699907;8.000000;7.900000;0.987500;5000.000000;345604.000000
