0;0;0;0;0;0;0;0;0;0;0;0;0;0;0;0;0;0;0;0;0;0;0;0;0;0;0;0;0;0;0;0;0;0;0;0;0;0;0;0;0;0;0;0;0;0;0;0;0;0;0;0;0;0;0;0;0;0;0;0;0;0;0;0;0;0;0;0;0;0;0;0.0196078;0.831373;0.309804;0;0;0;0;0;0;0;0;0;0;0;0;0;0;0;0;0;0;0;0;0;0;0;0;0;0.278431;0.992157;0.309804;0;0;0;0;0;0;0;0;0;0;0;0;0;0;0;0;0;0;0;0;0;0;0;0;0;0.603922;0.992157;0.309804;0;0;0;0;0;0;0;0;0;0;0;0;0;0;0;0;0;0;0;0;0;0;0;0;0.0980392;0.933333;0.803922;0.0235294;0;0;0;0;0;0;0;0;0;0;0;0;0;0;0;0;0;0;0;0;0;0;0;0;0.298039;0.996078;0.662745;0;0;0;0;0;0;0;0;0;0;0;0;0;0;0;0;0;0;0;0;0;0;0;0;0.0392157;0.870588;0.956863;0.227451;0;0;0;0;0;0;0;0;0;0;0;0;0;0;0;0;0;0;0;0;0;0;0;0;0.243137;0.992157;0.760784;0;0;0;0;0;0;0;0;0;0;0;0;0;0;0;0;0;0;0;0;0;0;0;0;0;0.854902;0.992157;0.294118;0;0;0;0;0;0;0;0;0;0;0;0;0;0;0;0;0;0;0;0;0;0;0;0;0.635294;1;0.745098;0;0;0;0;0;0;0;0;0;0;0;0;0;0;0;0;0;0;0;0;0;0;0;0;0;0.917647;0.984314;0.756863;0.0470588;0;0;0;0;0;0;0;0;0;0;0;0;0;0;0;0;0;0;0;0;0;0;0;0.12549;0.956863;0.847059;0;0;0;0;0;0;0;0;0;0;0;0;0;0;0;0;0;0;0;0;0;0;0;0;0;0.701961;0.992157;0.333333;0;0;0;0;0;0;0;0;0;0;0;0;0;0;0;0;0;0;0;0;0;0;0;0;0.109804;0.94902;0.878431;0;0;0.0431373;0.172549;0.501961;0.313725;0.0117647;0;0;0;0;0;0;0;0;0;0;0;0;0;0;0;0;0;0;0.439216;0.992157;0.541176;0;0.168627;0.886275;0.992157;0.996078;0.992157;0.388235;0;0;0;0;0;0;0;0;0;0;0;0;0;0;0;0;0;0;0.764706;0.992157;0.309804;0.113725;0.839216;0.72549;0.54902;0.435294;0.8;0.458824;0;0;0;0;0;0;0;0;0;0;0;0;0;0;0;0;0;0;0.764706;0.992157;0.0745098;0.854902;0.564706;0.0117647;0;0.0509804;0.905882;0.458824;0;0;0;0;0;0;0;0;0;0;0;0;0;0;0;0;0;0;0.768627;0.996078;0.384314;0.658824;0;0;0.027451;0.52549;0.913725;0.188235;0;0;0;0;0;0;0;0;0;0;0;0;0;0;0;0;0;0;0.764706;0.992157;0.380392;0;0;0.0862745;0.6;0.913725;0.290196;0;0;0;0;0;0;0;0;0;0;0;0;0;0;0;0;0;0;0;0.439216;0.992157;0.803922;0.537255;0.678431;0.921569;0.921569;0.188235;0;0;0;0;0;0;0;0;0;0;0;0;0;0;0;0;0;0;0;0;0.0117647;0.407843;0.968627;0.996078;0.945098;0.615686;0.168627;0;0;0;0;0;0;0;0;0;0;0;0;0;0;0;0;0;0;0;0;0;0;0;0;0;0;0;0;0;0;0;0;0;0;0;0;0;0;0;0;0;0;0;0;0;0;0;0;0;0;0;0;0;0;0;0;0;0;0;0;0;0;0;0;0;0;0;0;0;0;0;0;0;0;0;0;0;0;0;0;0;0;0;0;0;0;0;0;0;0;0;0;0;0;0;0;0;0;0;0;0;0;0;0;0;0;0;0;0;0;0;0;0;0;0;0;0;0;0;0;0;0;0;0;0;0;0;0;0;0;0;0;0;0;0;0;0;0;0;0;0;0;0;0;0;0;0;0;0;0;0;0;0;0;0;0;0;0;0;0;0;0;0;0;0;0;0;0;0;0;0;0;0;0;0;0;0;0;0
0;0;0;0;0;0;0;0;0;0;0;0;0;0;0;0;0;0;0;0;0;0;0;0;0;0;0;0;0;0;0;0;0;0;0;0;0;0;0;0;0;0;0;0;0;0;0;0;0;0;0;0;0;0;0;0;0;0;0;0;0;0;0;0;0;0;0;0;0;0;0;0;0;0;0;0;0;0;0;0;0;0;0;0;0;0;0;0;0;0;0;0;0;0;0;0;0;0;0;0;0;0;0;0;0;0;0;0;0;0;0;0;0;0;0;0;0;0;0;0;0;0;0;0;0;0;0;0.180392;0.72549;0.941176;0.607843;0.0431373;0;0;0;0;0;0;0;0;0;0;0;0;0;0;0;0;0;0;0;0;0;0;0.215686;0.921569;0.996078;0.996078;0.996078;0.411765;0;0;0;0;0;0;0;0;0;0;0;0;0;0;0;0;0;0;0;0;0;0.419608;0.984314;0.996078;0.815686;0.4;0.572549;0.360784;0;0;0;0;0;0;0;0;0;0;0;0;0;0;0;0;0;0;0;0;0.184314;0.941176;0.996078;0.513725;0.0313725;0;0;0;0;0;0;0;0;0;0;0;0;0;0;0;0;0;0;0;0;0;0;0.0392157;0.85098;0.996078;0.603922;0;0;0;0;0;0;0;0;0;0;0;0;0;0;0;0;0;0;0;0;0;0;0;0;0.552941;0.996078;0.886275;0.0392157;0;0;0;0;0;0;0;0;0;0;0;0;0;0;0;0;0;0;0;0;0;0;0;0;0.74902;0.996078;0.2;0;0;0;0;0;0;0;0;0;0;0;0;0;0;0;0;0;0;0;0;0;0;0;0;0.0509804;0.94902;0.784314;0.537255;0.615686;0.176471;0;0;0;0;0;0;0;0;0;0;0;0;0;0;0;0;0;0;0;0;0;0;0.337255;0.996078;0.321569;0.796078;0.996078;0.972549;0.219608;0;0;0;0;0;0;0;0;0;0;0;0;0;0;0;0;0;0;0;0;0;0.666667;0.996078;0.188235;0.113725;0.956863;0.996078;0.752941;0;0;0;0;0;0;0;0;0;0;0;0;0;0;0;0;0;0;0;0;0;0.686275;0.913725;0.0588235;0;0;0.54902;0.921569;0.0705882;0;0;0;0;0;0;0;0;0;0;0;0;0;0;0;0;0;0;0;0;0.686275;0.870588;0;0;0;0.054902;0.964706;0.552941;0;0;0;0;0;0;0;0;0;0;0;0;0;0;0;0;0;0;0;0;0.686275;0.870588;0;0;0;0;0.74902;0.807843;0;0;0;0;0;0;0;0;0;0;0;0;0;0;0;0;0;0;0;0;0.415686;0.870588;0;0;0;0;0.478431;0.854902;0.0313725;0;0;0;0;0;0;0;0;0;0;0;0;0;0;0;0;0;0;0;0.376471;0.870588;0;0;0;0;0.439216;0.996078;0.223529;0;0;0;0;0;0;0;0;0;0;0;0;0;0;0;0;0;0;0;0.356863;0.921569;0.0705882;0;0;0;0.458824;0.996078;0.419608;0;0;0;0;0;0;0;0;0;0;0;0;0;0;0;0;0;0;0;0.054902;0.964706;0.227451;0;0;0.0862745;0.933333;0.913725;0.0705882;0;0;0;0;0;0;0;0;0;0;0;0;0;0;0;0;0;0;0;0;0.690196;0.843137;0.227451;0.286275;0.882353;0.996078;0.690196;0;0;0;0;0;0;0;0;0;0;0;0;0;0;0;0;0;0;0;0;0;0.231373;0.94902;0.996078;0.996078;1;0.729412;0.0235294;0;0;0;0;0;0;0;0;0;0;0;0;0;0;0;0;0;0;0;0;0;0;0.364706;0.956863;0.898039;0.54902;0.0156863;0;0;0;0;0;0;0;0;0;0;0;0;0;0;0;0;0;0;0;0;0;0;0;0;0;0;0;0;0;0;0;0;0;0;0;0;0;0;0;0;0;0;0;0;0;0;0;0;0;0;0;0;0;0;0;0;0;0;0;0;0;0;0;0;0;0;0;0;0;0;0;0;0;0;0;0;0;0;0;0;0;0;0;0;0;0;0;0;0;0;0;0;0;0;0;0;0;0;0;0;0;0;0;0;0;0;0;0;0;0;0;0;0;0;0;0;0;0;0;0;0;0;0
0;0;0;0;0;0;0;0;0;0;0;0;0;0;0;0;0;0;0;0;0;0;0;0;0;0;0;0;0;0;0;0;0;0;0;0;0;0;0;0;0;0;0;0;0;0;0;0;0;0;0;0;0;0;0;0;0;0;0;0;0;0;0;0;0;0;0;0;0;0;0;0;0;0;0;0;0;0;0;0;0;0;0;0;0;0;0;0;0;0;0;0;0;0;0;0;0;0;0;0;0;0;0;0;0;0;0;0;0;0;0;0;0;0;0;0;0;0;0;0;0;0;0;0;0;0;0;0;0;0;0;0;0;0;0;0;0;0;0;0;0;0;0;0;0;0;0;0;0;0;0;0;0;0;0;0;0;0;0;0;0;0;0;0;0;0;0;0;0;0;0;0;0;0;0;0;0;0;0;0;0;0;0;0;0;0;0;0;0;0;0;0;0;0;0;0;0;0;0;0;0;0;0;0;0;0;0.0156863;0.34902;0.509804;0.619608;0.996078;0.866667;0.509804;0.117647;0.00784314;0;0;0;0;0;0;0;0;0;0;0;0;0;0;0;0;0;0.00784314;0.109804;0.827451;0.992157;0.992157;0.984314;0.945098;0.956863;0.992157;0.992157;0.447059;0.0313725;0;0;0;0;0;0;0;0;0;0;0;0;0;0;0;0.00784314;0.403922;0.992157;0.992157;0.945098;0.584314;0.341176;0;0.117647;0.576471;0.980392;0.992157;0.835294;0.0666667;0;0;0;0;0;0;0;0;0;0;0;0;0;0.00784314;0.403922;0.992157;0.980392;0.823529;0.141176;0;0;0;0;0;0.333333;0.847059;0.992157;0.203922;0.0980392;0.054902;0;0;0;0;0;0;0;0;0;0;0;0.0509804;0.992157;0.980392;0.52549;0;0;0;0;0;0;0;0;0.345098;0.992157;0.992157;0.992157;0.823529;0.027451;0;0;0;0;0;0;0;0;0;0;0.360784;0.992157;0.584314;0;0;0;0;0;0;0;0;0.121569;0.67451;0.992157;0.992157;0.992157;0.643137;0.0196078;0;0;0;0;0;0;0;0;0;0;0.533333;0.992157;0.411765;0;0;0;0;0;0;0.133333;0.552941;0.929412;0.992157;0.992157;0.992157;0.717647;0.0235294;0;0;0;0;0;0;0;0;0;0;0;0.443137;0.992157;0.807843;0.619608;0.196078;0.196078;0.294118;0.682353;0.682353;0.917647;0.992157;0.992157;0.992157;0.992157;0.917647;0.231373;0;0;0;0;0;0;0;0;0;0;0;0;0.0156863;0.576471;0.992157;0.992157;0.992157;0.992157;0.992157;0.992157;0.992157;0.827451;0.839216;0.992157;0.992157;0.992157;0.498039;0;0;0;0;0;0;0;0;0;0;0;0;0;0;0.0196078;0.313725;0.74902;0.74902;0.74902;0.654902;0.266667;0.266667;0.129412;0.701961;0.992157;0.909804;0.333333;0.0313725;0;0;0;0;0;0;0;0;0;0;0;0;0;0;0;0;0;0;0;0;0;0;0.4;0.992157;0.992157;0.521569;0;0;0;0;0;0;0;0;0;0;0;0;0;0;0;0;0;0;0;0;0;0;0;0.192157;0.941176;0.992157;0.898039;0.117647;0;0;0;0;0;0;0;0;0;0;0;0;0;0;0;0;0;0;0;0;0;0;0;0.635294;0.992157;0.992157;0.286275;0;0;0;0;0;0;0;0;0;0;0;0;0;0;0;0;0;0;0;0;0;0;0;0.0784314;0.819608;0.992157;0.580392;0.0352941;0;0;0;0;0;0;0;0;0;0;0;0;0;0;0;0;0;0;0;0;0;0;0;0.4;0.992157;0.894118;0.137255;0;0;0;0;0;0;0;0;0;0;0;0;0;0;0;0;0;0;0;0;0;0;0;0.172549;0.960784;0.992157;0.72549;0;0;0;0;0;0;0;0;0;0;0;0;0;0;0;0;0;0;0;0;0;0;0;0;0.196078;0.992157;0.992157;0.286275;0;0;0;0;0;0;0;0;0;0;0;0;0;0;0;0;0;0;0;0;0;0;0;0;0.196078;0.992157;0.992157;0.239216;0;0;0;0;0;0;0;0;0;0;0;0;0;0;0;0;0;0;0;0;0;0;0;0;0.105882;0.858824;0.992157;0.466667;0;0;0;0;0;0;0;0;0;0;0;0;0;0;0;0;0;0;0;0;0;0;0;0;0;0.0156863;0.498039;0.72549;0;0;0;0;0;0;0;0;0;0;0;0;0;0;0;0;0;0;0;0;0;0;0;0;0;0;0;0;0;0;0;0;0;0;0;0;0;0;0;0
0;0;0;0;0;0;0;0;0;0;0;0;0;0;0;0;0;0;0;0;0;0;0;0;0;0;0;0;0;0;0;0;0;0;0;0;0;0;0;0;0;0;0;0;0;0;0;0;0;0;0;0;0;0;0;0;0;0;0;0;0;0;0;0;0;0;0;0;0;0;0;0;0;0;0;0;0;0;0;0;0;0;0;0;0;0;0;0;0;0;0;0;0;0;0;0;0;0;0;0;0;0;0;0;0;0;0;0;0;0;0;0;0;0;0;0;0;0;0;0;0;0;0;0;0;0;0;0;0;0;0;0;0;0;0;0;0;0;0;0;0;0;0;0;0;0;0;0;0;0;0;0.0313725;0.298039;0.941176;0.305882;0.152941;0.152941;0.152941;0.152941;0.0705882;0;0;0;0;0;0;0;0;0;0;0;0;0;0;0;0;0;0;0;0.321569;0.996078;0.996078;0.996078;0.996078;0.996078;0.996078;0.996078;0.623529;0.0980392;0;0;0;0;0;0;0;0;0;0;0;0;0;0;0;0;0;0.231373;0.94902;0.996078;0.988235;0.992157;0.992157;0.976471;0.976471;0.992157;0.996078;0.505882;0;0;0;0;0;0;0;0;0;0;0;0;0;0;0;0;0;0.72549;0.996078;0.941176;0.239216;0.258824;0.258824;0;0;0.494118;0.992157;0.894118;0.101961;0;0;0;0;0;0;0;0;0;0;0;0;0;0;0;0.243137;0.972549;0.937255;0.266667;0;0;0;0;0;0;0.823529;0.996078;0.486275;0;0;0;0;0;0;0;0;0;0;0;0;0;0;0;0.517647;0.996078;0.788235;0;0;0;0;0;0;0;0.333333;0.996078;0.956863;0.0156863;0;0;0;0;0;0;0;0;0;0;0;0;0;0;0.745098;0.988235;0.309804;0;0;0;0;0;0;0;0.0431373;0.803922;0.996078;0.0196078;0;0;0;0;0;0;0;0;0;0;0;0;0;0.133333;0.941176;0.807843;0;0;0;0;0;0;0;0;0.0392157;0.788235;0.996078;0.0196078;0;0;0;0;0;0;0;0;0;0;0;0;0.0117647;0.760784;0.996078;0.529412;0;0;0;0;0;0;0;0;0.317647;0.996078;0.996078;0.0196078;0;0;0;0;0;0;0;0;0;0;0;0;0.0235294;0.996078;0.996078;0.258824;0;0;0;0;0;0;0;0;0.533333;0.996078;0.737255;0.00784314;0;0;0;0;0;0;0;0;0;0;0;0;0.180392;0.996078;0.745098;0.0235294;0;0;0;0;0;0;0;0;0.533333;0.996078;0.439216;0;0;0;0;0;0;0;0;0;0;0;0;0;0.231373;0.996078;0.705882;0.0117647;0;0;0;0;0;0;0;0;0.752941;0.866667;0.0823529;0;0;0;0;0;0;0;0;0;0;0;0;0;0.0235294;0.996078;0.996078;0.105882;0;0;0;0;0;0;0;0.356863;0.984314;0.741176;0;0;0;0;0;0;0;0;0;0;0;0;0;0;0.0235294;0.996078;0.996078;0.105882;0;0;0;0;0;0;0;0.811765;0.996078;0.741176;0;0;0;0;0;0;0;0;0;0;0;0;0;0;0.0235294;0.996078;0.996078;0.105882;0;0;0;0;0;0.0117647;0.494118;0.992157;0.941176;0.301961;0;0;0;0;0;0;0;0;0;0;0;0;0;0;0.0235294;0.996078;0.996078;0.215686;0;0;0;0;0;0.490196;1;0.996078;0.466667;0;0;0;0;0;0;0;0;0;0;0;0;0;0;0;0.0235294;0.996078;0.996078;0.701961;0;0;0;0;0.305882;0.988235;0.996078;0.843137;0.0941176;0;0;0;0;0;0;0;0;0;0;0;0;0;0;0;0.00392157;0.34902;0.964706;0.996078;0.635294;0.27451;0.552941;0.827451;0.988235;0.996078;0.811765;0.0941176;0;0;0;0;0;0;0;0;0;0;0;0;0;0;0;0;0;0;0.627451;0.996078;0.996078;0.996078;0.996078;0.996078;0.898039;0.682353;0.101961;0;0;0;0;0;0;0;0;0;0;0;0;0;0;0;0;0;0;0;0.0470588;0.364706;0.996078;0.996078;0.603922;0.482353;0.0941176;0;0;0;0;0;0;0;0;0;0;0;0;0;0;0;0;0;0;0;0;0;0;0;0;0;0;0;0;0;0;0;0;0;0;0;0;0;0;0;0;0;0;0;0;0;0;0;0;0;0;0;0;0;0;0;0;0;0;0;0;0;0;0;0;0;0;0;0;0;0;0;0;0;0;0;0;0;0;0;0;0;0;0;0;0;0;0;0;0;0;0;0;0;0;0;0
0;0;0;0;0;0;0;0;0;0;0;0;0;0;0;0;0;0;0;0;0;0;0;0;0;0;0;0;0;0;0;0;0;0;0;0;0;0;0;0;0;0;0;0;0;0;0;0;0;0;0;0;0;0;0;0;0;0;0;0;0;0;0;0;0;0;0;0;0;0;0;0;0;0;0;0;0;0;0;0;0;0;0;0;0;0;0;0;0;0;0;0;0;0;0;0;0;0;0;0;0;0;0;0;0;0;0;0;0;0;0;0;0;0;0;0;0;0;0;0;0;0;0;0;0.0941176;0.376471;0.376471;0.45098;0.678431;0.376471;0.141176;0;0;0;0;0;0;0;0;0;0;0;0;0;0;0;0;0;0;0;0.0156863;0.439216;0.803922;0.984314;0.992157;0.984314;0.984314;0.984314;0.447059;0;0;0;0;0;0;0;0;0;0;0;0;0;0;0;0;0;0;0;0.12549;0.984314;0.984314;0.984314;0.992157;0.984314;0.984314;0.984314;0.984314;0.313725;0;0;0;0;0;0;0;0;0;0;0;0;0;0;0;0;0;0.0941176;0.729412;0.984314;0.984314;0.984314;0.992157;0.984314;0.984314;0.984314;0.984314;0.713725;0.0627451;0;0;0;0;0;0;0;0;0;0;0;0;0;0;0;0;0.141176;0.831373;0.984314;0.984314;0.984314;0.756863;0.368627;0.368627;0.909804;0.984314;0.992157;0.243137;0;0;0;0;0;0;0;0;0;0;0;0;0;0;0;0;0;0.513725;0.992157;0.898039;0.619608;0;0;0;0.87451;0.992157;1;0.247059;0;0;0;0;0;0;0;0;0;0;0;0;0;0;0;0;0;0.109804;0.862745;0.258824;0;0;0;0.376471;0.956863;0.984314;0.709804;0.0627451;0;0;0;0;0;0;0;0;0;0;0;0;0;0;0;0;0;0;0;0;0;0;0;0.498039;0.984314;0.984314;0.619608;0;0;0;0;0;0;0;0;0;0;0;0;0;0;0;0;0;0;0;0;0;0;0;0.0313725;0.619608;0.984314;0.984314;0.466667;0;0;0;0;0;0;0;0;0;0;0;0;0;0;0;0;0;0;0;0;0;0;0;0.12549;0.984314;0.984314;0.984314;0;0;0;0;0;0;0;0;0;0;0;0;0;0;0;0;0;0;0;0;0;0;0;0.141176;0.839216;0.992157;0.992157;0.372549;0;0;0;0;0;0;0;0;0;0;0;0;0;0;0;0;0;0;0;0;0;0;0;0.45098;0.984314;0.984314;0.984314;0.368627;0;0;0;0;0;0;0;0;0;0;0;0;0;0;0;0;0;0;0;0;0;0;0.313725;0.992157;0.984314;0.984314;0.984314;0.368627;0;0;0;0;0;0;0;0;0;0;0;0;0;0;0;0;0;0;0;0.0313725;0.25098;0.407843;0.941176;0.992157;0.984314;0.984314;0.984314;0.909804;0.639216;0.0627451;0;0;0;0;0;0;0;0;0;0;0;0;0;0;0;0.392157;0.623529;0.666667;0.984314;0.984314;0.984314;0.992157;0.984314;0.984314;0.984314;0.984314;0.992157;0.709804;0.309804;0;0;0;0;0;0;0;0;0;0;0;0.0470588;0.682353;0.992157;0.992157;1;0.992157;0.992157;0.992157;0.992157;1;0.992157;0.992157;0.992157;0.992157;1;0.992157;0.992157;0.121569;0;0;0;0;0;0;0;0;0;0;0.12549;0.984314;0.984314;0.984314;0.992157;0.984314;0.984314;0.984314;0.984314;0.945098;0.862745;0.54902;0.4;0.862745;0.913725;0.984314;0.984314;0.121569;0;0;0;0;0;0;0;0;0;0;0.0627451;0.737255;0.984314;0.984314;0.992157;0.984314;0.984314;0.984314;0.984314;0.619608;0;0;0;0;0.188235;0.494118;0.737255;0.121569;0;0;0;0;0;0;0;0;0;0;0;0.0627451;0.882353;0.984314;0.992157;0.984314;0.984314;0.921569;0.34902;0.0745098;0;0;0;0;0;0;0.0627451;0.0156863;0;0;0;0;0;0;0;0;0;0;0;0;0.32549;0.368627;0.992157;0.905882;0.368627;0.27451;0;0;0;0;0;0;0;0;0;0;0;0;0;0;0;0;0;0;0;0;0;0;0;0;0;0;0;0;0;0;0;0;0;0;0;0;0;0;0;0;0;0;0;0;0;0;0;0;0;0;0;0;0;0;0;0;0;0;0;0;0;0;0;0;0;0;0;0;0;0;0;0;0;0;0;0;0;0;0;0;0;0;0;0;0;0;0;0;0;0;0;0;0;0;0;0;0;0;0;0;0;0;0;0;0;0;0;0;0;0;0;0;0;0;0;0;0;0;0;0;0;0;0;0;0;0;0
0;0;0;0;0;0;0;0;0;0;0;0;0;0;0;0;0;0;0;0;0;0;0;0;0;0;0;0;0;0;0;0;0;0;0;0;0;0;0;0;0;0;0;0;0;0;0;0;0;0;0;0;0;0;0;0;0;0;0;0;0;0;0;0;0;0;0;0;0;0;0;0;0;0;0;0;0;0;0;0;0;0;0;0;0;0;0;0;0;0;0;0;0;0;0;0;0;0;0;0;0;0;0;0;0;0;0;0;0;0;0;0;0;0;0;0;0;0;0;0;0;0;0;0;0;0;0;0;0;0;0;0;0;0;0;0;0;0;0;0;0;0;0;0;0;0;0;0;0;0;0;0;0;0.529412;0.992157;0.423529;0;0;0;0;0;0;0;0;0;0;0;0;0;0;0;0;0;0;0;0;0;0;0;0;0;0.85098;0.988235;0.580392;0;0;0;0;0;0;0;0;0;0;0;0;0;0;0;0;0;0;0;0.0823529;0.466667;0.101961;0;0;0;0.85098;0.988235;0.988235;0;0;0;0;0;0;0;0;0;0;0;0;0;0;0;0;0;0;0.0823529;0.807843;0.988235;0.866667;0.160784;0;0;0.85098;0.988235;0.988235;0.329412;0;0;0;0;0;0;0;0;0;0;0;0;0;0;0;0;0;0.145098;0.988235;0.988235;0.988235;0.278431;0;0;0.603922;0.988235;0.988235;0.564706;0;0;0;0;0;0;0;0;0;0;0;0;0;0;0;0;0;0.145098;0.988235;0.988235;0.988235;0.278431;0;0;0.286275;0.988235;0.988235;0.690196;0.0392157;0;0;0;0;0;0;0;0;0;0;0;0;0;0;0;0;0.145098;0.988235;0.988235;0.988235;0.278431;0;0;0.286275;0.988235;0.988235;0.992157;0.137255;0;0;0;0;0;0;0;0;0;0;0;0;0;0;0;0;0.145098;0.988235;0.988235;0.988235;0.686275;0.564706;0.568627;0.686275;0.988235;0.988235;0.992157;0.137255;0;0;0;0;0;0;0;0;0;0;0;0;0;0;0;0;0.145098;0.992157;0.992157;0.992157;0.992157;0.992157;1;0.992157;0.992157;0.992157;1;0.384314;0;0;0;0;0;0;0;0;0;0;0;0;0;0;0;0;0.145098;0.988235;0.988235;0.988235;0.988235;0.988235;0.992157;0.988235;0.988235;0.988235;0.992157;0.784314;0.0823529;0;0;0;0;0;0;0;0;0;0;0;0;0;0;0;0.0431373;0.278431;0.278431;0.443137;0.517647;0.843137;0.85098;0.843137;0.866667;0.988235;0.992157;0.988235;0.278431;0;0;0;0;0;0;0;0;0;0;0;0;0;0;0;0;0;0;0;0;0;0;0;0.145098;0.988235;0.992157;0.988235;0.603922;0;0;0;0;0;0;0;0;0;0;0;0;0;0;0;0;0;0;0;0;0;0;0;0.0823529;0.811765;1;0.992157;0.85098;0;0;0;0;0;0;0;0;0;0;0;0;0;0;0;0;0;0;0;0;0;0;0;0;0.564706;0.992157;0.988235;0.843137;0;0;0;0;0;0;0;0;0;0;0;0;0;0;0;0;0;0;0;0;0;0;0;0;0.564706;0.992157;0.988235;0.843137;0;0;0;0;0;0;0;0;0;0;0;0;0;0;0;0;0;0;0;0;0;0;0;0;0.564706;0.992157;0.988235;0.92549;0.243137;0;0;0;0;0;0;0;0;0;0;0;0;0;0;0;0;0;0;0;0;0;0;0;0.329412;1;0.992157;0.992157;0.666667;0;0;0;0;0;0;0;0;0;0;0;0;0;0;0;0;0;0;0;0;0;0;0;0;0.827451;0.988235;0.988235;0.988235;0.164706;0;0;0;0;0;0;0;0;0;0;0;0;0;0;0;0;0;0;0;0;0;0;0;0.121569;0.890196;0.988235;0.988235;0.564706;0;0;0;0;0;0;0;0;0;0;0;0;0;0;0;0;0;0;0;0;0;0;0;0;0.52549;0.988235;0.988235;0.564706;0;0;0;0;0;0;0;0;0;0;0;0;0;0;0;0;0;0;0;0;0;0;0;0;0;0;0;0;0;0;0;0;0;0;0;0;0;0;0;0;0;0;0;0;0;0;0;0;0;0;0;0;0;0;0;0;0;0;0;0;0;0;0;0;0;0;0;0;0;0;0;0;0;0;0;0;0;0;0;0;0;0;0;0;0;0;0;0;0;0;0
0;0;0;0;0;0;0;0;0;0;0;0;0;0;0;0;0;0;0;0;0;0;0;0;0;0;0;0;0;0;0;0;0;0;0;0;0;0;0;0;0;0;0;0;0;0;0;0;0;0;0;0;0;0;0;0;0;0;0;0;0;0;0;0;0;0;0;0;0;0;0;0;0;0;0;0;0;0;0;0;0;0;0;0;0;0;0;0;0;0;0;0;0;0;0;0;0;0;0;0;0;0;0;0;0;0;0;0;0;0;0;0;0;0;0;0;0;0;0;0;0;0;0;0;0;0;0;0;0;0;0;0;0;0;0;0;0;0;0;0;0;0;0;0;0;0;0;0;0;0;0;0;0;0;0;0;0;0;0;0;0;0;0;0;0;0;0;0;0;0;0;0;0;0;0;0;0;0;0;0;0;0;0;0;0;0;0;0;0;0;0;0;0;0;0;0;0;0;0;0;0;0;0;0;0;0;0;0;0;0;0;0;0;0;0;0;0;0;0;0;0;0;0;0;0;0;0;0;0;0;0;0;0;0;0;0.223529;0.658824;0.662745;0.658824;0.662745;0.658824;0;0;0;0;0;0;0;0;0;0;0;0;0;0;0;0;0;0;0;0;0.337255;0.772549;0.996078;0.992157;0.996078;0.992157;0.996078;0.992157;0.996078;0.545098;0.333333;0.333333;0.333333;0.109804;0;0;0;0;0;0;0;0;0;0;0;0;0;0.447059;0.992157;0.984314;0.992157;0.984314;0.992157;0.984314;0.992157;0.984314;0.992157;0.984314;0.992157;0.984314;0.992157;0.768627;0;0;0;0;0;0;0;0;0;0;0;0.223529;0.552941;0.992157;1;0.992157;0.996078;0.992157;0.996078;0.992157;0.996078;0.992157;0.996078;0.992157;0.996078;0.992157;0.996078;0.992157;0;0;0;0;0;0;0;0;0;0;0.662745;0.878431;0.992157;0.984314;0.992157;0.984314;0.992157;0.984314;0.992157;0.984314;0.992157;0.984314;0.992157;0.984314;0.992157;0.984314;0.992157;0.984314;0;0;0;0;0;0;0;0;0;0;1;0.992157;1;0.992157;1;0.992157;0.996078;0.992157;0.996078;0.768627;0.662745;0.658824;0.662745;0.658824;0.996078;0.992157;0.996078;0.992157;0;0;0;0;0;0;0;0;0;0;0.992157;0.984314;0.992157;0.984314;0.992157;0.984314;0.329412;0.32549;0.329412;0.109804;0;0;0;0;0.992157;0.984314;0.992157;0.984314;0;0;0;0;0;0;0;0;0;0;0.996078;0.992157;0.996078;0.992157;0.886275;0.219608;0;0;0;0;0;0;0;0;0.996078;0.992157;0.996078;0.768627;0;0;0;0;0;0;0;0;0;0;0.992157;0.984314;0.992157;0.984314;0.219608;0;0;0;0;0;0;0;0;0.447059;0.992157;0.984314;0.992157;0.32549;0;0;0;0;0;0;0;0;1;0.992157;0.996078;0.992157;0.662745;0.658824;0;0;0;0;0;0;0;0;0;0.662745;0.996078;0.992157;0.996078;0.329412;0;0;0;0;0;0;0;0;0.992157;0.984314;0.768627;0.32549;0;0;0;0;0;0;0;0;0;0;0.223529;0.878431;0.992157;0.984314;0.992157;0.32549;0;0;0;0;0;0;0;0;0.666667;0.658824;0;0;0;0;0;0;0;0;0;0;0;0;0.333333;0.992157;0.996078;0.992157;0.886275;0.219608;0;0;0;0;0;0;0;0;0;0;0;0;0;0;0;0;0;0;0;0;0;0;0.772549;0.984314;0.992157;0.984314;0.658824;0;0;0;0;0;0;0;0;0;0;0;0;0;0;0;0;0;0;0;0;0;0;0;0.996078;0.992157;0.996078;0.992157;0.447059;0;0;0;0;0;0;0;0;0;0;0;0;0;0;0;0;0;0;0;0;0;0;0;0.992157;0.984314;0.992157;0.984314;0;0;0;0;0;0;0;0;0;0;0;0;0;0;0;0;0;0;0;0;0;0;0;0;0.776471;0.992157;0.996078;0.992157;0;0;0;0;0;0;0;0;0;0;0;0;0;0;0;0;0;0;0;0;0;0;0;0;0.333333;0.984314;0.992157;0.984314;0;0;0;0;0;0;0;0;0;0;0;0;0;0;0;0;0;0;0;0;0;0;0;0;0;0;0;0;0;0;0;0;0;0;0;0;0;0;0;0;0;0;0;0;0;0;0;0;0;0;0;0;0;0;0;0;0;0;0;0;0;0;0;0;0;0;0;0;0;0;0;0;0;0;0;0;0;0;0;0;0;0;0;0;0;0;0;0;0;0;0
0;0;0;0;0;0;0;0;0;0;0;0;0;0;0;0;0;0;0;0;0;0;0;0;0;0;0;0;0;0;0;0;0;0;0;0;0;0;0;0;0;0;0;0;0;0;0;0;0;0;0;0;0;0;0;0;0;0;0;0;0;0;0;0;0;0;0;0;0;0;0;0;0;0;0;0;0;0;0;0;0;0;0;0;0;0;0;0;0;0;0;0;0;0;0;0;0;0;0;0;0;0;0;0;0;0;0;0;0;0;0;0;0;0;0;0;0;0;0;0;0;0;0;0;0;0;0;0;0;0;0;0;0;0;0;0;0;0;0;0;0;0;0;0;0;0;0;0;0;0;0;0.00784314;0.0156863;0.027451;0.145098;0.509804;0.654902;0.996078;0.996078;0.996078;0.996078;0.996078;0.996078;0.533333;0;0;0;0;0;0;0;0;0;0;0;0;0;0.00784314;0.360784;0.611765;0.768627;0.992157;0.992157;0.992157;0.992157;0.952941;0.776471;0.501961;0.937255;0.992157;0.992157;0.529412;0;0;0;0;0;0;0;0;0;0;0;0;0.0588235;0.611765;0.992157;0.992157;0.992157;0.992157;0.941176;0.788235;0.435294;0.0862745;0;0.85098;0.992157;0.992157;0.992157;0.792157;0.0117647;0;0;0;0;0;0;0;0;0;0;0.0588235;0.427451;0.992157;0.992157;0.929412;0.560784;0.411765;0.109804;0;0;0;0;0.768627;0.894118;0.937255;0.992157;0.992157;0.0196078;0;0;0;0;0;0;0;0;0;0;0.560784;0.992157;0.992157;0.603922;0.133333;0;0;0;0;0;0;0;0;0.0509804;0.721569;0.992157;0.937255;0.0196078;0;0;0;0;0;0;0;0;0;0;0.560784;0.992157;0.992157;0.364706;0;0;0;0;0;0;0;0;0.054902;0.482353;0.992157;0.992157;0.462745;0;0;0;0;0;0;0;0;0;0;0;0.560784;0.992157;0.992157;0.470588;0.0588235;0;0;0;0;0;0;0;0.686275;0.992157;0.992157;0.619608;0.0156863;0;0;0;0;0;0;0;0;0;0;0;0.215686;0.913725;0.992157;0.992157;0.701961;0.196078;0.0588235;0;0;0;0.0627451;0.6;0.94902;0.992157;0.709804;0.0235294;0;0;0;0;0;0;0;0;0;0;0;0;0;0.239216;0.992157;0.992157;0.992157;0.992157;0.447059;0.168627;0;0.172549;0.701961;0.992157;0.992157;0.717647;0.168627;0;0;0;0;0;0;0;0;0;0;0;0;0;0;0.027451;0.32549;0.74902;0.909804;0.992157;0.992157;0.929412;0.729412;0.937255;0.992157;0.992157;0.603922;0.160784;0;0;0;0;0;0;0;0;0;0;0;0;0;0;0;0;0;0;0.243137;0.909804;0.992157;0.992157;0.992157;0.992157;0.992157;0.992157;0.145098;0;0;0;0;0;0;0;0;0;0;0;0;0;0;0;0;0;0;0.0431373;0.376471;0.92549;0.992157;0.992157;0.992157;0.992157;0.992157;0.992157;0.631373;0.0352941;0;0;0;0;0;0;0;0;0;0;0;0;0;0;0;0.235294;0.803922;0.831373;0.992157;0.992157;0.992157;0.913725;0.309804;0.572549;0.933333;0.992157;0.992157;0.117647;0;0;0;0;0;0;0;0;0;0;0;0;0;0;0.231373;0.92549;0.992157;0.992157;0.85098;0.262745;0.309804;0.12549;0;0;0.564706;0.992157;0.992157;0.117647;0;0;0;0;0;0;0;0;0;0;0;0;0;0.0196078;0.717647;0.992157;0.992157;0.760784;0.282353;0;0;0;0;0.109804;0.87451;0.992157;0.992157;0.117647;0;0;0;0;0;0;0;0;0;0;0;0;0.0235294;0.882353;0.992157;0.905882;0.117647;0.0431373;0;0;0;0;0.298039;0.803922;0.992157;0.992157;0.482353;0.0156863;0;0;0;0;0;0;0;0;0;0;0;0;0.027451;0.992157;0.992157;0.694118;0;0;0;0;0;0.427451;0.972549;0.992157;0.992157;0.85098;0.0862745;0;0;0;0;0;0;0;0;0;0;0;0;0;0.027451;0.992157;0.992157;0.623529;0;0;0;0.301961;0.784314;0.976471;0.992157;0.992157;0.486275;0.0470588;0;0;0;0;0;0;0;0;0;0;0;0;0;0;0.027451;0.992157;0.992157;0.988235;0.94902;0.94902;0.94902;0.980392;0.992157;0.992157;0.866667;0.152941;0.0117647;0;0;0;0;0;0;0;0;0;0;0;0;0;0;0;0.00392157;0.0470588;0.505882;0.792157;0.992157;0.992157;0.992157;0.992157;0.647059;0.388235;0.0156863;0;0;0;0;0;0;0;0;0;0;0;0;0;0;0;0;0;0;0;0;0;0;0;0;0;0;0;0;0;0;0;0;0;0;0;0;0;0;0;0;0;0;0;0;0;0;0;0;0;0;0;0;0;0;0;0;0;0;0;0;0;0;0;0;0;0;0;0;0;0;0;0;0;0;0;0;0;0;0;0;0;0;0;0;0;0;0;0;0;0;0;0;0;0;0;0
0;0;0;0;0;0;0;0;0;0;0;0;0;0;0;0;0;0;0;0;0;0;0;0;0;0;0;0;0;0;0;0;0;0;0;0;0;0;0;0;0;0;0;0;0;0;0;0;0;0;0;0;0;0;0;0;0;0;0;0;0;0;0;0;0;0;0;0;0;0.501961;1;0.74902;0;0;0;0;0;0;0;0;0;0;0;0;0;0;0;0;0;0;0;0;0;0;0;0;0.25098;1;1;1;0.74902;0;0;0;0;0;0;0;0;0;0;0;0;0;0;0;0;0;0;0;0;0;0;0;0.74902;1;1;1;1;0;0;0;0;0;0;0;0;0;0;0;0;0;0;0;0;0;0;0;0;0;0;0.501961;1;1;1;1;0.74902;0;0;0;0;0;0;0;0;0;0;0;0;0;0;0;0;0;0;0;0;0;0;0.74902;1;1;1;1;0;0;0;0;0;0;0;0;0;0;0;0;0;0;0;0;0;0;0;0;0;0;0.501961;1;1;1;1;0.501961;0;0;0;0;0;0;0;0;0;0;0;0;0;0;0;0;0;0;0;0;0;0;1;1;1;1;0.501961;0;0;0;0;0;0;0;0;0;0;0;0;0;0;0;0;0;0;0;0;0;0;0.74902;1;1;1;1;0;0;0;0;0;0;0;0;0;0;0;0;0;0;0;0;0;0;0;0;0;0;0.501961;1;1;1;1;0.25098;0;0;0;0;0;0;0;0;0;0;0;0;0;0;0;0;0;0;0;0;0;0.25098;1;1;1;1;0.74902;0;0;0.501961;1;1;1;1;0.74902;0.25098;0;0;0;0;0;0;0;0;0;0;0;0;0;0.74902;1;1;1;0.74902;0.25098;0;0.501961;1;1;1;1;1;1;1;0.25098;0;0;0;0;0;0;0;0;0;0;0;0;1;1;1;1;0.501961;0;0;1;1;1;1;1;1;1;1;1;0;0;0;0;0;0;0;0;0;0;0;0.501961;1;1;1;1;0.25098;0;0.74902;1;1;1;0.501961;0.501961;1;1;1;1;0.501961;0;0;0;0;0;0;0;0;0;0;0.501961;1;1;1;0.74902;0;0.25098;1;1;1;0.74902;0;0;0;1;1;1;0.501961;0;0;0;0;0;0;0;0;0;0;0.501961;1;1;1;0.501961;0;0.501961;1;1;1;0;0;0;0;0.74902;1;1;0.501961;0;0;0;0;0;0;0;0;0;0;1;1;1;1;0.74902;0;1;1;1;1;0;0;0;0.74902;1;1;1;0.501961;0;0;0;0;0;0;0;0;0;0;0.501961;1;1;1;1;1;1;1;1;1;0;0;0.25098;1;1;1;1;0.25098;0;0;0;0;0;0;0;0;0;0;0;1;1;1;1;1;1;1;1;1;1;1;1;1;1;1;0.501961;0;0;0;0;0;0;0;0;0;0;0;0;0.25098;1;1;1;1;1;1;1;1;1;1;1;1;0.74902;0.501961;0;0;0;0;0;0;0;0;0;0;0;0;0;0;0;0.25098;0.501961;0.74902;1;1;1;1;1;1;1;0.501961;0;0;0;0;0;0;0;0;0;0;0;0;0;0;0;0;0;0;0;0;0;0;0;0;0;0;0;0;0;0;0;0;0;0;0;0;0;0;0;0;0;0;0;0;0;0;0;0;0;0;0;0;0;0;0;0;0;0;0;0;0;0;0;0;0;0;0;0;0;0;0;0;0;0;0;0;0;0;0;0;0;0;0;0;0;0;0;0;0;0;0;0;0;0;0;0;0;0;0;0;0;0;0;0;0;0;0;0;0;0;0;0;0;0;0;0;0;0;0;0;0;0;0;0;0;0;0;0;0;0;0;0;0;0;0;0;0;0;0;0;0;0;0;0;0;0;0;0;0;0;0;0;0;0;0;0;0;0;0;0;0;0;0;0;0;0;0;0;0;0;0;0;0;0;0;0
0;0;0;0;0;0;0;0;0;0;0;0;0;0;0;0;0;0;0;0;0;0;0;0;0;0;0;0;0;0;0;0;0;0;0;0;0;0;0;0;0;0;0;0;0;0;0;0;0;0;0;0;0;0;0;0;0;0;0;0;0;0;0;0;0;0;0;0;0;0;0;0;0;0;0;0;0;0;0;0;0;0;0;0;0;0;0;0;0;0;0;0;0;0;0;0;0;0;0;0;0;0;0;0;0;0;0;0;0;0;0;0;0;0;0;0;0;0;0;0;0;0;0;0;0;0;0;0;0;0;0;0;0;0;0;0;0;0;0;0;0;0;0;0;0;0;0;0;0;0;0;0;0;0;0;0;0;0;0;0;0;0;0;0;0;0;0;0;0;0;0;0;0;0;0;0;0;0;0;0;0;0;0;0;0;0;0;0;0;0;0;0;0;0;0;0;0;0;0;0.0117647;0.258824;0.996078;0.996078;0.996078;0.996078;0.419608;0.027451;0;0;0;0;0.278431;0.996078;1;0.45098;0;0;0;0;0;0;0;0;0;0;0;0;0.0941176;0.988235;0.988235;0.988235;0.988235;0.988235;0.988235;0.4;0.184314;0.184314;0;0;0.223529;0.87451;0.988235;0.545098;0.0666667;0;0;0;0;0;0;0;0;0;0;0;0.341176;0.988235;0.988235;0.988235;0.988235;0.988235;0.988235;0.988235;0.988235;0.988235;0.278431;0.223529;0;0.364706;0.988235;0.988235;0.356863;0;0;0;0;0;0;0;0;0;0;0;0.996078;0.988235;0.988235;0.988235;0.988235;0.988235;0.988235;0.988235;0.988235;0.988235;0.996078;0.87451;0.364706;0.592157;0.988235;0.988235;0.584314;0.0980392;0;0;0;0;0;0;0;0;0;0;0.996078;0.988235;0.988235;0.988235;0.988235;0.988235;0.988235;0.988235;0.988235;0.988235;0.996078;0.988235;0.988235;0.988235;0.988235;0.988235;0.988235;0.266667;0;0;0;0;0;0;0;0;0;0;0.996078;0.988235;0.988235;0.988235;0.737255;0.447059;0.447059;0.843137;0.537255;0.945098;0.996078;0.988235;0.988235;0.988235;0.988235;0.988235;0.988235;0.662745;0.0980392;0;0;0;0;0;0;0;0;0;0.996078;0.988235;0.988235;0.756863;0.192157;0;0;0.262745;0.0627451;0.32549;0.419608;0.988235;0.988235;0.988235;0.988235;0.988235;0.988235;0.988235;0.176471;0;0;0;0;0;0;0;0;0;0.996078;0.988235;0.788235;0.168627;0;0;0;0;0;0;0.027451;0.4;0.988235;0.988235;0.988235;0.988235;0.988235;0.988235;0.772549;0.0627451;0;0;0;0;0;0;0;0;0.996078;0.988235;0.717647;0;0;0;0;0;0;0;0;0.0352941;0.4;0.988235;0.988235;0.988235;0.988235;0.988235;0.988235;0.0823529;0;0;0;0;0;0;0;0;0.0862745;0.0823529;0.0627451;0;0;0;0;0;0;0;0;0;0.27451;0.988235;0.988235;0.988235;0.988235;0.988235;0.988235;0.0823529;0;0;0;0;0;0;0;0;0;0;0;0;0;0;0;0;0;0;0;0;0;0.368627;1;0.996078;0.996078;0.996078;0.996078;0.0862745;0;0;0;0;0;0;0;0;0;0;0;0;0;0;0;0;0;0;0;0;0;0.298039;0.890196;0.988235;0.988235;0.988235;0.988235;0.0823529;0;0;0;0;0;0;0;0;0;0;0;0;0;0;0;0;0;0;0;0;0;0;0.333333;0.866667;0.988235;0.988235;0.988235;0.0823529;0;0;0;0;0;0;0;0;0;0;0;0;0;0;0;0;0;0;0;0;0;0;0;0.545098;0.988235;0.988235;0.988235;0.415686;0;0;0;0;0;0;0;0;0;0;0;0;0;0;0;0;0;0;0;0;0;0;0;0.298039;0.827451;0.988235;0.988235;0.988235;0;0;0;0;0;0;0;0;0;0;0;0;0;0;0;0;0;0;0;0;0;0;0;0;0.635294;0.988235;0.988235;0.988235;0;0;0;0;0;0;0;0;0;0;0;0;0;0;0;0;0;0;0;0;0;0;0;0;0.635294;0.988235;0.988235;0.988235;0;0;0;0;0;0;0;0;0;0;0;0;0;0;0;0;0;0;0;0;0;0;0;0;0.635294;0.988235;0.988235;0.988235;0;0;0;0;0;0;0;0;0;0;0;0;0;0;0;0;0;0;0;0;0;0;0;0;0.635294;0.988235;0.988235;0.988235;0;0;0;0;0;0;0;0;0;0;0;0;0;0;0;0;0;0;0;0;0;0;0;0;0.054902;0.74902;0.988235;0.160784;0;0;0;0;0;0;0;0;0;0;0;0;0;0;0;0;0;0;0;0;0;0;0;0;0;0;0;0;0;0;0;0;0
0;0;0;0;0;0;0;0;0;0;0;0;0;0;0;0;0;0;0;0;0;0;0;0;0;0;0;0;0;0;0;0;0;0;0;0;0;0;0;0;0;0;0;0;0;0;0;0;0;0;0;0;0;0;0;0;0;0;0;0;0;0;0;0;0;0;0;0;0;0;0;0;0;0;0;0;0;0;0;0;0;0;0;0;0;0;0;0;0;0;0;0;0;0;0;0;0;0;0;0;0;0;0;0;0;0;0;0;0;0;0;0;0;0;0;0;0;0;0;0;0;0;0;0;0;0;0;0;0;0;0;0;0;0;0;0;0;0;0;0;0;0;0;0;0;0.262745;0.643137;0.996078;0.996078;0.996078;0.996078;0.996078;0.996078;0.913725;0.262745;0.72549;1;1;0.501961;0.211765;0;0;0;0;0;0;0;0;0;0;0;0;0;0.996078;0.992157;0.992157;0.992157;0.992157;0.992157;0.992157;0.992157;0.992157;0.992157;0.992157;0.992157;0.992157;0.992157;0.803922;0;0;0;0;0;0;0;0;0;0;0;0;0;0.996078;0.992157;0.992157;0.992157;0.992157;0.992157;0.992157;0.992157;0.992157;0.992157;0.992157;0.992157;0.992157;0.992157;0.94902;0.431373;0;0;0;0;0;0;0;0;0;0;0;0;0.996078;0.992157;0.992157;0.992157;0.992157;0.992157;0.992157;0.992157;0.992157;0.992157;0.992157;0.992157;0.992157;0.992157;0.937255;0.388235;0;0;0;0;0;0;0;0;0;0;0;0;0.996078;0.992157;0.992157;0.992157;0.678431;0.439216;0.439216;0.439216;0.439216;0.439216;0.439216;0.933333;0.992157;0.992157;0.803922;0;0;0;0;0;0;0;0;0;0;0;0;0;0.996078;0.992157;0.992157;0.992157;0.439216;0;0;0;0;0;0;0.270588;0.917647;0.917647;0.196078;0;0;0;0;0;0;0;0;0;0;0;0;0;0.74902;0.992157;0.992157;0.992157;0.439216;0;0;0;0;0;0;0;0;0;0;0;0;0;0;0;0;0;0;0;0;0;0;0;0.262745;0.992157;0.992157;0.992157;0.439216;0;0;0;0;0;0;0;0;0;0;0;0;0;0;0;0;0;0;0;0;0;0;0;0.262745;0.992157;0.992157;0.992157;0.913725;0.85098;0.85098;0.85098;0.85098;0.85098;0.85098;0.192157;0.113725;0.113725;0.113725;0.0627451;0;0;0;0;0;0;0;0;0;0;0;0;0.262745;0.992157;0.992157;0.992157;0.992157;0.992157;0.992157;0.992157;0.992157;0.992157;0.992157;0.992157;0.992157;0.992157;0.992157;0.713725;0.372549;0.290196;0;0;0;0;0;0;0;0;0;0;0.0980392;0.690196;0.992157;0.992157;0.992157;0.992157;0.992157;0.992157;0.992157;0.992157;0.992157;0.992157;0.992157;0.992157;0.992157;0.992157;0.992157;0.909804;0.32549;0;0;0;0;0;0;0;0;0;0;0.054902;0.682353;0.843137;0.92549;0.992157;0.992157;0.992157;0.992157;0.992157;0.992157;0.992157;0.992157;0.992157;0.992157;0.992157;0.992157;0.992157;0.941176;0.227451;0;0;0;0;0;0;0;0;0;0;0;0;0.329412;0.584314;0.584314;0.584314;0.584314;0.584314;0.584314;0.584314;0.584314;0.584314;0.964706;0.992157;0.992157;0.992157;0.992157;0.552941;0;0;0;0;0;0;0;0;0;0;0;0;0;0;0;0;0;0;0;0;0;0;0.305882;0.623529;0.992157;0.992157;0.992157;0.992157;0;0;0;0;0;0;0;0;0;0;0;0;0;0;0;0;0;0;0;0;0;0.12549;0.188235;0.545098;0.992157;0.992157;0.992157;0.85098;0;0;0;0;0;0;0;0;0;0;0;0;0;0.0352941;0.447059;0.447059;0.447059;0.447059;0.447059;0.447059;0.447059;0.811765;0.992157;0.992157;0.992157;0.992157;0.992157;0.254902;0;0;0;0;0;0;0;0;0;0;0;0;0;0.596078;0.992157;0.992157;0.992157;0.992157;0.992157;0.992157;0.992157;0.992157;0.992157;0.992157;0.992157;0.992157;0.65098;0.0745098;0;0;0;0;0;0;0;0;0;0;0;0;0;0.811765;0.992157;0.992157;0.992157;0.992157;0.992157;0.992157;0.992157;0.992157;0.992157;0.992157;0.992157;0.607843;0.0156863;0;0;0;0;0;0;0;0;0;0;0;0;0;0;0.458824;0.992157;0.992157;0.992157;0.992157;0.992157;0.992157;0.992157;0.992157;0.992157;0.776471;0.509804;0.0156863;0;0;0;0;0;0;0;0;0;0;0;0;0;0;0;0.0745098;0.992157;0.992157;0.992157;0.992157;0.992157;0.992157;0.992157;0.498039;0.254902;0.141176;0;0;0;0;0;0;0;0;0;0;0;0;0;0;0;0;0;0;0;0;0;0;0;0;0;0;0;0;0;0;0;0;0;0;0;0;0;0;0;0;0;0;0;0;0;0;0;0;0;0;0;0;0;0;0;0;0;0;0;0;0;0;0;0;0;0;0;0;0;0;0;0;0;0;0;0;0;0;0;0;0;0;0;0;0;0;0;0;0;0;0
0;0;0;0;0;0;0;0;0;0;0;0;0;0;0;0;0;0;0;0;0;0;0;0;0;0;0;0;0;0;0;0;0;0;0;0;0;0;0;0;0;0;0;0;0;0;0;0;0;0;0;0;0;0;0;0;0;0;0;0;0;0;0;0;0;0;0;0;0;0;0;0;0;0;0;0;0;0;0;0;0;0;0;0;0;0;0;0;0;0;0;0;0;0;0;0;0;0;0;0;0;0;0;0;0;0;0;0;0;0;0;0;0;0;0;0;0;0;0;0;0;0;0;0;0.0666667;0.831373;0.988235;0.0941176;0.0901961;0.0901961;0.0588235;0;0;0;0;0;0;0;0;0;0;0;0;0;0;0;0;0;0;0;0.101961;0.180392;0.764706;0.980392;0.980392;0.988235;0.980392;0.980392;0.686275;0.0980392;0;0;0;0;0;0;0;0;0;0;0;0;0;0;0;0;0;0.12549;0.658824;0.980392;0.980392;0.980392;0.980392;0.988235;0.980392;0.980392;0.980392;0.654902;0.121569;0;0;0;0;0;0;0;0;0;0;0;0;0;0;0;0.133333;0.643137;0.980392;0.980392;0.980392;0.980392;0.980392;0.988235;0.980392;0.980392;0.980392;0.980392;0.443137;0;0;0;0;0;0;0;0;0;0;0;0;0;0.0862745;0.45098;0.643137;0.980392;0.980392;0.980392;0.980392;0.980392;0.980392;0.988235;0.980392;0.980392;0.980392;0.980392;0.686275;0.45098;0.121569;0;0;0;0;0;0;0;0;0;0;0.0509804;0.619608;0.980392;0.980392;0.980392;0.980392;0.980392;0.980392;0.980392;0.980392;0.988235;0.980392;0.980392;0.980392;0.980392;0.980392;0.980392;0.654902;0.0980392;0;0;0;0;0;0;0;0;0;0.0901961;0.980392;0.980392;0.980392;0.980392;0.980392;0.980392;0.517647;0.352941;0.352941;0.356863;0.470588;0.980392;0.980392;0.980392;0.980392;0.980392;0.980392;0.690196;0.054902;0;0;0;0;0;0;0;0;0.0901961;0.980392;0.980392;0.980392;0.980392;0.980392;0.517647;0.0705882;0;0;0;0.0509804;0.262745;0.262745;0.588235;0.980392;0.980392;0.980392;0.980392;0.741176;0;0;0;0;0;0;0;0;0.831373;0.980392;0.980392;0.980392;0.607843;0.172549;0.0627451;0;0;0;0;0;0;0;0.0823529;0.615686;0.980392;0.980392;0.980392;0.980392;0;0;0;0;0;0;0;0;0.988235;0.980392;0.980392;0.980392;0.529412;0;0;0;0;0;0;0;0;0;0;0.537255;0.980392;0.980392;0.980392;0.980392;0;0;0;0;0;0;0;0;1;0.988235;0.988235;0.988235;0.533333;0;0;0;0;0;0;0;0;0;0;0.545098;0.988235;0.988235;0.988235;0.988235;0;0;0;0;0;0;0;0;0.988235;0.980392;0.980392;0.980392;0.529412;0;0;0;0;0;0;0;0;0;0;0.537255;0.980392;0.980392;0.980392;0.980392;0;0;0;0;0;0;0;0;0.988235;0.980392;0.980392;0.980392;0.529412;0;0;0;0;0;0;0;0;0;0;0.537255;0.980392;0.980392;0.980392;0.980392;0;0;0;0;0;0;0;0;0.658824;0.980392;0.980392;0.980392;0.694118;0.360784;0.129412;0;0;0;0;0;0;0;0;0.537255;0.980392;0.980392;0.980392;0.980392;0;0;0;0;0;0;0;0;0.0901961;0.980392;0.980392;0.980392;0.980392;0.980392;0.639216;0.121569;0;0;0;0;0;0;0;0.537255;0.980392;0.980392;0.980392;0.568627;0;0;0;0;0;0;0;0;0.0431373;0.537255;0.980392;0.980392;0.980392;0.980392;0.980392;0.654902;0.0980392;0;0;0;0;0;0.25098;0.780392;0.980392;0.980392;0.980392;0.0823529;0;0;0;0;0;0;0;0;0;0.180392;0.980392;0.980392;0.980392;0.980392;0.980392;0.980392;0.690196;0.627451;0;0;0.176471;0.627451;0.788235;0.980392;0.980392;0.980392;0.462745;0.0313725;0;0;0;0;0;0;0;0;0;0.0509804;0.262745;0.52549;0.980392;0.980392;0.980392;0.980392;0.980392;0.980392;0.72549;0.717647;0.792157;0.980392;0.980392;0.980392;0.980392;0.454902;0.0470588;0;0;0;0;0;0;0;0;0;0;0;0;0.0666667;0.541176;0.980392;0.980392;0.980392;0.980392;0.980392;0.988235;0.980392;0.980392;0.980392;0.980392;0.533333;0.172549;0.0470588;0;0;0;0;0;0;0;0;0;0;0;0;0;0;0.0392157;0.0823529;0.658824;0.980392;0.980392;0.980392;0.988235;0.980392;0.980392;0.980392;0.568627;0.0392157;0;0;0;0;0;0;0;0;0;0;0;0;0;0;0;0;0;0;0;0;0;0;0;0;0;0;0;0;0;0;0;0;0;0;0;0;0;0;0;0;0;0;0;0;0;0;0;0;0;0;0;0;0;0;0;0;0;0;0;0;0;0;0;0;0;0;0;0;0;0;0;0;0;0;0;0;0;0;0;0;0;0;0;0;0;0;0;0;0;0;0;0;0;0;0;0;0;0;0;0;0;0;0;0;0;0;0;0;0;0;0;0;0;0;0;0;0;0;0
0;0;0;0;0;0;0;0;0;0;0;0;0;0;0;0;0;0;0;0;0;0;0;0;0;0;0;0;0;0;0;0;0;0;0;0;0;0;0;0;0;0;0;0;0;0;0;0;0;0;0;0;0;0;0;0;0;0;0;0;0;0;0;0;0;0;0;0;0;0;0;0;0;0;0;0;0;0;0;0;0;0;0;0;0;0;0;0;0;0;0;0;0;0;0;0;0;0;0;0;0;0;0;0;0;0;0;0;0;0;0;0;0;0;0;0;0;0;0;0;0;0;0;0;0;0;0;0;0.0823529;0.67451;0.988235;0.839216;0.121569;0;0;0;0;0;0;0;0;0;0;0;0;0;0;0;0;0;0;0;0;0;0;0.0823529;0.631373;0.980392;0.980392;0.988235;0.745098;0.4;0.0784314;0;0;0;0;0;0;0;0;0;0;0;0;0;0;0;0;0;0;0;0;0.67451;0.980392;0.980392;0.980392;0.988235;0.980392;0.980392;0.192157;0;0;0;0;0;0;0;0;0;0;0;0;0;0;0;0;0;0;0;0.639216;0.988235;0.980392;0.980392;0.980392;0.988235;0.980392;0.980392;0.192157;0;0;0;0;0;0;0;0;0;0;0;0;0;0;0;0;0;0.4;0.988235;0.988235;0.996078;0.988235;0.988235;0.988235;0.996078;0.988235;0.988235;0.988235;0;0;0;0;0;0;0;0;0;0;0;0;0;0;0;0;0.0823529;0.631373;0.980392;0.980392;0.988235;0.980392;0.741176;0.584314;0.988235;0.980392;0.980392;0.980392;0;0;0;0;0;0;0;0;0;0;0;0;0;0;0;0;0.2;0.980392;0.980392;0.980392;0.988235;0.980392;0.392157;0;0.988235;0.980392;0.980392;0.980392;0;0;0;0;0;0;0;0;0;0;0;0;0;0;0;0;0.2;0.980392;0.980392;0.980392;0.988235;0.662745;0.0784314;0.639216;0.988235;0.980392;0.980392;0.345098;0;0;0;0;0;0;0;0;0;0;0;0;0;0;0;0;0;0.321569;0.792157;0.792157;0;0;0.121569;0.835294;0.996078;0.988235;0.988235;0.192157;0;0;0;0;0;0;0;0;0;0;0;0;0;0;0;0;0;0;0;0;0;0.160784;0.74902;0.980392;0.988235;0.980392;0.741176;0.113725;0;0;0;0;0;0;0;0;0;0;0;0;0;0;0;0;0;0;0;0;0.596078;0.74902;0.980392;0.980392;0.988235;0.741176;0.156863;0;0;0;0;0;0;0;0;0;0;0;0;0;0.796078;0.792157;0.792157;0.792157;0.796078;0.47451;0;0;0.988235;0.980392;0.980392;0.980392;0.831373;0.113725;0;0;0;0;0;0;0;0;0;0;0.2;0.2;0.67451;0.988235;0.996078;0.988235;0.988235;0.988235;0.996078;0.988235;0.988235;0.988235;0.996078;0.988235;0.988235;0.988235;0.839216;0.2;0.0784314;0;0;0;0;0;0;0;0;0;0.988235;0.980392;0.980392;0.980392;0.988235;0.980392;0.980392;0.980392;0.988235;0.980392;0.980392;0.980392;0.988235;0.980392;0.980392;0.980392;0.988235;0.980392;0.392157;0;0;0;0;0;0;0;0;0;0.988235;0.980392;0.980392;0.980392;0.988235;0.980392;0.980392;0.980392;0.988235;0.980392;0.980392;0.980392;0.988235;0.980392;0.980392;0.980392;0.988235;0.741176;0.156863;0;0;0;0;0;0;0;0;0;0.988235;0.980392;0.980392;0.980392;0.988235;0.980392;0.980392;0.980392;0.988235;0.980392;0.980392;0.980392;0.988235;0.980392;0.980392;0.345098;0.192157;0.113725;0;0;0;0;0;0;0;0;0;0;0.996078;0.988235;0.988235;0.988235;1;0.988235;0.988235;0.988235;0.996078;0.909804;0.792157;0.792157;0;0;0;0;0;0;0;0;0;0;0;0;0;0;0;0;0.988235;0.980392;0.980392;0.980392;0.988235;0.980392;0.980392;0.980392;0.909804;0.352941;0;0;0;0;0;0;0;0;0;0;0;0;0;0;0;0;0;0;0.392157;0.392157;0.745098;0.980392;0.870588;0.392157;0.392157;0.392157;0.313725;0;0;0;0;0;0;0;0;0;0;0;0;0;0;0;0;0;0;0;0;0;0.117647;0.192157;0.156863;0;0;0;0;0;0;0;0;0;0;0;0;0;0;0;0;0;0;0;0;0;0;0;0;0;0;0;0;0;0;0;0;0;0;0;0;0;0;0;0;0;0;0;0;0;0;0;0;0;0;0;0;0;0;0;0;0;0;0;0;0;0;0;0;0;0;0;0;0;0;0;0;0;0;0;0;0;0;0;0;0;0;0;0;0;0;0;0;0;0;0;0;0;0;0;0;0;0;0;0;0;0;0;0;0;0;0;0;0;0;0;0;0;0;0;0;0;0;0;0;0;0;0;0;0;0;0;0;0;0;0;0
0;0;0;0;0;0;0;0;0;0;0;0;0;0;0;0;0;0;0;0;0;0;0;0;0;0;0;0;0;0;0;0;0;0;0;0;0;0;0;0;0;0;0;0;0;0;0;0;0;0;0;0;0;0;0;0;0;0;0;0;0;0;0;0;0;0;0;0;0;0;0;0;0;0;0;0;0;0;0;0;0;0;0;0;0;0;0;0;0;0;0;0;0;0;0;0;0;0;0;0;0;0;0;0;0;0;0;0;0;0;0;0;0;0;0;0;0;0;0;0;0;0.0823529;0.2;0.2;0.360784;0.988235;0.988235;0.988235;0.996078;0.670588;0.2;0.0392157;0;0;0;0;0;0;0;0;0;0;0;0;0;0;0;0;0.0823529;0.631373;0.980392;0.980392;0.988235;0.980392;0.980392;0.980392;0.988235;0.980392;0.980392;0.509804;0.321569;0;0;0;0;0;0;0;0;0;0;0;0;0;0;0.482353;0.67451;0.980392;0.980392;0.980392;0.988235;0.980392;0.980392;0.980392;0.988235;0.980392;0.980392;0.980392;0.909804;0.356863;0;0;0;0;0;0;0;0;0;0;0;0;0.482353;0.945098;0.988235;0.980392;0.501961;0.192157;0.192157;0.192157;0.192157;0.192157;0.352941;0.980392;0.980392;0.980392;0.988235;0.584314;0;0;0;0;0;0;0;0;0;0;0;0.403922;0.988235;0.988235;0.996078;0.909804;0.313725;0;0;0;0;0;0;0.321569;0.792157;0.952941;0.996078;0.988235;0.509804;0.0392157;0;0;0;0;0;0;0;0;0.0823529;0.631373;0.980392;0.980392;0.909804;0.352941;0;0;0;0;0;0;0;0;0;0.792157;0.988235;0.980392;0.980392;0.509804;0;0;0;0;0;0;0;0;0.2;0.980392;0.980392;0.980392;0.792157;0;0;0;0;0;0;0;0;0;0;0.792157;0.988235;0.980392;0.980392;0.980392;0;0;0;0;0;0;0;0;0.2;0.980392;0.980392;0.980392;0.792157;0;0;0;0;0;0;0;0;0;0;0.156863;0.988235;0.980392;0.980392;0.980392;0;0;0;0;0;0;0;0;0.360784;0.988235;0.988235;0.988235;0;0;0;0;0;0;0;0;0;0;0;0;0.839216;0.988235;0.988235;0.988235;0;0;0;0;0;0;0;0;0.988235;0.980392;0.980392;0.980392;0;0;0;0;0;0;0;0;0;0;0;0;0.121569;0.745098;0.980392;0.980392;0;0;0;0;0;0;0;0;0.988235;0.980392;0.980392;0.980392;0;0;0;0;0;0;0;0;0;0;0;0;0;0.4;0.980392;0.980392;0;0;0;0;0;0;0;0;0.988235;0.980392;0.980392;0.980392;0;0;0;0;0;0;0;0;0;0;0;0;0;0.4;0.980392;0.980392;0;0;0;0;0;0;0;0;0.839216;0.988235;0.988235;0.988235;0;0;0;0;0;0;0;0;0;0;0;0;0.203922;0.988235;0.988235;0.988235;0;0;0;0;0;0;0;0;0.2;0.980392;0.980392;0.980392;0;0;0;0;0;0;0;0;0;0;0;0.321569;0.517647;0.980392;0.980392;0.980392;0;0;0;0;0;0;0;0;0.2;0.980392;0.980392;0.980392;0.482353;0;0;0;0;0;0;0;0;0;0;0.792157;0.988235;0.980392;0.980392;0.980392;0;0;0;0;0;0;0;0;0.2;0.980392;0.980392;0.980392;0.952941;0.47451;0;0;0;0;0;0;0;0.321569;0.792157;0.945098;0.988235;0.980392;0.980392;0.980392;0;0;0;0;0;0;0;0;0;0.403922;0.988235;0.988235;0.996078;0.670588;0.2;0.0392157;0;0;0.121569;0.2;0.360784;0.988235;0.988235;0.988235;1;0.909804;0.313725;0;0;0;0;0;0;0;0;0;0;0.239216;0.823529;0.980392;0.988235;0.980392;0.980392;0.509804;0.4;0.4;0.74902;0.980392;0.988235;0.980392;0.980392;0.980392;0.588235;0.352941;0;0;0;0;0;0;0;0;0;0;0;0;0.235294;0.866667;0.988235;0.980392;0.980392;0.980392;0.988235;0.980392;0.980392;0.980392;0.988235;0.980392;0.980392;0.501961;0;0;0;0;0;0;0;0;0;0;0;0;0;0;0;0.792157;0.988235;0.980392;0.980392;0.980392;0.988235;0.980392;0.980392;0.345098;0.192157;0.192157;0.192157;0.0392157;0;0;0;0;0;0;0;0;0;0;0;0;0;0;0;0;0;0;0;0;0;0;0;0;0;0;0;0;0;0;0;0;0;0;0;0;0;0;0;0;0;0;0;0;0;0;0;0;0;0;0;0;0;0;0;0;0;0;0;0;0;0;0;0;0;0;0;0;0;0;0;0;0;0;0;0;0;0;0;0;0;0;0;0;0;0;0;0;0;0;0;0;0;0;0;0;0;0;0;0;0;0;0;0;0;0;0;0;0;0;0;0;0;0;0;0;0;0;0;0
