0;0;0;0;0;0;0;0;0;0;0;0;0;0;0;0;0;0;0;0;0;0;0;0;0;0;0;0;0;0;0;0;0;0;0;0;0;0;0;0;0;0;0;0;0;0;0;0;0;0;0;0;0;0;0;0;0;0;0;0;0;0;0;0;0;0;0;0;0;0;0;0;0;0;0;0;0;0;0;0;0;0;0;0;0;0;0;0;0;0;0;0;0;0;0;0;0;0;0;0;0;0;0;0;0;0;0;0;0;0;0;0;0;0;0;0;0;0;0;0;0;0;0;0;0;0;0;0;0;0;0;0;0;0;0;0;0;0;0;0;0;0;0;0;0;0;0;0;0;0;0;0;0;0;0;0;0;0;0;0;0;0;0;0;0;0;0;0;0;0;0;0;0;0;0;0;0;0;0;0;0;0;0;0;0.372549;0.564706;0.733333;0.996078;0.466667;0;0;0;0;0;0;0;0;0;0;0;0;0;0;0;0;0;0;0;0;0;0.0862745;0.576471;0.996078;0.890196;0.678431;0.941176;0.870588;0.0509804;0;0;0;0;0;0;0;0;0;0;0;0;0;0;0;0;0;0;0;0.25098;0.831373;0.92549;0.670588;0.129412;0.290196;0.941176;0.772549;0.0156863;0;0;0;0;0;0;0;0;0;0;0;0;0;0;0;0;0;0;0.592157;0.870588;0.529412;0.0745098;0.101961;0.607843;0.992157;0.992157;0.329412;0;0;0;0;0;0;0;0;0;0;0;0;0;0;0;0;0;0.392157;0.898039;0.823529;0.196078;0;0;0.501961;0.996078;0.996078;0.764706;0;0;0;0;0;0;0;0;0;0;0;0;0;0;0;0;0.0509804;0.576471;0.976471;0.72549;0.0352941;0;0;0.133333;0.831373;0.992157;0.992157;0.694118;0;0;0;0;0;0;0;0;0;0;0;0;0;0;0;0;0.733333;0.972549;0.701961;0.0509804;0;0.0196078;0.423529;0.941176;0.996078;0.992157;0.752941;0.670588;0.356863;0.0117647;0;0;0;0;0;0;0;0;0;0;0;0;0;0.4;0.996078;0.415686;0;0;0;0.576471;0.992157;0.992157;0.996078;0.858824;0.0509804;0;0.533333;0.0235294;0;0;0;0;0;0;0;0;0;0;0;0;0.0941176;0.996078;0.498039;0;0.223529;0.407843;0.866667;0.996078;0.870588;0.921569;1;0.580392;0;0;0;0;0;0;0;0;0;0;0;0;0;0;0;0;0.0941176;0.992157;0.937255;0.901961;0.976471;0.92549;0.580392;0.25098;0.164706;0.870588;0.945098;0.105882;0;0;0;0;0;0;0;0;0;0;0;0;0;0;0;0;0.0196078;0.309804;0.541176;0.537255;0.243137;0.113725;0;0;0.486275;0.992157;0.52549;0;0;0;0;0;0;0;0;0;0;0;0;0;0;0;0;0;0;0;0;0;0;0;0;0.266667;0.941176;0.72549;0;0;0;0;0;0;0;0;0;0;0;0;0;0;0;0;0;0;0;0;0;0;0;0;0.0745098;0.8;0.937255;0.0980392;0;0;0;0;0;0;0;0;0;0;0;0;0;0;0;0;0;0;0;0;0;0;0;0;0.341176;0.992157;0.835294;0;0;0;0;0;0;0;0;0;0;0;0;0;0;0;0;0;0;0;0;0;0;0;0;0.168627;0.929412;0.909804;0.164706;0;0;0;0;0;0;0;0;0;0;0;0;0;0;0;0;0;0;0;0;0;0;0;0;0.498039;0.996078;0.545098;0;0;0;0;0;0;0;0;0;0;0;0;0;0;0;0;0;0;0;0;0;0;0;0;0.0588235;0.898039;0.823529;0.0352941;0;0;0;0;0;0;0;0;0;0;0;0;0;0;0;0;0;0;0;0;0;0;0;0;0.423529;0.992157;0.654902;0;0;0;0;0;0;0;0;0;0;0;0;0;0;0;0;0;0;0;0;0;0;0;0;0;0.454902;0.992157;0.52549;0;0;0;0;0;0;0;0;0;0;0;0;0;0;0;0;0;0;0;0;0;0;0;0;0;0.290196;0.760784;0.823529;0.0352941;0;0;0;0;0;0;0;0;0;0;0;0;0;0;0;0;0;0;0;0;0;0;0;0;0;0;0;0;0;0;0;0;0;0;0;0;0;0;0;0;0;0;0;0;0;0;0;0;0;0;0;0;0;0;0;0;0;0;0;0;0;0;0;0;0;0;0;0;0;0
0;0;0;0;0;0;0;0;0;0;0;0;0;0;0;0;0;0;0;0;0;0;0;0;0;0;0;0;0;0;0;0;0;0;0;0;0;0;0;0;0;0;0;0;0;0;0;0;0;0;0;0;0;0;0;0;0;0;0;0;0;0;0;0;0;0;0;0;0;0;0;0;0;0;0;0;0;0;0;0;0;0;0;0;0;0;0;0;0;0;0;0;0;0;0;0;0;0;0;0;0;0;0;0;0;0;0;0;0;0;0;0;0;0;0;0;0;0;0;0;0;0;0;0;0;0;0;0;0;0;0;0;0;0;0;0;0;0;0;0;0;0;0;0;0;0;0;0;0;0;0;0;0;0;0;0;0.729412;0.831373;0.0901961;0;0;0;0;0;0;0;0;0;0;0;0;0;0;0;0;0;0;0;0;0;0;0;0;0.0352941;0.772549;0.992157;0.537255;0;0;0;0;0;0;0;0;0;0;0;0;0;0;0;0;0;0;0;0;0;0;0;0;0.184314;0.992157;0.992157;0.537255;0;0;0;0;0;0;0;0;0;0;0;0;0;0;0;0;0;0;0;0;0;0;0;0;0.34902;0.992157;0.992157;0.376471;0;0;0;0;0;0;0;0;0;0;0;0;0;0;0;0;0;0;0;0;0;0;0;0.0862745;0.960784;0.992157;0.662745;0.00784314;0;0;0;0;0;0;0;0;0;0;0;0;0;0;0;0;0;0;0;0;0;0;0;0.341176;0.996078;0.996078;0.631373;0;0;0;0;0;0;0;0;0;0;0;0;0;0;0;0;0;0;0;0;0;0;0;0;0.627451;0.992157;0.992157;0.345098;0;0;0;0;0;0;0;0;0;0;0;0;0;0;0;0;0;0;0;0;0;0;0;0.333333;0.996078;0.992157;0.796078;0.0509804;0;0;0;0;0;0;0;0;0;0;0;0;0;0;0;0;0;0;0;0;0;0;0;0.619608;0.996078;0.992157;0.352941;0;0;0;0;0;0;0;0;0;0;0;0;0;0;0;0;0;0;0;0;0;0;0;0;0.905882;0.996078;0.992157;0.270588;0;0;0;0;0;0;0;0;0;0;0;0;0;0;0;0;0;0;0;0;0;0;0;0.611765;1;0.996078;0.533333;0;0;0;0;0;0;0;0;0;0;0;0;0;0;0;0;0;0;0;0;0;0;0;0.0509804;0.847059;0.992157;0.905882;0;0;0;0;0;0;0;0;0;0;0;0;0;0;0;0;0;0;0;0;0;0;0;0;0.27451;0.992157;0.992157;0.454902;0;0;0;0;0;0;0;0;0;0;0;0;0;0;0;0;0;0;0;0;0;0;0;0.0666667;0.741176;0.992157;0.827451;0;0;0;0;0;0;0;0;0;0;0;0;0;0;0;0;0;0;0;0;0;0;0;0;0.184314;0.992157;0.992157;0.537255;0;0;0;0;0;0;0;0;0;0;0;0;0;0;0;0;0;0;0;0;0;0;0;0.0117647;0.670588;0.996078;0.756863;0.0431373;0;0;0;0;0;0;0;0;0;0;0;0;0;0;0;0;0;0;0;0;0;0;0;0.384314;0.992157;0.992157;0.180392;0;0;0;0;0;0;0;0;0;0;0;0;0;0;0;0;0;0;0;0;0;0;0;0;0.666667;0.992157;0.796078;0.0509804;0;0;0;0;0;0;0;0;0;0;0;0;0;0;0;0;0;0;0;0;0;0;0;0;0.996078;0.992157;0.678431;0.0823529;0;0;0;0;0;0;0;0;0;0;0;0;0;0;0;0;0;0;0;0;0;0;0;0;0.584314;0.909804;0.14902;0;0;0;0;0;0;0;0;0;0;0;0;0;0;0;0;0;0;0;0;0;0;0;0;0;0;0;0;0;0;0;0;0;0;0;0;0;0;0;0;0;0;0;0;0;0;0;0;0;0;0;0;0;0;0;0;0;0;0;0;0;0;0;0;0;0;0;0;0;0;0;0;0;0;0;0;0;0;0;0;0;0;0;0;0;0;0;0;0;0;0;0;0;0;0;0;0;0;0;0
0;0;0;0;0;0;0;0;0;0;0;0;0;0;0;0;0;0;0;0;0;0;0;0;0;0;0;0;0;0;0;0;0;0;0;0;0;0;0;0;0;0;0;0;0;0;0;0;0;0;0;0;0;0;0;0;0;0;0;0;0;0;0;0;0;0;0;0;0;0;0;0.054902;0.631373;0.929412;0;0;0;0;0;0;0;0;0;0;0;0;0;0;0;0;0;0;0;0;0;0;0;0;0;0.47451;0.968627;0.329412;0;0;0;0;0;0;0;0;0;0;0;0;0;0;0;0;0;0;0;0;0;0;0;0;0.207843;0.984314;0.807843;0;0;0;0;0;0;0;0;0;0;0;0;0;0;0;0;0;0;0;0;0;0;0;0;0;0.572549;0.909804;0.145098;0;0;0;0;0;0;0;0;0;0;0;0;0;0;0;0;0;0;0;0;0;0;0;0;0.223529;0.984314;0.635294;0;0;0;0;0;0;0;0;0;0;0;0;0;0;0;0;0;0;0;0;0;0;0;0;0.0156863;0.678431;0.909804;0.0745098;0;0;0;0;0;0;0;0;0;0;0;0;0;0;0;0;0;0;0;0;0;0;0;0;0.454902;0.996078;0.533333;0;0;0;0;0;0;0;0;0;0;0;0;0;0;0;0;0;0;0;0;0;0;0;0;0.121569;0.882353;0.619608;0.00392157;0;0;0;0;0;0;0;0;0;0;0;0;0;0;0;0;0;0;0;0;0;0;0;0;0.588235;0.921569;0.160784;0;0;0;0;0;0;0;0;0;0;0;0;0;0;0;0;0;0;0;0;0;0;0;0;0.266667;0.968627;0.482353;0;0;0;0;0;0;0;0;0;0;0;0;0;0;0;0;0;0;0;0;0;0;0;0;0;0.486275;0.992157;0.278431;0;0;0;0;0.054902;0.380392;0.478431;0.478431;0.0862745;0;0;0;0;0;0;0;0;0;0;0;0;0;0;0;0.0117647;0.803922;0.964706;0;0;0;0.0156863;0.282353;0.866667;0.996078;0.996078;0.996078;0.796078;0.0588235;0;0;0;0;0;0;0;0;0;0;0;0;0;0;0.27451;1;0.709804;0;0;0.0941176;0.603922;0.996078;0.984314;1;0.996078;0.996078;0.839216;0.0392157;0;0;0;0;0;0;0;0;0;0;0;0;0;0;0.494118;0.996078;0.611765;0;0.0901961;0.835294;0.996078;0.952941;0.560784;0.996078;0.996078;0.913725;0.176471;0;0;0;0;0;0;0;0;0;0;0;0;0;0;0;0.494118;0.996078;0.960784;0.384314;0.847059;0.996078;0.996078;0.996078;0.996078;0.992157;0.623529;0.0352941;0;0;0;0;0;0;0;0;0;0;0;0;0;0;0;0;0.0941176;0.682353;0.996078;0.996078;0.996078;0.996078;0.996078;0.972549;0.639216;0.305882;0;0;0;0;0;0;0;0;0;0;0;0;0;0;0;0;0;0;0;0.196078;0.996078;0.945098;0.741176;0.490196;0.427451;0.121569;0;0;0;0;0;0;0;0;0;0;0;0;0;0;0;0;0;0;0;0;0;0.6;0.996078;0.47451;0.168627;0.443137;0;0;0;0;0;0;0;0;0;0;0;0;0;0;0;0;0;0;0;0;0;0;0.376471;0.94902;0.988235;0.639216;0.654902;0.101961;0;0;0;0;0;0;0;0;0;0;0;0;0;0;0;0;0;0;0;0;0;0;0.321569;0.92549;0.862745;0.529412;0.00784314;0;0;0;0;0;0;0;0;0;0;0;0;0;0;0;0;0;0;0;0;0;0;0;0;0;0;0;0;0;0;0;0;0;0;0;0;0;0;0;0;0;0;0;0;0;0;0;0;0;0;0;0;0;0;0;0;0;0;0;0;0;0;0;0;0;0;0;0;0;0;0;0;0;0;0;0;0;0;0;0;0;0;0;0;0;0;0;0;0;0;0;0;0;0;0;0;0;0;0;0;0;0;0;0;0;0;0;0;0;0;0;0;0;0;0;0;0;0;0;0;0;0;0;0;0;0;0;0;0;0;0;0;0;0;0;0;0;0;0;0;0;0;0;0;0;0;0;0;0;0;0;0;0;0;0;0;0;0;0;0;0;0;0;0;0;0;0;0;0;0;0;0;0;0;0;0;0;0;0;0;0;0
0;0;0;0;0;0;0;0;0;0;0;0;0;0;0;0;0;0;0;0;0;0;0;0;0;0;0;0;0;0;0;0;0;0;0;0;0;0;0;0;0;0;0;0;0;0;0;0;0;0;0;0;0;0;0;0;0;0;0;0;0;0;0;0;0;0;0;0;0;0;0;0;0;0;0;0;0;0;0;0;0;0;0;0;0;0;0;0;0;0;0;0;0;0;0;0;0;0;0;0;0;0;0;0;0;0;0;0;0;0;0;0;0;0;0;0;0;0;0;0;0;0;0;0;0;0;0;0;0;0;0;0;0;0;0;0;0;0;0;0;0;0;0;0;0;0;0;0;0;0;0;0;0;0;0;0;0;0;0;0;0;0;0;0;0;0;0;0;0;0;0;0;0;0;0;0;0;0;0;0;0;0;0;0;0;0;0;0;0;0;0;0;0;0;0;0;0;0;0;0;0;0;0;0;0;0.0509804;0.176471;0.87451;0.996078;0.792157;0.545098;0.545098;0.545098;0.545098;0.341176;0.0431373;0;0;0;0;0;0;0;0;0;0;0;0;0;0;0;0;0.0862745;0.835294;0.992157;0.992157;0.92549;0.603922;0.913725;0.992157;0.992157;0.992157;0.992157;0.760784;0.0666667;0;0;0;0;0;0;0;0;0;0;0;0;0;0;0.101961;0.807843;1;0.992157;0.917647;0.254902;0;0.14902;0.270588;0.270588;0.741176;0.992157;1;0.360784;0;0;0;0;0;0;0;0;0;0;0;0;0;0;0.364706;0.992157;0.996078;0.843137;0.129412;0;0;0;0;0;0.364706;0.992157;0.996078;0.360784;0;0;0;0;0;0;0;0;0;0;0;0;0;0;0.0352941;0.913725;0.74902;0.235294;0;0;0;0;0;0;0.776471;0.992157;0.913725;0.0313725;0;0;0;0;0;0;0;0;0;0;0;0;0;0;0;0;0;0;0;0;0;0;0;0.192157;0.917647;0.996078;0.662745;0;0;0;0;0;0;0;0;0;0;0;0;0;0;0;0;0;0;0;0;0;0;0;0.0352941;0.772549;0.992157;0.992157;0.164706;0;0;0;0;0;0;0;0;0;0;0;0;0;0;0;0;0;0;0;0;0;0;0;0.309804;0.992157;0.992157;0.870588;0;0;0;0;0;0;0;0;0;0;0;0;0;0;0;0;0;0;0;0;0;0;0;0.0784314;0.929412;0.992157;0.992157;0.168627;0;0;0;0;0;0;0;0;0;0;0;0;0;0;0;0;0;0;0;0;0;0;0;0.301961;0.992157;0.992157;0.662745;0.00784314;0;0;0;0;0;0;0;0;0;0;0;0;0;0;0;0;0;0;0;0;0;0;0;0.796078;0.996078;0.996078;0.388235;0;0;0;0;0;0;0;0;0;0;0;0;0;0;0;0;0;0;0;0;0;0;0;0.294118;0.996078;0.992157;0.737255;0.0666667;0;0;0;0;0;0;0;0;0;0;0;0;0;0;0;0;0;0;0;0;0;0;0;0.576471;0.996078;0.992157;0.270588;0;0;0;0;0;0;0;0;0;0;0;0;0;0;0;0;0;0;0;0;0;0;0;0.133333;0.937255;0.996078;0.843137;0.0509804;0;0;0;0;0;0;0;0;0;0;0;0;0;0;0;0;0;0;0;0;0;0;0;0.776471;0.992157;0.956863;0.235294;0;0;0;0;0;0;0;0;0;0;0;0;0;0;0;0;0;0;0;0;0;0;0;0.317647;0.996078;0.996078;0.662745;0;0;0;0;0;0;0;0;0;0;0;0;0;0;0;0;0;0;0;0;0;0;0;0.117647;0.898039;0.992157;0.909804;0.164706;0;0;0;0;0;0;0;0;0;0;0;0;0;0;0;0;0;0;0;0;0;0;0;0.309804;0.992157;0.992157;0.419608;0;0;0;0;0;0;0;0;0;0;0;0;0;0;0;0;0;0;0;0;0;0;0;0;0.635294;0.992157;0.858824;0.054902;0;0;0;0;0;0;0;0;0;0;0;0;0;0;0;0;0;0;0;0;0;0;0;0;0.635294;0.992157;0.427451;0;0;0;0;0;0;0;0;0;0;0;0;0;0;0;0;0;0;0;0;0;0;0;0;0;0;0;0;0;0;0;0;0;0;0;0;0;0;0;0;0;0;0
0;0;0;0;0;0;0;0;0;0;0;0;0;0;0;0;0;0;0;0;0;0;0;0;0;0;0;0;0;0;0;0;0;0;0;0;0;0;0;0;0;0;0;0;0;0;0;0;0;0;0;0;0;0;0;0;0;0;0;0;0;0;0;0;0;0;0;0;0;0;0;0;0;0;0;0;0;0;0;0;0;0;0;0;0;0;0;0;0;0;0;0;0;0;0;0;0;0;0;0;0;0;0;0;0;0;0;0;0;0;0;0;0;0;0;0;0;0;0;0;0;0;0;0;0;0;0;0;0;0;0;0;0;0;0;0;0;0;0;0;0;0;0;0;0;0;0;0;0;0;0;0.0392157;0.0980392;0.0980392;0.0470588;0;0;0;0;0;0;0;0;0;0;0;0;0;0;0;0;0;0;0;0;0;0;0;0.0509804;0.470588;0.988235;0.988235;0.541176;0.145098;0.054902;0;0;0;0;0;0;0;0;0;0;0;0;0;0;0;0;0;0;0.0392157;0.192157;0.192157;0.462745;0.988235;0.988235;0.988235;0.988235;0.988235;0.372549;0;0;0;0;0;0;0;0;0;0;0;0;0;0;0;0;0;0.0352941;0.384314;0.988235;0.988235;0.988235;0.988235;0.988235;0.988235;0.988235;0.988235;0.517647;0.239216;0.239216;0.239216;0.239216;0.0352941;0;0;0;0;0;0;0;0;0;0;0;0.0313725;0.388235;0.988235;0.988235;0.988235;0.988235;0.988235;0.988235;0.988235;0.988235;0.988235;0.988235;0.988235;0.988235;0.988235;0.988235;0.384314;0.027451;0;0;0;0;0;0;0;0;0;0;0.0980392;0.988235;0.988235;0.988235;0.988235;0.988235;0.988235;0.988235;0.988235;0.988235;0.988235;0.988235;0.988235;0.988235;0.988235;0.988235;0.988235;0.392157;0.0156863;0;0;0;0;0;0;0;0;0.0196078;0.443137;0.988235;0.988235;0.898039;0.607843;0.607843;0.607843;0.607843;0.607843;0.607843;0.607843;0.607843;0.607843;0.607843;0.901961;0.988235;0.988235;0.988235;0.407843;0;0;0;0;0;0;0;0;0.0509804;0.988235;0.92549;0.560784;0.427451;0;0;0;0;0;0;0;0;0;0;0.435294;0.560784;0.929412;0.988235;0.988235;0;0;0;0;0;0;0;0;0.0509804;0.988235;0.847059;0;0;0;0;0;0;0;0;0;0;0;0;0;0;0.854902;0.988235;0.988235;0;0;0;0;0;0;0;0;0.54902;0.988235;0.847059;0;0;0;0;0;0;0;0;0;0;0;0;0;0;0.854902;0.988235;0.988235;0;0;0;0;0;0;0;0;0.996078;0.933333;0.360784;0;0;0;0;0;0;0;0;0;0;0;0;0;0;0.854902;0.988235;0.988235;0;0;0;0;0;0;0;0;0.996078;0.952941;0.529412;0;0;0;0;0;0;0;0;0;0;0;0;0;0;0.854902;0.988235;0.988235;0;0;0;0;0;0;0;0;1;0.988235;0.941176;0.537255;0;0;0;0;0;0;0;0;0;0;0;0;0.541176;0.945098;0.988235;0.352941;0;0;0;0;0;0;0;0;0.282353;0.345098;0.988235;0.937255;0.713725;0.505882;0;0;0;0;0;0;0;0;0;0;0.807843;0.988235;0.988235;0.0392157;0;0;0;0;0;0;0;0;0;0.0980392;0.988235;0.988235;0.988235;0.921569;0.760784;0.760784;0.760784;0.760784;0.760784;0.760784;0.760784;0.760784;0.760784;0.760784;0.945098;0.988235;0.988235;0.0392157;0;0;0;0;0;0;0;0;0;0.0980392;0.988235;0.988235;0.988235;0.988235;0.988235;0.988235;0.988235;0.988235;0.988235;0.988235;0.988235;0.988235;0.988235;0.988235;0.988235;0.290196;0.184314;0.00784314;0;0;0;0;0;0;0;0;0;0.0156863;0.133333;0.133333;0.341176;0.988235;0.988235;0.988235;0.988235;0.988235;0.988235;0.498039;0.666667;0.988235;0.372549;0.133333;0.133333;0.0196078;0;0;0;0;0;0;0;0;0;0;0;0;0;0;0.0235294;0.0862745;0.0862745;0.0862745;0.0862745;0.0862745;0.0862745;0.0392157;0.054902;0.0862745;0.027451;0;0;0;0;0;0;0;0;0;0;0;0;0;0;0;0;0;0;0;0;0;0;0;0;0;0;0;0;0;0;0;0;0;0;0;0;0;0;0;0;0;0;0;0;0;0;0;0;0;0;0;0;0;0;0;0;0;0;0;0;0;0;0;0;0;0;0;0;0;0;0;0;0;0;0;0;0;0;0;0;0;0;0;0;0;0;0;0;0;0;0;0;0;0;0;0;0;0;0;0;0;0;0;0;0;0;0;0;0;0;0;0;0;0;0;0;0;0;0;0;0;0;0;0;0;0;0;0;0;0;0;0;0;0;0;0;0;0;0;0;0;0;0;0;0;0;0;0;0
0;0;0;0;0;0;0;0;0;0;0;0;0;0;0;0;0;0;0;0;0;0;0;0;0;0;0;0;0;0;0;0;0;0;0;0;0;0;0;0;0;0;0;0;0;0;0;0;0;0;0;0;0;0;0;0;0;0;0;0;0;0;0;0;0;0;0;0;0;0;0;0;0;0;0;0;0;0;0;0;0;0;0;0;0;0;0;0;0;0;0;0;0;0;0;0;0;0;0;0;0;0;0;0;0;0;0;0;0;0;0;0;0;0;0;0;0;0;0;0;0;0;0;0;0;0;0;0;0;0.0862745;0.447059;0.752941;1;0.490196;0;0;0;0;0;0;0;0;0;0;0;0;0;0;0;0;0;0;0;0;0;0.0588235;0.643137;0.866667;0.988235;0.988235;0.992157;0.905882;0.0627451;0;0;0;0;0;0;0;0;0;0;0;0;0;0;0;0;0;0;0.0588235;0.431373;0.929412;0.960784;0.698039;0.219608;0.0823529;0.992157;0.988235;0.0823529;0;0;0;0;0;0;0;0;0;0;0;0;0;0;0;0;0;0.266667;0.882353;0.886275;0.67451;0.219608;0;0;0.278431;0.992157;0.768627;0.027451;0;0;0;0;0;0;0;0;0;0;0;0;0;0;0;0;0;0.909804;0.713725;0.164706;0;0;0;0;0.415686;0.992157;0.486275;0;0;0;0;0;0;0;0;0;0;0;0;0;0;0;0;0;0;0;0;0;0;0;0;0.14902;0.92549;0.901961;0.105882;0;0;0;0;0;0;0;0;0;0;0;0;0;0;0;0;0;0;0;0;0;0;0;0;0.560784;0.988235;0.513725;0;0;0;0;0;0;0;0;0;0;0;0;0;0;0;0;0;0;0;0;0;0;0;0;0.113725;0.964706;0.780392;0.0352941;0;0;0;0;0;0;0;0;0;0;0;0;0;0;0;0;0;0;0;0;0;0;0;0;0.772549;0.988235;0.47451;0;0;0;0;0;0;0;0;0;0;0;0;0;0;0;0;0;0;0;0;0;0;0;0;0.454902;0.976471;0.607843;0.027451;0;0;0;0;0;0;0;0;0;0;0;0;0;0;0;0;0;0;0;0;0;0;0;0.239216;0.992157;0.87451;0.137255;0;0;0;0;0;0;0;0;0;0;0;0;0;0;0;0;0;0;0;0;0;0;0;0.141176;0.717647;0.988235;0.356863;0;0;0;0;0;0;0;0;0;0;0;0;0;0;0;0;0;0;0;0;0.121569;0.498039;0.878431;0.909804;0.945098;0.992157;0.988235;0.0823529;0;0;0;0;0;0;0;0;0;0;0;0;0;0;0;0;0;0;0;0.384314;0.854902;0.988235;0.760784;0.905882;0.988235;0.780392;0.329412;0.027451;0;0;0;0;0;0;0;0;0;0;0;0;0;0;0;0;0;0;0.211765;0.964706;0.92549;0.439216;0.0509804;0.8;0.988235;0.0705882;0;0;0;0;0;0;0;0;0;0;0;0;0;0;0;0;0;0;0;0.0156863;0.717647;0.992157;0.517647;0.0588235;0.929412;0.992157;0.505882;0;0;0;0;0;0;0;0;0;0;0;0;0;0;0;0;0;0;0;0;0.0862745;0.988235;0.85098;0.12549;0.827451;0.988235;0.662745;0.0431373;0;0;0;0;0;0;0;0;0;0;0;0;0;0;0;0;0;0;0;0;0.0862745;0.988235;0.784314;0.929412;0.988235;0.94902;0.164706;0;0;0;0;0;0;0;0;0;0;0;0;0;0;0;0;0;0;0;0;0;0.360784;0.988235;0.988235;0.992157;0.803922;0.337255;0;0;0;0;0;0;0;0;0;0;0;0;0;0;0;0;0;0;0;0;0;0;0.117647;0.85098;0.988235;0.682353;0.0431373;0;0;0;0;0;0;0;0;0;0;0;0;0;0;0;0;0;0;0;0;0;0;0;0;0;0;0;0;0;0;0;0;0;0;0;0;0;0;0;0;0;0;0;0;0;0;0;0;0;0;0;0;0;0;0;0;0;0;0;0;0;0;0;0;0;0;0;0;0;0;0;0;0;0;0;0;0;0;0;0;0;0;0;0;0;0;0;0;0;0;0;0;0;0;0;0;0;0;0;0;0;0;0;0;0;0;0;0;0;0;0;0;0;0;0;0;0;0;0;0;0;0;0;0;0;0;0;0
0;0;0;0;0;0;0;0;0;0;0;0;0;0;0;0;0;0;0;0;0;0;0;0;0;0;0;0;0;0;0;0;0;0;0;0;0;0;0;0;0;0;0;0;0;0;0;0;0;0;0;0;0;0;0;0;0;0;0;0;0;0;0;0;0;0;0;0;0;0;0;0;0;0;0;0;0;0;0;0;0;0;0;0;0;0;0;0;0;0;0;0;0;0;0;0;0;0;0;0;0;0;0;0;0;0;0;0;0;0;0;0;0;0;0;0;0;0;0;0;0.329412;0.831373;1;0.996078;0.639216;0.509804;0.509804;0.509804;0.509804;0.509804;0.321569;0.027451;0.00392157;0;0;0;0;0;0;0;0;0;0;0;0;0;0;0.00784314;0.65098;0.992157;0.992157;0.992157;0.992157;0.992157;0.992157;0.992157;0.992157;0.992157;0.992157;0.992157;0.564706;0.0509804;0;0;0;0;0;0;0;0;0;0;0;0;0;0.12549;0.992157;0.992157;0.992157;0.992157;0.992157;0.992157;0.992157;0.992157;0.992157;0.992157;0.992157;0.992157;0.992157;0.792157;0.0117647;0;0;0;0;0;0;0;0;0;0;0;0;0.0509804;0.780392;0.992157;0.992157;0.992157;0.992157;0.992157;0.992157;0.992157;0.992157;0.992157;0.992157;0.992157;0.992157;0.992157;0.0196078;0;0;0;0;0;0;0;0;0;0;0;0;0;0.247059;0.705882;0.870588;0.52549;0.388235;0.388235;0.388235;0.388235;0.388235;0.388235;0.862745;0.992157;0.992157;0.992157;0.258824;0;0;0;0;0;0;0;0;0;0;0;0;0;0;0;0;0;0;0;0;0;0;0;0.462745;0.992157;0.992157;0.992157;0.0196078;0;0;0;0;0;0;0;0;0;0;0;0;0;0;0;0;0;0;0;0;0.141176;0.341176;0.654902;0.952941;0.992157;0.992157;0.686275;0.00784314;0;0;0;0;0;0;0;0;0;0;0;0;0;0;0;0;0;0;0.054902;0.576471;0.933333;0.992157;0.992157;0.992157;0.992157;0.992157;0.619608;0.00392157;0;0;0;0;0;0;0;0;0;0;0;0;0;0;0;0;0;0.176471;0.784314;0.992157;0.992157;0.992157;0.992157;0.992157;0.992157;0.992157;0.992157;0.368627;0;0;0;0;0;0;0;0;0;0;0;0;0;0;0;0;0;0.247059;0.992157;0.992157;0.992157;0.992157;0.992157;0.992157;0.992157;0.992157;0.992157;0.505882;0;0;0;0;0;0;0;0;0;0;0;0;0;0;0;0;0;0.247059;0.992157;0.992157;0.992157;0.992157;0.992157;0.992157;0.992157;0.992157;0.992157;0.505882;0;0;0;0;0;0;0;0;0;0;0;0;0;0;0;0;0;0.247059;0.992157;0.992157;0.992157;0.992157;0.741176;0.27451;0.537255;0.992157;0.992157;0.505882;0;0;0;0;0;0;0;0;0;0;0;0;0;0;0;0;0;0.0470588;0.32549;0.67451;0.521569;0.192157;0.027451;0;0.568627;0.992157;0.992157;0.505882;0;0;0;0;0;0;0;0;0.0117647;0.345098;0.14902;0;0;0;0;0;0;0;0;0;0;0;0;0.32549;0.976471;0.992157;0.992157;0.505882;0;0;0;0;0;0;0;0;0.443137;0.992157;0.913725;0.529412;0;0;0;0;0;0;0;0;0;0.129412;0.545098;0.905882;0.992157;0.992157;0.992157;0.505882;0;0;0;0;0;0;0;0;0.941176;0.992157;0.992157;0.980392;0.529412;0;0;0;0;0.0980392;0.392157;0.392157;0.545098;0.917647;0.992157;0.992157;0.992157;0.992157;0.811765;0.0705882;0;0;0;0;0;0;0;0;0.796078;0.992157;0.992157;0.992157;0.980392;0.827451;0.65098;0.74902;0.901961;0.921569;0.992157;0.992157;0.992157;0.992157;0.992157;0.992157;0.992157;0.811765;0.0745098;0;0;0;0;0;0;0;0;0;0.298039;0.992157;0.992157;0.992157;0.992157;0.992157;0.992157;0.992157;0.992157;0.992157;0.992157;0.992157;0.992157;0.992157;0.992157;0.992157;0.811765;0.0745098;0;0;0;0;0;0;0;0;0;0;0.0156863;0.552941;0.992157;0.992157;0.992157;0.992157;0.992157;0.992157;0.992157;0.992157;0.992157;0.992157;0.992157;0.992157;0.596078;0.341176;0.027451;0;0;0;0;0;0;0;0;0;0;0;0;0.00392157;0.298039;0.505882;0.564706;0.992157;0.992157;0.992157;0.886275;0.505882;0.505882;0.12549;0.0196078;0.0196078;0.00392157;0;0;0;0;0;0;0;0;0;0;0;0;0;0;0;0;0;0;0;0;0;0;0;0;0;0;0;0;0;0;0;0;0;0;0;0;0;0;0;0;0;0;0;0;0;0;0;0;0;0;0;0;0;0;0;0;0;0;0;0;0;0;0;0;0;0;0;0;0;0;0;0;0;0;0;0;0;0;0;0;0;0;0;0;0;0;0;0;0;0;0;0;0;0;0;0;0;0;0;0;0;0;0;0;0;0;0;0;0;0;0;0;0;0;0;0;0;0;0;0;0;0
0;0;0;0;0;0;0;0;0;0;0;0;0;0;0;0;0;0;0;0;0;0;0;0;0;0;0;0;0;0;0;0;0;0;0;0;0;0;0;0;0;0;0;0;0;0;0;0;0;0;0;0;0;0;0;0;0;0;0;0;0;0;0;0;0;0;0;0;0;0;0;0;0;0;0;0;0;0;0;0;0;0;0;0;0;0;0;0;0;0;0;0;0;0;0;0;0;0;0;0;0;0;0;0;0;0;0;0;0;0;0;0;0;0;0;0;0;0;0;0;0;0;0;0;0;0;0;0;0;0;0;0;0;0;0;0;0;0;0;0;0;0;0;0;0;0;0;0;0;0;0;0;0;0;0.0156863;0.027451;0.0509804;0.219608;0.533333;0.109804;0.00784314;0;0;0;0;0;0;0;0;0;0;0;0;0;0;0;0;0;0;0;0;0.054902;0.560784;0.780392;0.992157;0.992157;0.992157;0.992157;0.368627;0;0;0;0;0;0;0;0;0;0;0;0;0;0;0;0;0;0;0.164706;0.584314;0.886275;0.992157;0.992157;0.992157;0.992157;0.992157;0.992157;0.619608;0.00784314;0;0;0;0;0;0;0;0;0;0;0;0;0;0;0;0.0784314;0.447059;0.870588;0.992157;0.992157;0.992157;0.992157;0.933333;0.992157;0.992157;0.992157;0.992157;0.635294;0.027451;0;0;0;0;0;0;0;0;0;0;0;0;0;0.0784314;0.862745;0.992157;0.992157;0.992157;0.886275;0.713725;0.364706;0.231373;0.913725;0.992157;0.992157;0.992157;0.992157;0.117647;0;0;0;0;0;0;0;0;0;0;0;0;0.101961;0.27451;0.992157;0.992157;0.960784;0.478431;0.0901961;0;0;0.317647;0.933333;0.407843;0.337255;0.933333;0.992157;0.835294;0.0156863;0;0;0;0;0;0;0;0;0;0;0.14902;0.862745;0.992157;0.870588;0.713725;0.254902;0;0;0.054902;0.196078;0.137255;0.207843;0;0;0.564706;0.992157;0.992157;0.356863;0;0;0;0;0;0;0;0;0;0.0352941;0.866667;0.992157;0.964706;0.282353;0;0;0;0;0.137255;0.584314;0.14902;0;0;0;0.415686;0.992157;0.992157;0.505882;0;0;0;0;0;0;0;0;0;0.168627;0.992157;0.992157;0.752941;0;0;0;0;0;0.0745098;0.188235;0;0;0;0;0.415686;0.992157;0.992157;0.505882;0;0;0;0;0;0;0;0;0.152941;0.882353;0.992157;0.917647;0.0941176;0;0;0;0;0;0;0;0;0;0;0;0.415686;0.992157;0.992157;0.505882;0;0;0;0;0;0;0;0;0.509804;0.992157;0.992157;0.513725;0;0;0;0;0;0;0;0;0;0;0;0;0.415686;0.992157;0.992157;0.886275;0;0;0;0;0;0;0;0;0.666667;0.992157;0.968627;0.282353;0;0;0;0;0;0;0;0;0;0;0;0.156863;0.568627;0.992157;0.992157;0.992157;0;0;0;0;0;0;0;0;0.996078;0.992157;0.921569;0;0;0;0;0;0;0;0;0;0;0.286275;0.827451;0.909804;0.976471;0.992157;0.992157;0.588235;0;0;0;0;0;0;0;0;0.996078;0.992157;0.921569;0;0;0;0;0;0;0;0;0;0.298039;0.819608;0.992157;0.992157;0.992157;0.992157;0.419608;0.0745098;0;0;0;0;0;0;0;0;0.807843;0.992157;0.984314;0.588235;0.392157;0.392157;0.32549;0.270588;0.498039;0.87451;0.87451;0.87451;0.972549;0.992157;0.992157;0.992157;0.831373;0.392157;0.00784314;0;0;0;0;0;0;0;0;0;0.301961;0.803922;0.992157;0.992157;0.992157;0.992157;0.976471;0.964706;0.992157;0.992157;0.992157;0.992157;0.992157;0.992157;0.839216;0.152941;0.054902;0;0;0;0;0;0;0;0;0;0;0;0;0.0627451;0.552941;0.811765;0.992157;0.992157;0.992157;0.992157;0.992157;0.992157;0.992157;0.862745;0.552941;0.392157;0.0470588;0;0;0;0;0;0;0;0;0;0;0;0;0;0;0;0;0.027451;0.345098;0.529412;0.529412;0.529412;0.529412;0.529412;0.403922;0.0313725;0;0;0;0;0;0;0;0;0;0;0;0;0;0;0;0;0;0;0;0;0;0;0;0;0;0;0;0;0;0;0;0;0;0;0;0;0;0;0;0;0;0;0;0;0;0;0;0;0;0;0;0;0;0;0;0;0;0;0;0;0;0;0;0;0;0;0;0;0;0;0;0;0;0;0;0;0;0;0;0;0;0;0;0;0;0;0;0;0;0;0;0;0;0;0;0;0;0;0;0;0;0;0;0;0;0;0;0;0;0;0;0;0;0;0;0;0;0;0;0;0;0;0;0;0;0;0;0;0;0;0;0;0;0;0;0;0;0;0;0;0;0;0;0;0;0;0;0;0;0;0;0
0;0;0;0;0;0;0;0;0;0;0;0;0;0;0;0;0;0;0;0;0;0;0;0;0;0;0;0;0;0;0;0;0;0;0;0;0;0;0;0;0;0;0;0;0;0;0;0;0;0;0;0;0;0;0;0;0;0;0;0;0;0;0;0;0;0;0;0;0;0;0;0;0;0;0;0;0;0;0;0;0;0;0;0;0;0;0;0;0;0;0;0;0;0;0;0;0;0;0;0;0;0;0;0;0;0;0;0;0;0;0;0;0;0;0;0;0;0;0;0;0;0;0;0.0509804;0.407843;0.992157;0.992157;0.796078;0.505882;0.0392157;0;0;0;0;0;0;0;0;0;0;0;0;0;0;0;0;0;0;0;0.0509804;0.372549;0.807843;0.992157;0.988235;0.988235;0.988235;0.992157;0.623529;0;0;0;0;0;0;0;0;0;0;0;0;0;0;0;0;0;0;0;0.372549;0.988235;0.988235;0.992157;0.988235;0.988235;0.988235;0.992157;0.941176;0.317647;0;0;0;0;0;0;0;0;0;0;0;0;0;0;0;0;0;0.298039;0.952941;0.988235;0.988235;0.745098;0.254902;0.403922;0.988235;0.992157;0.988235;0.658824;0;0;0;0;0;0;0;0;0;0;0;0;0;0;0;0;0.247059;1;0.968627;0.537255;0.0509804;0;0.176471;0.898039;0.992157;0.996078;0.968627;0.196078;0;0;0;0;0;0;0;0;0;0;0;0;0;0;0;0;0.541176;0.968627;0.596078;0;0;0.176471;0.882353;0.988235;0.988235;0.992157;0.670588;0;0;0;0;0;0;0;0;0;0;0;0;0;0;0;0;0;0;0.196078;0;0.113725;0.333333;0.898039;0.988235;0.988235;0.988235;0.945098;0.184314;0;0;0;0;0;0;0;0;0;0;0;0;0;0;0;0;0;0;0;0.101961;0.823529;0.988235;0.992157;0.988235;0.988235;0.988235;0.992157;0.819608;0.443137;0.0509804;0;0;0;0;0;0;0;0;0;0;0;0;0;0;0;0;0;0.223529;0.992157;0.992157;0.996078;0.992157;0.992157;0.992157;0.996078;0.992157;0.992157;0.992157;0.247059;0;0;0;0;0;0;0;0;0;0;0;0;0;0;0;0;0.223529;0.988235;0.988235;0.992157;0.839216;0.843137;0.988235;0.992157;0.988235;0.988235;0.988235;0.760784;0.0745098;0;0;0;0;0;0;0;0;0;0;0;0;0;0;0;0.0509804;0.219608;0.219608;0.219608;0.0745098;0.0745098;0.219608;0.270588;0.878431;0.988235;0.988235;0.992157;0.478431;0;0;0;0;0;0;0;0;0;0;0;0;0;0;0;0;0;0;0;0;0;0;0;0.270588;0.988235;0.988235;0.992157;0.768627;0;0;0;0;0;0;0;0;0;0;0;0;0;0;0;0;0;0;0;0;0;0;0;0.223529;0.992157;0.992157;0.996078;0.772549;0;0;0;0;0;0;0;0;0;0;0;0;0;0;0.101961;0;0;0;0;0;0;0;0.176471;0.733333;0.988235;0.988235;0.992157;0.768627;0;0;0;0;0;0;0;0;0;0;0;0;0.262745;0.772549;0.443137;0;0;0;0;0;0.113725;0.72549;0.898039;0.988235;0.988235;0.988235;0.992157;0.619608;0;0;0;0;0;0;0;0;0;0;0;0.101961;0.823529;0.988235;0.686275;0.247059;0.443137;0.443137;0.447059;0.737255;0.917647;0.988235;0.992157;0.988235;0.988235;0.988235;0.698039;0.0352941;0;0;0;0;0;0;0;0;0;0;0;0.223529;0.992157;0.992157;0.996078;0.992157;0.992157;0.992157;0.996078;0.992157;0.992157;0.992157;0.996078;0.992157;0.992157;0.894118;0;0;0;0;0;0;0;0;0;0;0;0;0;0.223529;0.988235;0.988235;0.992157;0.988235;0.988235;0.988235;0.992157;0.988235;0.988235;0.988235;0.992157;0.988235;0.913725;0.0862745;0;0;0;0;0;0;0;0;0;0;0;0;0;0.14902;0.917647;0.988235;0.992157;0.988235;0.988235;0.988235;0.992157;0.988235;0.988235;0.988235;0.807843;0.556863;0.145098;0;0;0;0;0;0;0;0;0;0;0;0;0;0;0;0.231373;0.545098;0.796078;0.890196;0.545098;0.545098;0.54902;0.45098;0.109804;0.305882;0.0509804;0;0;0;0;0;0;0;0;0;0;0;0;0;0;0;0;0;0;0;0;0;0;0;0;0;0;0;0;0;0;0;0;0;0;0;0;0;0;0;0;0;0;0;0;0;0;0;0;0;0;0;0;0;0;0;0;0;0;0;0;0;0;0;0;0;0;0;0;0;0;0;0;0;0;0;0;0;0;0;0;0;0;0;0;0;0;0;0;0;0;0;0;0;0;0;0;0;0;0;0;0;0;0;0;0;0;0;0;0;0;0;0;0;0;0;0;0;0;0;0;0;0;0
0;0;0;0;0;0;0;0;0;0;0;0;0;0;0;0;0;0;0;0;0;0;0;0;0;0;0;0;0;0;0;0;0;0;0;0;0;0;0;0;0;0;0;0;0;0;0;0;0;0;0;0;0;0;0;0;0;0;0;0;0;0;0;0;0;0;0;0;0;0;0;0;0;0;0;0;0;0;0;0;0;0;0;0;0;0;0;0;0;0;0;0;0;0.478431;0.760784;0.952941;0.827451;0.670588;0.67451;0.607843;0.533333;0.509804;0.0627451;0;0;0;0;0;0;0;0;0;0;0;0;0;0;0;0;0.172549;0.603922;0.94902;0.992157;0.992157;0.992157;0.992157;0.992157;0.992157;0.992157;0.992157;0.94902;0.517647;0.0392157;0;0;0;0;0;0;0;0;0;0;0;0;0;0;0.282353;0.992157;0.992157;0.992157;0.992157;0.862745;0.784314;0.568627;0.396078;0.741176;0.784314;0.905882;0.992157;0.643137;0.0431373;0;0;0;0;0;0;0;0;0;0;0;0;0;0.203922;0.941176;0.992157;0.992157;0.792157;0.0941176;0;0;0;0;0;0.235294;0.992157;0.992157;0.337255;0;0;0;0;0;0;0;0;0;0;0;0;0;0;0.14902;0.592157;0.419608;0.0823529;0;0;0;0;0;0;0.0784314;0.87451;0.992157;0.780392;0.0509804;0;0;0;0;0;0;0;0;0;0;0;0;0;0;0;0;0;0;0;0;0;0;0;0;0.458824;0.992157;0.992157;0.137255;0;0;0;0;0;0;0;0;0;0;0;0;0;0;0;0;0;0;0;0;0;0;0;0;0.0980392;0.858824;0.992157;0.137255;0;0;0;0;0;0;0;0;0;0;0;0;0;0;0;0;0;0;0;0;0;0;0;0;0;0.717647;0.992157;0.137255;0;0;0;0;0;0;0;0;0;0;0;0;0;0;0;0;0;0;0;0;0;0;0;0;0.0313725;0.764706;0.992157;0.137255;0;0;0;0;0;0;0;0;0;0;0;0;0;0;0;0;0;0;0;0;0;0;0;0;0.188235;0.992157;0.764706;0.0431373;0;0;0;0;0;0;0;0;0;0;0;0;0;0;0.270588;0.745098;0.764706;0.764706;0.443137;0.305882;0.0509804;0;0;0.0392157;0.647059;0.992157;0.52549;0;0;0;0;0;0;0;0;0;0;0;0;0;0.411765;0.835294;0.976471;0.992157;0.992157;0.992157;0.992157;0.992157;0.858824;0.627451;0.356863;0.290196;0.992157;0.898039;0.129412;0;0;0;0;0;0;0;0;0;0;0;0.0627451;0.756863;0.972549;0.992157;0.992157;0.984314;0.552941;0.478431;0.721569;0.992157;0.992157;0.992157;0.988235;0.956863;0.992157;0.529412;0;0;0;0;0;0;0;0;0;0;0;0.0588235;0.796078;0.992157;0.992157;0.956863;0.533333;0.258824;0;0;0.0156863;0.0196078;0.196078;0.94902;0.992157;0.992157;0.992157;0.521569;0.0117647;0;0;0;0;0;0;0;0;0;0;0.588235;0.992157;0.992157;0.831373;0.0784314;0;0;0;0;0;0;0.27451;0.956863;0.992157;0.992157;0.992157;0.992157;0.478431;0;0;0;0;0;0;0;0;0;0;1;0.992157;0.992157;0.415686;0;0;0;0;0;0.133333;0.541176;0.937255;0.992157;0.992157;0.905882;0.992157;0.992157;0.666667;0;0;0;0;0;0;0;0;0;0;0.878431;0.992157;0.992157;0.788235;0.717647;0.521569;0.486275;0.717647;0.717647;0.909804;0.992157;0.992157;0.878431;0.501961;0.203922;0.784314;0.992157;0.901961;0.435294;0;0;0;0;0;0;0;0;0;0.384314;0.992157;0.992157;0.992157;0.992157;0.992157;0.992157;0.992157;0.992157;0.992157;0.992157;0.698039;0.117647;0;0;0.188235;0.992157;0.992157;0.913725;0.054902;0;0;0;0;0;0;0;0;0.0431373;0.596078;0.866667;0.992157;0.992157;0.992157;0.992157;0.992157;0.992157;0.717647;0.458824;0.0862745;0;0;0;0.027451;0.756863;0.992157;0.992157;0.25098;0;0;0;0;0;0;0;0;0;0;0.0470588;0.415686;0.529412;0.529412;0.529412;0.490196;0.0666667;0.0196078;0;0;0;0;0;0;0.168627;0.898039;0.992157;0.313725;0;0;0;0;0;0;0;0;0;0;0;0;0;0;0;0;0;0;0;0;0;0;0;0;0;0;0;0;0;0;0;0;0;0;0;0;0;0;0;0;0;0;0;0;0;0;0;0;0;0;0;0;0;0;0;0;0;0;0;0;0;0;0;0;0;0;0;0;0;0;0;0;0;0;0;0;0;0;0;0;0;0;0;0;0;0;0;0;0;0;0;0;0;0;0;0;0;0;0;0;0;0;0;0;0;0;0;0;0;0;0;0;0;0;0;0;0;0;0;0;0;0;0;0;0;0;0;0;0;0;0;0;0;0;0;0;0;0;0;0;0;0;0;0
0;0;0;0;0;0;0;0;0;0;0;0;0;0;0;0;0;0;0;0;0;0;0;0;0;0;0;0;0;0;0;0;0;0;0;0;0;0;0;0;0;0;0;0;0;0;0;0;0;0;0;0;0;0;0;0;0;0;0;0;0;0;0;0;0;0;0;0;0;0;0;0;0;0;0;0;0;0;0;0;0;0;0;0;0;0;0;0;0;0;0;0;0;0;0;0;0;0;0;0;0;0;0;0;0;0;0;0;0;0;0;0;0;0;0;0;0;0;0;0;0;0;0;0;0;0;0;0;0;0;0;0;0;0;0;0;0;0;0;0;0;0;0;0;0;0;0;0;0;0;0;0;0;0;0;0;0;0.321569;0.839216;0.992157;0.360784;0.121569;0;0;0;0;0;0;0;0;0;0;0;0;0;0;0;0;0;0;0;0;0;0;0.482353;0.952941;0.992157;0.988235;0.992157;0.909804;0.321569;0;0;0;0;0;0;0;0;0;0;0;0;0;0;0;0;0;0;0;0.121569;0.756863;0.996078;0.992157;0.996078;0.992157;1;0.992157;0.917647;0.117647;0;0;0;0;0;0;0;0;0;0;0;0;0;0;0;0;0;0.160784;0.835294;0.988235;0.992157;0.988235;0.992157;0.988235;0.439216;0.909804;0.992157;0.196078;0;0;0;0;0;0;0;0;0;0;0;0;0;0;0;0;0.517647;0.992157;0.996078;0.992157;0.996078;0.992157;0.956863;0.478431;0.0431373;0.835294;1;0.196078;0;0;0;0;0;0;0;0;0;0;0;0;0;0;0;0.482353;0.992157;0.988235;0.992157;0.988235;0.513725;0.196078;0.156863;0;0.2;0.988235;0.992157;0.196078;0;0;0;0;0;0;0;0;0;0;0;0;0;0;0.678431;0.992157;0.996078;0.992157;0.996078;0.67451;0;0;0;0;0.203922;0.992157;0.996078;0.196078;0;0;0;0;0;0;0;0;0;0;0;0;0.0823529;0.717647;0.992157;0.988235;0.992157;0.988235;0.835294;0.0392157;0;0;0;0;0.2;0.988235;0.835294;0.0392157;0;0;0;0;0;0;0;0;0;0;0;0.0823529;0.678431;0.992157;0.996078;0.992157;0.996078;0.992157;0.160784;0;0;0;0;0;0.203922;0.992157;0.556863;0;0;0;0;0;0;0;0;0;0;0;0.0823529;0.635294;0.992157;0.988235;0.356863;0.831373;0.992157;0.670588;0;0;0;0;0;0;0.517647;0.988235;0.4;0;0;0;0;0;0;0;0;0;0;0;0.678431;0.992157;0.996078;0.67451;0.678431;0.992157;0.796078;0.0784314;0;0;0;0;0;0.243137;0.996078;0.992157;0;0;0;0;0;0;0;0;0;0;0;0.321569;0.992157;0.988235;0.67451;0.0392157;0.992157;0.988235;0.239216;0;0;0;0;0;0.0823529;0.796078;0.992157;0.509804;0;0;0;0;0;0;0;0;0;0;0;0.796078;0.996078;0.752941;0;0.4;0.996078;0.67451;0;0;0;0;0;0.0823529;0.839216;0.992157;0.717647;0;0;0;0;0;0;0;0;0;0;0;0.0823529;0.87451;0.992157;0.592157;0;0.4;0.992157;0.356863;0;0;0;0;0.0823529;0.796078;0.992157;0.831373;0.0784314;0;0;0;0;0;0;0;0;0;0;0;0.2;0.992157;0.996078;0.196078;0;0;0.639216;0.317647;0;0;0;0.160784;0.996078;0.913725;0.482353;0;0;0;0;0;0;0;0;0;0;0;0;0;0.360784;0.988235;0.835294;0.0392157;0;0;0;0;0;0;0.482353;0.952941;0.913725;0.196078;0;0;0;0;0;0;0;0;0;0;0;0;0;0;0.2;0.992157;0.839216;0.0392157;0;0;0;0;0.121569;0.678431;0.996078;0.835294;0;0;0;0;0;0;0;0;0;0;0;0;0;0;0;0;0.121569;0.909804;0.992157;0.67451;0.4;0.4;0.482353;0.796078;0.913725;0.988235;0.835294;0.0392157;0;0;0;0;0;0;0;0;0;0;0;0;0;0;0;0;0;0.717647;1;0.992157;1;0.992157;0.996078;0.992157;0.878431;0.317647;0;0;0;0;0;0;0;0;0;0;0;0;0;0;0;0;0;0;0;0.0784314;0.592157;0.909804;0.992157;0.988235;0.592157;0.435294;0.0784314;0;0;0;0;0;0;0;0;0;0;0;0;0;0;0;0;0;0;0;0;0;0;0;0;0;0;0;0;0;0;0;0;0;0;0;0;0;0;0;0;0;0;0;0;0;0;0;0;0;0;0;0;0;0;0;0;0;0;0;0;0;0;0;0;0;0;0;0;0;0;0;0;0;0;0;0;0;0;0;0;0;0;0;0;0;0;0;0;0;0;0;0;0;0;0;0;0;0;0
0;0;0;0;0;0;0;0;0;0;0;0;0;0;0;0;0;0;0;0;0;0;0;0;0;0;0;0;0;0;0;0;0;0;0;0;0;0;0;0;0;0;0;0;0;0;0;0;0;0;0;0;0;0;0;0;0;0;0;0;0;0;0;0;0;0;0;0;0;0;0;0;0;0;0;0;0;0;0;0;0;0;0;0;0;0;0;0;0;0;0;0;0;0;0;0;0;0;0;0;0;0;0;0;0;0;0;0;0;0;0;0;0;0;0;0;0;0;0;0;0;0;0;0;0;0;0;0;0;0;0;0;0;0;0;0;0;0;0;0;0;0;0;0;0;0;0.25098;0.501961;0.74902;0.501961;0.74902;0.501961;1;1;1;0.501961;0.501961;0.25098;0;0;0;0;0;0;0;0;0;0;0;0;0;0;0;0;1;1;1;1;1;1;1;1;1;1;1;1;0.25098;0;0;0;0;0;0;0;0;0;0;0;0;0;0;0;0.501961;1;1;1;1;1;1;1;1;1;1;1;1;0;0;0;0;0;0;0;0;0;0;0;0;0;0;0;0;0;0.74902;1;1;1;1;0.25098;0;0.501961;1;1;1;0.501961;0;0;0;0;0;0;0;0;0;0;0;0;0;0;0;0;0;0;0;0;0.25098;0;0;0.25098;1;1;1;0.25098;0;0;0;0;0;0;0;0;0;0;0;0;0;0;0;0;0;0;0;0;0;0;0.501961;1;1;1;0.74902;0;0;0;0;0;0;0;0;0;0;0;0;0;0;0;0;0;0;0;0;0;0;0.74902;1;1;1;1;0;0;0;0;0;0;0;0;0;0;0;0;0;0;0;0;0;0;0;0;0;0.25098;0.74902;1;1;1;1;0.25098;0;0;0;0;0;0;0;0;0;0;0;0;0;0;0;0;0;0;0;0;0;0.74902;1;1;1;1;1;0.501961;0.25098;0;0;0;0;0;0;0;0;0;0;0;0;0;0;0;0;0;0;0;0;0.501961;1;1;1;1;1;1;1;0.74902;0;0;0;0;0;0;0;0;0;0;0;0;0;0;0;0;0;0;0;0;1;1;1;1;1;1;1;1;1;0;0;0;0;0;0;0;0;0;0;0;0;0;0;0;0;0;0;0;0;0.25098;0.501961;0.501961;0.74902;1;1;1;1;0.74902;0;0;0;0;0;0;0;0;0;0;0;0;0;0;0;0;0;0;0;0;0;0;0;0.25098;1;1;1;1;0;0;0;0;0;0;0;0;0;0;0;0;0;0;0;0;0;0;0;0;0;0;0;0;1;1;1;0.74902;0;0;0;0;0;0;0;0;0;0;0;0;0;0;0;0;0;0;0;0;0;0;0;0.74902;1;1;1;0;0;0;0;0;0;0;0;0;0;0;0;0;0;0;0;0;0;0;0;0;0;0;0.501961;1;1;1;0.74902;0;0;0;0;0;0;0;0;0;0;0;0;0;1;1;1;0.501961;0.25098;0;0;0;0.501961;1;1;1;1;1;0.25098;0;0;0;0;0;0;0;0;0;0;0;0;0;1;1;1;1;1;1;1;1;1;1;1;1;1;0.501961;0;0;0;0;0;0;0;0;0;0;0;0;0;0;0.501961;1;1;1;1;1;1;1;1;1;1;0.74902;0;0;0;0;0;0;0;0;0;0;0;0;0;0;0;0;0;0;0.25098;0.74902;1;1;0.501961;0.501961;0.501961;0.501961;0.25098;0;0;0;0;0;0;0;0;0;0;0;0;0;0;0;0;0;0;0;0;0;0;0;0;0;0;0;0;0;0;0;0;0;0;0;0;0;0;0;0;0;0;0;0;0;0;0;0;0;0;0;0;0;0;0;0;0;0;0;0;0;0;0;0;0;0;0;0;0;0;0;0;0;0;0;0;0;0;0;0;0;0;0;0;0;0;0;0;0;0;0;0;0;0;0
0;0;0;0;0;0;0;0;0;0;0;0;0;0;0;0;0;0;0;0;0;0;0;0;0;0;0;0;0;0;0;0;0;0;0;0;0;0;0;0;0;0;0;0;0;0;0;0;0;0;0;0;0;0;0;0;0;0;0;0;0;0;0;0;0;0;0;0;0;0;0;0;0;0;0;0;0;0;0;0;0;0;0;0;0;0;0;0;0;0;0;0;0;0;0;0;0;0;0;0;0;0;0;0;0;0;0;0;0;0;0;0;0;0;0;0;0;0;0;0;0;0;0;0;0;0;0;0;0.694118;0.996078;0.933333;0.490196;0.52549;0.972549;0.223529;0;0;0;0;0;0;0;0;0;0;0;0;0;0;0;0;0;0;0;0;0.0980392;0.831373;0.992157;0.992157;0.992157;0.992157;0.992157;0.694118;0;0;0;0;0;0;0;0;0;0;0;0;0;0;0;0;0;0;0.337255;0.815686;0.956863;0.992157;0.92549;0.556863;0.243137;0.607843;0.992157;0.968627;0;0;0;0;0;0;0;0;0;0;0;0;0;0;0;0;0;0.47451;0.976471;0.992157;0.992157;0.992157;0.627451;0;0;0.588235;0.992157;0.756863;0;0;0;0;0;0;0;0;0;0;0;0;0;0;0;0;0;0.792157;0.992157;0.992157;0.992157;0.921569;0.203922;0.0509804;0.698039;0.952941;0.972549;0.282353;0;0;0;0;0;0;0;0;0;0;0;0;0;0;0;0;0;0.607843;0.992157;0.992157;0.811765;0.101961;0.0588235;0.443137;0.992157;0.992157;0.498039;0;0;0;0;0;0;0;0;0;0;0;0;0;0;0;0;0;0;0.0431373;0.14902;0.14902;0.121569;0;0.329412;0.992157;0.956863;0.360784;0.0666667;0;0;0;0;0;0;0;0;0;0;0;0;0;0;0;0;0;0;0;0;0;0;0.568627;0.937255;0.992157;0.890196;0;0;0;0;0;0;0;0;0;0;0;0;0;0;0;0;0;0;0;0;0;0;0;0.309804;0.933333;0.992157;0.992157;0.745098;0;0;0;0;0;0;0;0;0;0;0;0;0;0;0;0;0;0;0;0;0;0;0.313725;0.929412;0.992157;0.992157;0.992157;0.380392;0;0;0;0;0;0;0;0;0;0;0;0;0;0;0;0;0;0;0;0;0;0.313725;0.929412;0.992157;0.992157;0.956863;0.435294;0.0980392;0;0;0;0;0;0;0;0;0;0;0;0;0;0;0;0;0;0;0;0.0666667;0.352941;0.929412;0.992157;0.992157;0.992157;0.733333;0;0;0;0;0;0;0;0;0;0;0;0;0;0;0;0;0;0.168627;0.180392;0.627451;0.690196;0.784314;0.992157;0.992157;0.992157;0.992157;0.776471;0.101961;0;0;0;0;0;0;0;0;0;0;0;0;0;0;0;0;0.372549;0.968627;0.992157;0.992157;0.992157;0.992157;0.992157;0.992157;0.992157;0.854902;0.101961;0;0;0;0;0;0;0;0;0;0;0;0;0;0;0;0.129412;0.627451;0.976471;0.992157;0.992157;0.992157;0.992157;0.992157;0.992157;0.992157;0.992157;0.815686;0.0392157;0;0;0;0;0;0;0;0;0;0;0;0;0;0;0;1;0.992157;0.992157;0.992157;0.992157;0.992157;0.992157;0.960784;0.745098;0.772549;0.968627;0.992157;0.619608;0;0;0;0.0117647;0.0980392;0;0.054902;0;0;0;0;0;0;0;0;1;0.992157;0.992157;0.992157;0.992157;0.992157;0.756863;0.282353;0;0;0.443137;0.992157;0.921569;0.588235;0.32549;0.588235;0.619608;0.945098;0.301961;0.247059;0;0;0;0;0;0;0;0;0.996078;0.992157;0.992157;0.992157;0.992157;0.764706;0.0666667;0;0;0;0.219608;0.952941;0.984314;0.976471;0.992157;0.992157;0.992157;0.937255;0.211765;0.211765;0;0;0;0;0;0;0;0;1;0.992157;0.980392;0.968627;0.505882;0.0588235;0;0;0;0;0;0.0941176;0.376471;0.305882;0.784314;0.968627;0.701961;0.423529;0;0;0;0;0;0;0;0;0;0;0.486275;0.482353;0.27451;0;0;0;0;0;0;0;0;0;0;0;0;0;0;0;0;0;0;0;0;0;0;0;0;0;0;0;0;0;0;0;0;0;0;0;0;0;0;0;0;0;0;0;0;0;0;0;0;0;0;0;0;0;0;0;0;0;0;0;0;0;0;0;0;0;0;0;0;0;0;0;0;0;0;0;0;0;0;0;0;0;0;0;0;0;0;0;0;0;0;0;0;0;0;0;0;0;0;0;0;0;0;0;0;0;0;0;0;0;0;0;0;0;0;0;0;0;0;0;0;0;0;0;0;0;0;0;0;0;0;0;0;0
0;0;0;0;0;0;0;0;0;0;0;0;0;0;0;0;0;0;0;0;0;0;0;0;0;0;0;0;0;0;0;0;0;0;0;0;0;0;0;0;0;0;0;0;0;0;0;0;0;0;0;0;0;0;0;0;0;0;0;0;0;0;0;0;0;0;0;0;0;0;0;0;0;0;0;0;0;0;0;0;0;0;0;0;0;0;0;0;0;0;0;0;0;0;0;0;0;0;0;0;0;0;0;0;0;0;0;0;0;0;0;0;0;0;0;0;0;0;0;0;0;0;0;0;0;0;0;0;0;0;0;0;0;0;0;0;0;0;0;0;0;0;0;0;0;0;0;0;0;0;0;0;0;0;0;0;0;0;0;0;0;0;0;0;0;0;0;0;0;0;0;0;0;0;0;0;0;0.141176;0.333333;0.0823529;0;0;0;0;0;0.305882;0.333333;0.333333;0;0;0;0;0;0;0;0;0;0;0;0;0;0;0;0;0.266667;0.945098;0.992157;0.929412;0.529412;0.223529;0.431373;0.501961;0.807843;0.984314;0.988235;0.988235;0.670588;0.12549;0;0;0;0;0;0;0;0;0;0;0;0;0;0.160784;0.882353;0.988235;0.992157;0.988235;0.988235;0.988235;0.988235;0.992157;0.988235;0.988235;0.988235;0.988235;0.992157;0.741176;0.160784;0;0;0;0;0;0;0;0;0;0;0;0.454902;0.909804;0.988235;0.988235;0.74902;0.886275;0.988235;0.988235;0.988235;0.92549;0.886275;0.988235;0.988235;0.988235;0.992157;0.988235;0.909804;0.619608;0;0;0;0;0;0;0;0;0;0.411765;0.992157;0.992157;0.952941;0.309804;0;0.74902;0.992157;0.847059;0.0705882;0;0;0;0.105882;0.415686;0.486275;0.952941;0.992157;0.890196;0.0980392;0;0;0;0;0;0;0;0;0.890196;0.988235;0.988235;0.6;0;0;0.607843;0.988235;0.741176;0;0;0;0;0;0;0;0.745098;0.988235;0.988235;0.164706;0;0;0;0;0;0;0;0;0.992157;0.988235;0.745098;0.054902;0;0;0.168627;0.913725;0.866667;0.152941;0.258824;0.0862745;0.00784314;0;0;0.0509804;0.764706;0.988235;0.968627;0.14902;0;0;0;0;0;0;0;0;0.992157;0.988235;0.988235;0.666667;0.145098;0.211765;0;0.6;0.988235;0.988235;0.992157;0.988235;0.482353;0.52549;0.662745;0.854902;0.988235;0.866667;0.552941;0;0;0;0;0;0;0;0;0;0.407843;0.886275;0.988235;0.988235;0.921569;0.968627;0.827451;0.976471;0.988235;0.988235;0.992157;0.988235;0.988235;0.988235;0.988235;0.992157;0.85098;0.113725;0;0;0;0;0;0;0;0;0;0;0;0.313725;0.807843;0.992157;0.992157;0.996078;0.992157;0.992157;0.992157;0.992157;1;0.992157;0.992157;0.992157;0.992157;1;0.992157;0.784314;0.478431;0.0980392;0;0;0;0;0;0;0;0;0;0;0.223529;0.988235;0.988235;0.992157;0.988235;0.478431;0.435294;0.988235;0.992157;0.988235;0.988235;0.988235;0.988235;0.992157;0.988235;0.988235;0.988235;0.886275;0;0;0;0;0;0;0;0;0;0;0.705882;0.988235;0.988235;0.839216;0.184314;0.00784314;0.12549;0.666667;0.909804;0.458824;0.0823529;0.0823529;0.0823529;0.498039;0.803922;0.984314;0.988235;0.988235;0;0;0;0;0;0;0;0;0;0.223529;0.964706;0.988235;0.886275;0;0;0;0;0;0;0;0;0;0;0;0.0862745;0.929412;0.988235;0.988235;0;0;0;0;0;0;0;0;0;0.333333;0.988235;0.988235;0.74902;0;0;0;0;0;0;0;0;0.278431;0.415686;0.831373;0.882353;0.988235;0.988235;0.47451;0;0;0;0;0;0;0;0;0;0.141176;0.878431;0.992157;0.992157;0.996078;0.992157;0.960784;0.580392;0.580392;0.580392;0.890196;0.992157;0.992157;0.992157;1;0.937255;0.792157;0.313725;0;0;0;0;0;0;0;0;0;0;0;0.333333;0.878431;0.988235;0.992157;0.988235;0.988235;0.988235;0.988235;0.992157;0.988235;0.823529;0.658824;0.658824;0.247059;0.164706;0;0;0;0;0;0;0;0;0;0;0;0;0;0;0.160784;0.494118;0.909804;0.905882;0.698039;0.321569;0.494118;0.498039;0.184314;0.0431373;0;0;0;0;0;0;0;0;0;0;0;0;0;0;0;0;0;0;0;0;0;0;0;0;0;0;0;0;0;0;0;0;0;0;0;0;0;0;0;0;0;0;0;0;0;0;0;0;0;0;0;0;0;0;0;0;0;0;0;0;0;0;0;0;0;0;0;0;0;0;0;0;0;0;0;0;0;0;0;0;0;0;0;0;0;0;0;0;0;0;0;0;0;0;0;0;0;0;0;0;0;0;0;0;0;0;0;0;0;0;0;0;0;0;0;0;0;0;0;0;0;0;0;0;0;0;0;0;0;0;0;0;0;0;0;0;0;0;0;0;0;0;0;0;0;0;0;0;0;0
0;0;0;0;0;0;0;0;0;0;0;0;0;0;0;0;0;0;0;0;0;0;0;0;0;0;0;0;0;0;0;0;0;0;0;0;0;0;0;0;0;0;0;0;0;0;0;0;0;0;0;0;0;0;0;0;0;0;0;0;0;0;0;0;0;0;0;0;0;0;0;0;0;0;0;0;0;0;0;0;0;0;0;0;0;0;0;0;0;0;0;0;0;0;0;0;0;0;0;0;0;0;0;0;0;0;0;0;0;0;0;0;0;0;0;0;0;0;0;0;0;0.027451;0.462745;0.462745;0.462745;0.898039;0.996078;1;0.984314;0.235294;0;0;0;0;0;0;0;0;0;0;0;0;0;0;0;0;0;0;0;0.054902;0.992157;0.992157;0.992157;0.992157;0.992157;0.992157;0.992157;0.956863;0.0470588;0;0;0;0;0;0;0;0;0;0;0;0;0;0;0;0;0;0;0.505882;0.992157;0.992157;0.72549;0.694118;0.752941;0.992157;0.984314;0.435294;0.00784314;0;0;0;0;0;0;0;0;0;0;0;0;0;0;0;0;0;0.223529;0.898039;0.992157;0.662745;0.027451;0;0.192157;0.85098;0.466667;0;0;0;0;0;0;0;0;0;0;0;0;0;0;0;0;0;0;0;0.67451;0.992157;0.992157;0.196078;0;0;0.0627451;0.113725;0;0;0;0;0;0;0;0;0;0;0;0;0;0;0;0;0;0;0;0.160784;0.862745;0.988235;0.658824;0.0117647;0;0;0;0;0;0;0;0;0;0;0;0;0;0;0;0;0;0;0;0;0;0;0;0.752941;0.992157;0.937255;0;0;0;0;0;0;0;0;0;0;0;0;0;0;0;0;0;0;0;0;0;0;0;0;0.294118;0.988235;0.992157;0.411765;0;0;0;0;0;0;0;0;0;0;0;0;0;0;0;0;0;0;0;0;0;0;0;0.137255;0.835294;0.992157;0.392157;0.0431373;0;0;0;0;0;0;0;0;0;0;0;0;0;0;0;0;0;0;0;0;0;0;0;0.521569;0.992157;0.992157;0.466667;0;0;0;0;0;0;0;0;0;0;0;0;0;0;0;0;0;0;0;0;0;0;0;0;0.815686;0.992157;0.992157;0.956863;0.729412;0.729412;0.729412;0.729412;0.729412;0.333333;0.168627;0;0;0;0;0;0;0;0;0;0;0;0;0;0;0;0;0;0.133333;0.8;0.909804;0.992157;0.992157;0.992157;0.992157;0.992157;0.992157;0.992157;0.956863;0.647059;0.647059;0.431373;0.0745098;0;0;0;0;0;0;0;0;0;0;0;0;0;0;0;0.0941176;0.427451;0.427451;0.427451;0.427451;0.427451;0.866667;0.972549;0.992157;0.992157;0.992157;0.992157;0.854902;0.564706;0.184314;0;0;0;0;0;0;0;0;0;0;0;0;0;0;0;0;0;0;0;0;0.0980392;0.505882;0.784314;0.992157;0.992157;0.992157;0.992157;0.909804;0.184314;0;0;0;0;0;0;0;0;0;0;0;0;0;0;0;0;0;0;0.333333;0.329412;0;0.0313725;0.0509804;0.0509804;0.647059;0.992157;0.992157;0.592157;0;0;0;0;0;0;0;0;0;0;0;0;0;0;0;0;0;0;0.807843;0.803922;0;0;0;0;0.32549;0.992157;0.992157;0.447059;0;0;0;0;0;0;0;0;0;0;0;0;0;0;0;0;0;0.278431;0.952941;0.952941;0.431373;0.239216;0;0.231373;0.780392;0.992157;0.952941;0.282353;0;0;0;0;0;0;0;0;0;0;0;0;0;0;0;0;0;0.105882;0.862745;0.992157;0.992157;0.984314;0.701961;0.976471;0.992157;0.992157;0.45098;0;0;0;0;0;0;0;0;0;0;0;0;0;0;0;0;0;0;0;0.305882;0.784314;0.992157;0.992157;0.992157;0.992157;0.964706;0.780392;0.109804;0;0;0;0;0;0;0;0;0;0;0;0;0;0;0;0;0;0;0;0;0.0901961;0.454902;0.760784;0.992157;0.992157;0.380392;0;0;0;0;0;0;0;0;0;0;0;0;0;0;0;0;0;0;0;0;0;0;0;0;0;0;0;0;0;0;0;0;0;0;0;0;0;0;0;0;0;0;0;0;0;0;0;0;0;0;0;0;0;0;0;0;0;0;0;0;0;0;0;0;0;0;0;0;0;0;0;0;0;0;0;0;0;0;0;0;0;0;0;0;0;0;0;0;0;0;0;0;0;0;0;0;0;0;0;0;0;0;0;0;0;0;0;0;0;0;0;0;0;0;0;0;0;0;0;0
0;0;0;0;0;0;0;0;0;0;0;0;0;0;0;0;0;0;0;0;0;0;0;0;0;0;0;0;0;0;0;0;0;0;0;0;0;0;0;0;0;0;0;0;0;0;0;0;0;0;0;0;0;0;0;0;0;0;0;0;0;0;0;0;0;0;0;0;0;0;0;0;0;0;0;0;0;0;0;0;0;0;0;0;0;0;0;0;0;0;0;0;0;0;0.0823529;0.690196;0.992157;0.686275;0.286275;0;0;0;0;0;0;0;0;0;0;0;0;0;0;0;0;0;0;0;0;0;0;0;0.286275;0.984314;0.984314;0.984314;0.984314;0.411765;0;0;0;0;0;0;0;0;0;0;0;0;0;0;0;0;0;0;0;0;0;0.105882;0.894118;0.984314;0.984314;0.984314;0.984314;0.952941;0.85098;0.219608;0;0;0;0;0;0;0;0;0;0;0;0;0;0;0;0;0;0;0;0.705882;0.992157;0.984314;0.984314;0.984314;0.984314;0.992157;0.984314;0.843137;0;0;0;0;0;0;0;0;0;0;0;0;0;0;0;0;0;0;0;0.705882;0.992157;0.984314;0.984314;0.984314;0.984314;0.992157;0.984314;0.945098;0.403922;0;0;0;0;0;0;0;0;0;0;0;0;0;0;0;0;0;0;0.713725;1;0.992157;0.992157;0.992157;0.992157;1;0.992157;0.992157;0.992157;0.992157;0;0;0;0;0;0;0;0;0;0;0;0;0;0;0;0;0.247059;0.866667;0.992157;0.984314;0.984314;0.737255;0.419608;0.584314;0.984314;0.984314;0.984314;0.984314;0;0;0;0;0;0;0;0;0;0;0;0;0;0;0;0;0.427451;0.984314;0.992157;0.984314;0.964706;0.482353;0;0.0392157;0.623529;0.984314;0.984314;0.984314;0.65098;0.0627451;0;0;0;0;0;0;0;0;0;0;0;0;0;0;0.427451;0.984314;0.992157;0.984314;0.843137;0;0;0;0.32549;0.92549;0.984314;0.984314;0.992157;0.419608;0;0;0;0;0;0;0;0;0;0;0;0;0;0;0.427451;0.984314;0.992157;0.984314;0.843137;0;0;0;0;0.85098;0.984314;0.984314;0.992157;0.823529;0.0980392;0;0;0;0;0;0;0;0;0;0;0;0;0.145098;0.992157;0.992157;1;0.992157;0.643137;0;0;0;0;0.145098;0.992157;0.992157;1;0.992157;0.137255;0;0;0;0;0;0;0;0;0;0;0;0;0.145098;0.984314;0.984314;0.992157;0.984314;0.137255;0;0;0;0;0.54902;0.984314;0.984314;0.992157;0.984314;0.137255;0;0;0;0;0;0;0;0;0;0;0;0;0.145098;0.984314;0.984314;0.992157;0.984314;0.137255;0;0;0;0.0823529;0.866667;0.984314;0.984314;0.992157;0.984314;0.137255;0;0;0;0;0;0;0;0;0;0;0;0;0.145098;0.984314;0.984314;0.992157;0.984314;0.137255;0;0;0.12549;0.745098;0.984314;0.984314;0.984314;0.992157;0.984314;0.137255;0;0;0;0;0;0;0;0;0;0;0;0;0.145098;0.984314;0.984314;0.992157;0.984314;0.137255;0;0;0.792157;0.984314;0.984314;0.984314;0.984314;0.992157;0.984314;0.137255;0;0;0;0;0;0;0;0;0;0;0;0;0.105882;0.831373;0.992157;1;0.992157;0.992157;0.992157;0.992157;1;0.992157;0.992157;0.992157;0.992157;1;0.992157;0.137255;0;0;0;0;0;0;0;0;0;0;0;0;0;0.427451;0.984314;0.992157;0.984314;0.984314;0.984314;0.984314;0.992157;0.984314;0.984314;0.984314;0.984314;0.992157;0.658824;0.0588235;0;0;0;0;0;0;0;0;0;0;0;0;0;0.0588235;0.745098;0.992157;0.984314;0.984314;0.984314;0.984314;0.992157;0.984314;0.984314;0.984314;0.984314;0.94902;0.360784;0;0;0;0;0;0;0;0;0;0;0;0;0;0;0;0.705882;0.992157;0.984314;0.984314;0.984314;0.984314;0.992157;0.984314;0.984314;0.984314;0.984314;0.403922;0;0;0;0;0;0;0;0;0;0;0;0;0;0;0;0;0.2;0.486275;0.984314;0.984314;0.984314;0.984314;0.992157;0.984314;0.984314;0.678431;0.278431;0;0;0;0;0;0;0;0;0;0;0;0;0;0;0;0;0;0;0;0;0;0;0;0;0;0;0;0;0;0;0;0;0;0;0;0;0;0;0;0;0;0;0;0;0;0;0;0;0;0;0;0;0;0;0;0;0;0;0;0;0;0;0;0;0;0;0;0;0;0;0;0;0;0;0;0;0;0;0;0;0;0;0;0;0;0;0;0;0;0;0;0;0;0;0;0;0;0;0;0;0;0;0;0;0;0;0;0;0;0;0;0;0;0;0;0;0;0;0;0;0;0;0;0;0;0;0;0;0;0;0;0;0;0;0;0;0;0;0;0;0;0;0;0;0;0;0;0
