0;0;0;0;0;0;0;0;0;0;0;0;0;0;0;0;0;0;0;0;0;0;0;0;0;0;0;0;0;0;0;0;0;0;0;0;0;0;0;0;0;0;0;0;0;0;0;0;0;0;0;0;0;0;0;0;0;0;0;0;0;0;0;0;0;0;0;0;0;0;0;0;0;0;0;0;0;0;0;0;0;0;0;0;0;0;0;0;0;0;0;0;0;0;0;0;0;0;0;0;0;0;0;0;0;0;0;0;0;0;0;0;0;0;0;0;0;0;0;0;0;0;0;0;0;0;0;0;0;0;0;0;0;0;0;0;0;0;0;0;0;0;0;0;0;0;0;0;0;0;0.929412;0.996078;0.996078;1;0.898039;0.639216;0.690196;0.717647;0.513725;0;0;0;0;0;0;0;0;0;0;0;0;0;0;0;0;0;0;0;0.592157;0.996078;0.827451;0.780392;0.784314;0.780392;0.858824;0.796078;0.839216;0;0;0;0;0;0;0;0;0;0;0;0;0;0;0;0;0;0;0;0.568627;0.996078;0.211765;0;0;0;0.0509804;0.0117647;0.0431373;0;0;0;0;0;0;0;0;0;0;0;0;0;0;0;0;0;0;0;0.419608;0.945098;0.290196;0;0;0;0;0;0;0;0;0;0;0;0;0;0;0;0;0;0;0;0;0;0;0;0;0;0.215686;0.996078;0.564706;0;0;0;0;0;0;0;0;0;0;0;0;0;0;0;0;0;0;0;0;0;0;0;0;0;0.447059;0.996078;0.568627;0;0;0;0;0;0;0;0;0;0;0;0;0;0;0;0;0;0;0;0;0;0;0;0;0;0.239216;0.996078;0.235294;0;0;0;0;0;0;0;0;0;0;0;0;0;0;0;0;0;0;0;0;0;0;0;0;0;0.517647;0.996078;0.211765;0;0;0;0;0;0;0;0;0;0;0;0;0;0;0;0;0;0;0;0;0;0;0;0;0;0.568627;0.996078;0.827451;0.784314;0.788235;0.454902;0.0862745;0;0;0;0;0;0;0;0;0;0;0;0;0;0;0;0;0;0;0;0;0;0.568627;0.996078;0.996078;0.996078;1;0.996078;0.85098;0.282353;0;0;0;0;0;0;0;0;0;0;0;0;0;0;0;0;0;0;0;0;0.0784314;0.360784;0.0784314;0;0;0.411765;0.956863;0.945098;0.0823529;0;0;0;0;0;0;0;0;0;0;0;0;0;0;0;0;0;0;0;0;0;0;0;0;0;0.45098;0.996078;0.282353;0;0;0;0;0;0;0;0;0;0;0;0;0;0;0;0;0;0;0;0;0;0;0;0;0;0.0745098;0.890196;0.639216;0;0;0;0;0;0;0;0;0;0;0;0;0;0;0;0;0;0;0;0;0;0;0;0;0;0;0.784314;0.996078;0;0;0;0;0;0;0;0;0;0;0;0;0;0;0;0;0;0;0;0;0;0;0;0;0;0;0.784314;0.996078;0;0;0;0;0;0;0;0;0;0;0;0;0;0;0;0;0;0;0;0;0;0;0;0;0;0.0431373;0.847059;0.768627;0;0;0;0;0;0;0;0;0;0;0;0;0;0;0;0;0;0;0.243137;0.117647;0;0;0;0;0;0.54902;0.996078;0.309804;0;0;0;0;0;0;0;0;0;0;0;0;0;0;0;0;0;0.309804;0.94902;0.505882;0.0235294;0;0;0.145098;0.54902;0.976471;0.701961;0.0431373;0;0;0;0;0;0;0;0;0;0;0;0;0;0;0;0;0;0.203922;0.945098;0.996078;0.811765;0.756863;0.682353;0.996078;0.996078;0.905882;0.121569;0;0;0;0;0;0;0;0;0;0;0;0;0;0;0;0;0;0;0;0.0823529;0.360784;0.639216;0.792157;0.996078;0.411765;0.282353;0.141176;0;0;0;0;0;0;0;0;0;0;0;0;0;0;0;0;0;0;0;0;0;0;0;0;0;0;0;0;0;0;0;0;0;0;0;0;0;0;0;0;0;0;0;0;0;0;0;0;0;0;0;0;0;0;0;0;0;0;0;0;0;0;0;0;0;0;0;0;0;0;0;0;0;0;0;0;0;0;0;0;0;0;0;0;0;0;0;0;0;0;0;0;0;0;0
0;0;0;0;0;0;0;0;0;0;0;0;0;0;0;0;0;0;0;0;0;0;0;0;0;0;0;0;0;0;0;0;0;0;0;0;0;0;0;0;0;0;0;0;0;0;0;0;0;0;0;0;0;0;0;0;0;0;0;0;0;0;0;0;0;0;0;0;0;0;0;0;0;0;0;0;0;0;0;0;0;0;0;0;0;0;0;0;0;0;0;0;0;0;0;0;0;0;0;0;0;0;0;0;0;0;0;0;0;0;0;0;0;0;0;0;0;0;0;0;0;0;0;0;0;0;0;0.768627;1;0.372549;0.00392157;0;0;0;0;0;0;0;0;0;0;0;0;0;0;0;0;0;0;0;0;0;0;0;0;0.764706;0.992157;0.992157;0.0196078;0;0;0;0;0;0;0;0;0;0;0;0;0;0;0;0;0;0;0;0;0;0;0;0;0.764706;0.992157;0.992157;0.0196078;0;0;0;0;0;0;0;0;0;0;0;0;0;0;0;0;0;0;0;0;0;0;0;0;0.764706;0.992157;0.992157;0.0196078;0;0;0;0;0;0;0;0;0;0;0;0;0;0;0;0;0;0;0;0;0;0;0;0.0823529;0.847059;0.992157;0.839216;0.0156863;0;0;0;0;0;0;0;0;0;0;0;0;0;0;0;0;0;0;0;0;0;0;0;0.235294;0.992157;0.992157;0.552941;0;0;0;0;0;0;0;0;0;0;0;0;0;0;0;0;0;0;0;0;0;0;0;0;0.247059;0.992157;0.992157;0.109804;0;0;0;0;0;0;0;0;0;0;0;0;0;0;0;0;0;0;0;0;0;0;0;0;0.694118;0.992157;0.784314;0.0392157;0;0;0;0;0;0;0;0;0;0;0;0;0;0;0;0;0;0;0;0;0;0;0;0.105882;0.882353;0.992157;0.619608;0;0;0;0;0;0;0;0;0;0;0;0;0;0;0;0;0;0;0;0;0;0;0;0;0.164706;0.992157;0.992157;0.619608;0;0;0;0;0;0;0;0;0;0;0;0;0;0;0;0;0;0;0;0;0;0;0;0;0.164706;0.992157;0.992157;0.619608;0;0;0;0;0;0;0;0;0;0;0;0;0;0;0;0;0;0;0;0;0;0;0;0.0352941;0.690196;0.992157;0.992157;0.235294;0;0;0;0;0;0;0;0;0;0;0;0;0;0;0;0;0;0;0;0;0;0;0;0.0941176;0.992157;0.992157;0.858824;0.0901961;0;0;0;0;0;0;0;0;0;0;0;0;0;0;0;0;0;0;0;0;0;0;0;0.333333;0.992157;0.992157;0.454902;0;0;0;0;0;0;0;0;0;0;0;0;0;0;0;0;0;0;0;0;0;0;0;0;0.556863;0.992157;0.992157;0.231373;0;0;0;0;0;0;0;0;0;0;0;0;0;0;0;0;0;0;0;0;0;0;0;0.00784314;0.639216;0.992157;0.992157;0.231373;0;0;0;0;0;0;0;0;0;0;0;0;0;0;0;0;0;0;0;0;0;0;0;0.0235294;0.992157;0.992157;0.823529;0.0666667;0;0;0;0;0;0;0;0;0;0;0;0;0;0;0;0;0;0;0;0;0;0;0;0.396078;0.992157;0.992157;0.760784;0;0;0;0;0;0;0;0;0;0;0;0;0;0;0;0;0;0;0;0;0;0;0;0;0.490196;0.992157;0.929412;0.243137;0;0;0;0;0;0;0;0;0;0;0;0;0;0;0;0;0;0;0;0;0;0;0;0;0.27451;0.992157;0.831373;0;0;0;0;0;0;0;0;0;0;0;0;0;0;0;0;0;0;0;0;0;0;0;0;0;0;0;0;0;0;0;0;0;0;0;0;0;0;0;0;0;0;0;0;0;0;0;0;0;0;0;0;0;0;0;0;0;0;0;0;0;0;0;0;0;0;0;0;0;0;0;0;0;0;0;0;0;0;0;0;0;0;0;0;0;0;0;0;0;0;0;0;0;0;0;0;0;0;0;0;0;0;0;0;0;0;0;0;0;0;0;0;0;0;0;0;0;0;0;0;0;0;0;0;0;0
0;0;0;0;0;0;0;0;0;0;0;0;0;0;0;0;0;0;0;0;0;0;0;0;0;0;0;0;0;0;0;0;0;0;0;0;0;0;0;0;0;0;0;0;0;0;0;0;0;0;0;0;0;0;0;0;0;0;0;0;0;0;0;0;0;0;0;0;0;0;0;0;0;0;0;0;0;0;0;0;0;0;0;0;0;0;0;0;0;0;0;0;0;0;0;0;0;0;0;0;0;0;0;0;0;0;0;0;0;0;0;0;0;0;0;0;0;0;0;0;0;0;0;0;0;0;0;0;0;0;0;0;0;0;0;0;0;0;0;0;0;0;0;0;0;0;0;0;0;0;0;0;0;0;0;0;0;0;0;0.533333;1;0.494118;0;0;0;0;0;0;0;0;0;0;0;0;0;0;0;0;0;0;0;0;0;0;0;0;0.537255;0.992157;0.627451;0.215686;0;0;0;0;0;0;0;0;0;0;0;0;0;0;0;0;0;0;0;0;0;0;0;0.556863;0.988235;0.729412;0.0941176;0;0;0;0;0;0;0;0;0;0;0;0;0;0;0;0;0;0;0;0;0;0;0;0.176471;0.901961;0.996078;0.482353;0;0;0;0;0;0;0;0;0;0;0;0;0;0;0;0;0;0;0;0;0;0;0;0;0.67451;0.996078;0.584314;0.0156863;0;0;0;0;0;0;0;0;0;0;0;0;0;0;0;0;0;0;0;0;0;0;0;0.337255;0.980392;0.964706;0.196078;0;0;0;0;0;0;0;0;0;0;0;0;0;0;0;0;0;0;0;0;0;0;0;0;0.678431;0.996078;0.384314;0;0;0;0;0;0;0;0;0;0;0;0;0;0;0;0;0;0;0;0;0;0;0;0;0.517647;0.976471;0.737255;0.0235294;0;0;0;0;0;0;0;0;0;0;0;0;0;0;0;0;0;0;0;0;0;0;0;0.227451;0.976471;0.964706;0.14902;0;0;0;0;0;0;0;0;0;0;0;0;0;0;0;0;0;0;0;0;0;0;0;0;0.811765;0.996078;0.443137;0;0;0;0;0;0;0;0;0;0;0;0;0;0;0;0;0;0;0;0;0;0;0;0;0.392157;0.972549;0.74902;0.0862745;0;0;0;0;0;0;0;0;0;0;0;0;0;0;0;0;0;0;0;0;0;0;0;0;0.764706;0.996078;0.266667;0;0;0;0;0;0;0;0;0;0;0;0;0;0;0;0;0;0;0;0;0;0;0;0;0.333333;0.972549;0.690196;0.0313725;0;0;0;0;0;0;0;0;0;0;0;0;0;0;0;0;0;0;0;0;0;0;0;0.105882;0.866667;0.972549;0.196078;0;0;0;0;0;0;0;0;0;0;0;0;0;0;0;0;0;0;0;0;0;0;0;0;0.52549;0.996078;0.501961;0;0;0;0;0;0;0;0;0;0;0;0;0;0;0;0;0;0;0;0;0;0;0;0;0;0.913725;0.882353;0.0705882;0;0;0;0;0;0;0;0;0;0;0;0;0;0;0;0;0;0;0;0;0;0;0;0;0.321569;0.972549;0.423529;0;0;0;0;0;0;0;0;0;0;0;0;0;0;0;0;0;0;0;0;0;0;0;0;0;0.717647;0.803922;0.0313725;0;0;0;0;0;0;0;0;0;0;0;0;0;0;0;0;0;0;0;0;0;0;0;0;0.105882;0.862745;0.168627;0;0;0;0;0;0;0;0;0;0;0;0;0;0;0;0;0;0;0;0;0;0;0;0;0;0.721569;0.4;0;0;0;0;0;0;0;0;0;0;0;0;0;0;0;0;0;0;0;0;0;0;0;0;0;0;0;0;0;0;0;0;0;0;0;0;0;0;0;0;0;0;0;0;0;0;0;0;0;0;0;0;0;0;0;0;0;0;0;0;0;0;0;0;0;0;0;0;0;0;0;0;0;0;0;0;0;0;0;0;0;0;0;0;0;0;0;0;0;0;0;0;0;0;0;0;0;0;0;0;0;0
0;0;0;0;0;0;0;0;0;0;0;0;0;0;0;0;0;0;0;0;0;0;0;0;0;0;0;0;0;0;0;0;0;0;0;0;0;0;0;0;0;0;0;0;0;0;0;0;0;0;0;0;0;0;0;0;0;0;0;0;0;0;0;0;0;0;0;0;0;0;0;0;0;0;0;0;0;0;0;0;0;0;0;0;0;0;0;0;0;0;0;0;0;0;0;0;0;0;0;0.678431;1;0.254902;0;0;0;0;0;0;0;0;0;0;0;0;0;0;0;0;0;0;0;0;0;0;0;0;0;0.67451;0.992157;0.709804;0;0;0;0;0;0;0;0;0;0;0;0;0;0;0;0;0;0;0;0;0;0;0;0;0;0.67451;0.992157;0.894118;0;0;0;0;0;0;0;0;0;0;0;0;0;0;0;0;0;0;0;0;0;0;0;0;0.254902;0.921569;0.992157;0.894118;0;0;0;0;0;0;0;0;0;0;0;0;0;0;0;0;0;0;0;0;0;0;0;0;0.32549;0.992157;0.992157;0.580392;0;0;0;0;0;0;0;0;0;0;0;0;0;0;0;0;0;0;0;0;0;0;0;0;0.32549;0.992157;0.992157;0.254902;0;0;0;0;0;0;0;0;0;0;0;0;0;0;0;0;0;0;0;0;0;0;0;0;0.678431;0.992157;0.992157;0.254902;0;0;0;0;0;0;0;0;0;0;0;0;0;0;0;0;0;0;0;0;0;0;0;0.556863;0.988235;0.992157;0.992157;0.254902;0;0;0;0;0;0;0;0;0;0;0;0;0;0;0;0;0;0;0;0;0;0;0;0.611765;0.992157;0.992157;0.992157;0.254902;0;0;0;0;0;0;0;0;0;0;0;0;0;0;0;0;0;0;0;0;0;0;0;0.611765;0.992157;0.992157;0.992157;0.254902;0;0;0;0;0;0;0;0;0;0;0;0;0;0;0;0;0;0;0;0;0;0;0;0.611765;0.992157;0.992157;0.992157;0.254902;0;0;0;0;0;0;0;0;0;0;0;0;0;0;0;0;0;0;0;0;0;0;0.101961;0.760784;0.992157;0.992157;0.839216;0.156863;0;0;0;0;0;0;0;0;0;0;0;0;0;0;0;0;0;0;0;0;0;0;0.258824;0.992157;0.992157;0.988235;0.545098;0;0;0;0;0;0;0;0;0;0;0;0;0;0;0;0;0;0;0;0;0;0;0;0.258824;0.992157;0.992157;0.960784;0;0;0;0;0;0;0;0;0;0;0;0;0;0;0;0;0;0;0;0;0;0;0;0.0901961;0.796078;0.992157;0.992157;0.960784;0;0;0;0;0;0;0;0;0;0;0;0;0;0;0;0;0;0;0;0;0;0;0;0.545098;0.992157;0.992157;0.992157;0.960784;0;0;0;0;0;0;0;0;0;0;0;0;0;0;0;0;0;0;0;0;0;0;0;0.545098;0.992157;0.992157;0.992157;0.980392;0.396078;0;0;0;0;0;0;0;0;0;0;0;0;0;0;0;0;0;0;0;0;0;0;0.545098;0.992157;0.992157;0.992157;0.580392;0;0;0;0;0;0;0;0;0;0;0;0;0;0;0;0;0;0;0;0;0;0;0;0.545098;0.992157;0.992157;0.992157;0.317647;0;0;0;0;0;0;0;0;0;0;0;0;0;0;0;0;0;0;0;0;0;0;0;0.545098;0.992157;0.992157;0.992157;0.317647;0;0;0;0;0;0;0;0;0;0;0;0;0;0;0;0;0;0;0;0;0;0;0;0;0;0;0;0;0;0;0;0;0;0;0;0;0;0;0;0;0;0;0;0;0;0;0;0;0;0;0;0;0;0;0;0;0;0;0;0;0;0;0;0;0;0;0;0;0;0;0;0;0;0;0;0;0;0;0;0;0;0;0;0;0;0;0;0;0;0;0;0;0;0;0;0;0;0;0;0;0;0;0;0;0;0;0;0;0;0;0;0;0;0;0;0;0;0;0;0;0;0;0;0;0;0;0;0;0;0;0;0;0;0;0;0;0;0;0;0;0;0;0;0;0;0;0;0;0;0;0;0
0;0;0;0;0;0;0;0;0;0;0;0;0;0;0;0;0;0;0;0;0;0;0;0;0;0;0;0;0;0;0;0;0;0;0;0;0;0;0;0;0;0;0;0;0;0;0;0;0;0;0;0;0;0;0;0;0;0;0;0;0;0;0;0;0;0;0;0;0;0;0;0;0;0;0;0;0;0;0;0;0;0;0;0;0;0;0;0;0;0;0;0;0;0;0;0;0;0;0;0;0;0;0;0;0;0;0;0;0;0;0;0;0;0;0;0;0;0;0;0;0;1;0.992157;0.560784;0.501961;0.682353;0.247059;0;0;0;0;0;0;0;0;0;0;0;0;0;0;0;0;0;0;0;0;0;0;0.658824;0.764706;0.988235;0.988235;0.988235;0.945098;0.584314;0;0;0;0;0;0;0;0;0;0;0;0;0;0;0;0;0;0;0;0;0;0;0.0745098;0.341176;0.890196;0.764706;0.992157;0.913725;0.294118;0;0;0;0;0;0;0;0;0;0;0;0;0;0;0;0;0;0;0;0;0;0;0;0.184314;0;0.929412;0.988235;0.913725;0.219608;0;0;0;0;0;0;0;0;0;0;0;0;0;0;0;0;0;0;0;0;0;0;0;0;0.196078;0.929412;0.988235;0.329412;0;0;0;0;0;0;0;0;0;0;0;0;0;0;0;0;0;0;0;0;0;0;0;0;0;0.639216;0.992157;0.572549;0;0;0;0;0;0;0;0;0;0;0;0;0;0;0;0;0;0;0;0;0;0;0;0;0;0.333333;0.988235;0.87451;0;0;0;0;0;0;0;0;0;0;0;0;0;0;0;0;0;0;0;0;0;0;0;0;0;0.333333;0.988235;0.87451;0;0;0;0;0;0;0;0;0;0;0;0;0;0;0;0;0;0;0;0;0;0;0;0;0;0.396078;0.988235;0.815686;0;0;0;0;0;0;0;0;0;0;0;0;0;0;0;0;0;0;0;0;0;0;0.0627451;0.247059;0;0.882353;0.988235;0.329412;0;0;0;0;0;0;0;0;0;0;0;0;0;0;0;0;0;0;0;0.447059;0.623529;0.992157;0.992157;0.992157;1;0.992157;0.992157;0.329412;0;0;0;0;0;0;0;0;0;0;0;0;0;0;0;0;0;0.286275;0.882353;0.992157;0.988235;0.988235;0.94902;0.839216;0.992157;0.988235;0.988235;0.545098;0.14902;0;0;0;0;0;0;0;0;0;0;0;0;0;0;0;0.298039;0.917647;0.988235;0.768627;0.580392;0.215686;0.192157;0.247059;0.992157;0.988235;0.988235;0.988235;0.866667;0.12549;0;0;0;0;0;0;0;0;0;0;0;0;0;0.223529;0.917647;0.913725;0.329412;0;0;0;0.0745098;0.843137;0.992157;0.701961;0.45098;0.94902;0.988235;0.847059;0.133333;0;0;0;0;0;0;0;0;0;0;0;0;0.333333;0.988235;0.568627;0;0;0;0;0.419608;0.988235;0.439216;0.0470588;0;0.662745;0.988235;0.992157;0.654902;0;0;0;0;0;0;0;0;0;0;0;0;0;0.776471;0.329412;0;0;0.14902;0.564706;0.941176;0.54902;0;0;0;0;0.309804;1;0.807843;0.0980392;0;0;0;0;0;0;0;0;0;0;0;0;0.207843;0.439216;0.333333;0.333333;0.858824;0.988235;0.690196;0;0;0;0;0;0;0.992157;0.988235;0.705882;0;0;0;0;0;0;0;0;0;0;0;0;0;0.145098;0.215686;0.219608;0.215686;0.215686;0.0745098;0;0;0;0;0;0;0.560784;0.988235;0.937255;0.258824;0;0;0;0;0;0;0;0;0;0;0;0;0;0;0;0;0;0;0;0;0;0;0;0;0.396078;0.976471;0.988235;0.329412;0;0;0;0;0;0;0;0;0;0;0;0;0;0;0;0;0;0;0;0;0;0;0;0;0;0.882353;0.988235;0.329412;0;0;0;0;0;0;0;0;0;0;0;0;0;0;0;0;0;0;0;0;0;0;0;0;0;0;0;0;0;0;0;0;0;0;0;0;0;0;0;0;0;0;0;0;0;0;0;0;0;0;0;0;0;0;0;0;0;0;0;0;0;0;0;0;0;0;0;0;0;0;0;0;0;0;0;0;0;0;0;0;0;0;0;0;0;0;0;0;0;0;0;0;0;0;0;0;0;0;0;0;0;0;0;0;0;0;0;0;0;0;0;0;0;0;0;0;0
0;0;0;0;0;0;0;0;0;0;0;0;0;0;0;0;0;0;0;0;0;0;0;0;0;0;0;0;0;0;0;0;0;0;0;0;0;0;0;0;0;0;0;0;0;0;0;0;0;0;0;0;0;0;0;0;0;0;0;0;0;0;0;0;0;0;0;0;0;0;0;0;0;0;0;0;0;0;0;0;0;0;0;0;0;0;0;0;0;0;0;0;0;0;0;0;0;0;0;0;0;0;0;0;0;0;0;0;0;0;0;0;0;0;0;0;0;0;0;0;0;0;0;0;0;0;0;0;0;0;0;0;0;0;0;0;0;0;0;0;0;0;0;0;0;0;0;0;0;0;0;0;0;0;0;0;0;0;0;0.0431373;0.341176;0.541176;0.541176;0.345098;0;0;0;0;0;0;0;0;0;0;0;0;0;0;0;0;0.0509804;0.54902;0.0588235;0;0;0;0.317647;0.796078;0.992157;0.988235;0.988235;0.858824;0.223529;0;0;0;0;0;0;0;0;0;0;0;0;0;0;0.0509804;0.67451;0.988235;0.619608;0;0;0.32549;0.941176;0.988235;0.992157;0.988235;0.988235;0.988235;0.988235;0;0;0;0;0;0;0;0;0;0;0;0;0;0.0352941;0.682353;0.988235;0.988235;0.376471;0;0.317647;0.941176;0.988235;0.988235;0.992157;0.921569;0.627451;0.760784;0.988235;0;0;0;0;0;0;0;0;0;0;0;0;0;0.709804;0.988235;0.988235;0.988235;0.0862745;0.498039;0.956863;0.988235;0.988235;0.988235;0.705882;0.0705882;0;0.364706;0.988235;0;0;0;0;0;0;0;0;0;0;0;0;0.290196;1;0.992157;0.968627;0.368627;0.290196;1;0.992157;0.992157;0.960784;0.286275;0;0;0.14902;0.913725;0.992157;0;0;0;0;0;0;0;0;0;0;0;0.235294;0.956863;0.992157;0.988235;0.717647;0.0666667;0.917647;0.992157;0.988235;0.988235;0.341176;0;0;0;0.556863;0.988235;0.988235;0;0;0;0;0;0;0;0;0;0;0;0.690196;0.988235;0.992157;0.941176;0.317647;0.690196;0.988235;0.992157;0.941176;0.392157;0.0509804;0;0;0.258824;0.917647;0.988235;0.658824;0;0;0;0;0;0;0;0;0;0;0.392157;0.956863;0.988235;0.992157;0.439216;0;0.811765;0.988235;0.992157;0.643137;0;0;0;0.243137;0.92549;0.988235;0.988235;0.376471;0;0;0;0;0;0;0;0;0;0.0862745;0.843137;0.988235;0.988235;0.909804;0.0313725;0;0.811765;0.988235;0.952941;0.196078;0;0;0.207843;0.952941;0.988235;0.988235;0.658824;0.00784314;0;0;0;0;0;0;0;0;0.0117647;0.462745;0.992157;0.992157;0.992157;0.207843;0;0;0.815686;0.992157;0.913725;0.0941176;0.0941176;0.462745;0.952941;1;0.992157;0.803922;0.0823529;0;0;0;0;0;0;0;0;0;0.0941176;0.988235;0.988235;0.988235;0.905882;0;0;0;0.729412;0.988235;0.992157;0.988235;0.988235;0.988235;0.988235;0.976471;0.72549;0.0980392;0;0;0;0;0;0;0;0;0;0;0.423529;0.988235;0.988235;0.890196;0.188235;0;0;0;0.266667;0.964706;0.992157;0.988235;0.988235;0.988235;0.866667;0.45098;0;0;0;0;0;0;0;0;0;0;0;0;0.913725;0.988235;0.988235;0.627451;0;0;0;0;0.133333;0.933333;0.992157;0.988235;0.988235;0.854902;0.345098;0;0;0;0;0;0;0;0;0;0;0;0;0;0.992157;0.988235;0.988235;0.627451;0;0;0.0862745;0.780392;0.933333;0.988235;0.992157;0.988235;0.658824;0.137255;0;0;0;0;0;0;0;0;0;0;0;0;0;0;0.74902;0.992157;0.992157;0.254902;0.0941176;0.584314;0.992157;0.992157;0.992157;0.992157;0.905882;0.372549;0;0;0;0;0;0;0;0;0;0;0;0;0;0;0;0;0.541176;0.988235;0.988235;0.988235;0.988235;0.992157;0.988235;0.988235;0.988235;0.823529;0.164706;0;0;0;0;0;0;0;0;0;0;0;0;0;0;0;0;0;0.215686;0.988235;0.988235;0.988235;0.988235;0.992157;0.988235;0.792157;0.34902;0.0235294;0;0;0;0;0;0;0;0;0;0;0;0;0;0;0;0;0;0;0.0196078;0.466667;0.890196;0.988235;0.658824;0.631373;0.341176;0.0509804;0;0;0;0;0;0;0;0;0;0;0;0;0;0;0;0;0;0;0;0;0;0;0.0666667;0.0862745;0.00784314;0;0;0;0;0;0;0;0;0;0;0;0;0;0;0;0;0;0;0;0;0;0;0;0;0;0;0;0;0;0;0;0;0;0;0;0;0;0;0;0;0;0;0;0;0;0;0;0;0;0;0;0;0;0;0;0;0;0;0;0;0;0;0;0;0;0;0;0;0;0;0;0;0;0;0;0;0;0;0;0;0;0;0;0;0;0;0;0;0;0;0;0;0;0;0;0;0;0;0;0;0;0
0;0;0;0;0;0;0;0;0;0;0;0;0;0;0;0;0;0;0;0;0;0;0;0;0;0;0;0;0;0;0;0;0;0;0;0;0;0;0;0;0;0;0;0;0;0;0;0;0;0;0;0;0;0;0;0;0;0;0;0;0;0;0;0;0;0;0;0;0;0;0;0;0;0;0;0;0;0;0;0;0;0;0;0;0;0;0;0;0;0;0;0;0;0;0;0;0;0;0;0;0;0;0;0;0;0;0;0;0;0;0;0;0;0;0;0;0;0;0;0;0;0;0;0;0.0313725;0.219608;0.384314;0.572549;0.690196;0.737255;0.92549;0.054902;0;0;0;0;0;0;0;0;0;0;0;0;0;0;0;0;0;0;0;0;0.619608;0.992157;0.862745;0.839216;0.839216;0.839216;0.505882;0.0196078;0;0;0;0;0;0;0;0;0;0;0;0;0;0;0;0;0;0;0;0;0.686275;0.956863;0.117647;0;0;0;0;0;0;0;0;0;0;0;0;0;0;0;0;0;0;0;0;0;0;0;0;0;0.686275;0.839216;0;0;0;0;0;0;0;0;0;0;0;0;0;0;0;0;0;0;0;0;0;0;0;0;0;0.239216;1;0.419608;0;0;0;0;0;0;0;0;0;0;0;0;0;0;0;0;0;0;0;0;0;0;0;0;0;0.611765;0.996078;0.490196;0.462745;0.27451;0;0;0;0;0;0;0;0;0;0;0;0;0;0;0;0;0;0;0;0;0;0;0.054902;0.890196;0.996078;0.992157;0.992157;0.992157;0.701961;0.054902;0;0;0;0;0;0;0;0;0;0;0;0;0;0;0;0;0;0;0;0;0.513725;0.992157;0.780392;0.403922;0.0745098;0.168627;0.901961;0.839216;0.0470588;0;0;0;0;0;0;0;0;0;0;0;0;0;0;0;0;0;0;0;0.403922;0.729412;0.0980392;0;0;0;0.168627;0.976471;0.576471;0;0;0;0;0;0;0;0;0;0;0;0;0;0;0;0;0;0;0;0;0;0;0;0;0;0;0.486275;0.866667;0.0823529;0;0;0;0;0;0;0;0;0;0;0;0;0;0;0;0;0;0;0;0;0;0;0;0;0;0.156863;0.992157;0.454902;0;0;0;0;0;0;0;0;0;0;0;0;0;0;0;0;0;0;0;0;0;0;0;0;0;0.0117647;0.85098;0.686275;0;0;0;0;0;0;0;0;0;0;0;0;0;0;0;0;0;0;0;0;0;0;0;0;0;0;0.537255;0.901961;0;0;0;0;0;0;0;0;0;0;0;0;0;0;0;0.0509804;0.0980392;0;0;0;0;0;0;0;0;0;0.533333;0.992157;0;0;0;0;0;0;0;0;0;0;0;0;0;0;0;0.309804;0.611765;0;0;0;0;0;0;0;0;0;0.533333;0.992157;0;0;0;0;0;0;0;0;0;0;0;0;0;0;0;0.309804;0.8;0;0;0;0;0;0;0;0;0.0509804;0.866667;0.898039;0;0;0;0;0;0;0;0;0;0;0;0;0;0;0;0.286275;0.972549;0.278431;0;0;0;0;0;0;0.00784314;0.501961;0.996078;0.568627;0;0;0;0;0;0;0;0;0;0;0;0;0;0;0;0;0.615686;0.886275;0.439216;0.0588235;0;0;0;0.0980392;0.501961;0.992157;0.839216;0.109804;0;0;0;0;0;0;0;0;0;0;0;0;0;0;0;0;0.0588235;0.52549;0.956863;0.898039;0.819608;0.533333;0.701961;0.933333;0.996078;0.839216;0.211765;0;0;0;0;0;0;0;0;0;0;0;0;0;0;0;0;0;0;0;0.0627451;0.360784;0.686275;0.780392;0.780392;0.686275;0.454902;0.0431373;0;0;0;0;0;0;0;0;0;0;0;0;0;0;0;0;0;0;0;0;0;0;0;0;0;0;0;0;0;0;0;0;0;0;0;0;0;0;0;0;0;0;0;0;0;0;0;0;0;0;0;0;0;0;0;0;0;0;0;0;0;0;0;0;0;0;0;0;0;0;0;0;0;0;0;0;0;0;0;0;0;0;0;0;0;0;0;0;0;0;0;0;0;0;0;0;0;0;0;0;0;0;0;0;0;0;0;0;0;0;0;0;0;0;0;0;0;0;0;0;0;0
0;0;0;0;0;0;0;0;0;0;0;0;0;0;0;0;0;0;0;0;0;0;0;0;0;0;0;0;0;0;0;0;0;0;0;0;0;0;0;0;0;0;0;0;0;0;0;0;0;0;0;0;0;0;0;0;0;0;0;0;0;0;0;0;0;0;0;0;0;0;0;0;0;0;0;0;0;0;0;0;0;0;0;0;0;0;0;0;0;0;0;0;0;0;0;0;0;0;0;0;0;0;0;0;0;0;0;0;0;0;0;0;0;0;0;0;0;0;0;0;0;0;0;0;0;0;0;0;0;0;0;0;0;0;0;0;0;0;0;0;0;0;0;0;0;0;0;0;0;0;0;0;0;0;0;0;0;0;0;0;0;0;0;0;0;0;0;0;0;0;0;0;0;0;0;0;0;0;0;0;0;0.172549;0.0509804;0.113725;0.0470588;0.517647;0.701961;0.188235;0;0;0;0;0;0;0;0;0;0;0;0;0;0;0;0;0;0;0;0;0.352941;0.945098;0.988235;0.988235;0.988235;0.996078;0.996078;0.992157;0.847059;0.741176;0.309804;0.0941176;0;0;0;0;0;0;0;0;0;0;0;0;0;0;0.25098;0.933333;0.984314;0.996078;0.996078;0.996078;0.956863;0.905882;0.835294;0.996078;0.996078;0.996078;0.996078;0.631373;0;0;0;0;0;0;0;0;0;0;0;0;0;0;0.576471;0.996078;0.941176;0.435294;0.215686;0.0509804;0.0431373;0.0352941;0.0235294;0.0784314;0.635294;0.996078;0.996078;0.54902;0;0;0;0;0;0;0;0;0;0;0;0;0;0;0.894118;0.662745;0.207843;0;0;0;0;0;0;0;0.498039;0.996078;0.890196;0.12549;0;0;0;0;0;0;0;0;0;0;0;0;0;0;0.192157;0.0392157;0;0;0;0;0;0;0.027451;0.639216;0.976471;0.886275;0.14902;0;0;0;0;0;0;0;0;0;0;0;0;0;0;0;0;0;0;0;0;0;0;0.145098;0.721569;0.996078;0.886275;0.152941;0;0;0;0;0;0;0;0;0;0;0;0;0;0;0;0;0;0;0;0;0;0;0.145098;0.866667;0.996078;0.666667;0.0705882;0;0;0;0;0;0;0;0;0;0;0;0;0;0;0;0;0;0;0;0;0;0;0.0941176;0.686275;0.996078;0.666667;0.0313725;0;0;0;0;0;0;0;0;0;0;0;0;0;0;0;0;0;0;0;0;0;0;0.376471;0.921569;0.976471;0.513725;0.0352941;0;0;0;0;0;0;0;0;0;0;0;0;0;0;0;0;0;0;0;0;0;0.0313725;0.396078;0.972549;0.996078;0.694118;0;0;0;0;0;0;0;0;0;0;0;0;0;0;0;0;0;0;0;0;0;0;0.0313725;0.541176;0.996078;0.976471;0.52549;0.0980392;0;0;0;0;0;0;0;0;0;0;0;0;0;0;0;0;0;0;0;0;0;0.0313725;0.658824;0.996078;0.996078;0.403922;0;0;0;0;0;0;0;0;0;0;0;0;0;0;0;0;0;0;0;0;0;0;0.027451;0.662745;0.996078;0.941176;0.427451;0.0352941;0;0;0;0;0;0;0;0;0;0;0;0;0;0;0;0;0;0;0;0;0;0.0235294;0.662745;0.996078;0.996078;0.427451;0;0;0;0;0;0;0;0;0;0;0;0;0;0;0;0;0;0;0;0;0;0;0;0.54902;0.996078;0.980392;0.662745;0.0313725;0;0;0;0;0;0;0;0;0;0;0;0;0;0;0;0;0;0;0;0;0;0;0.345098;0.984314;0.996078;0.498039;0;0;0;0;0;0;0;0;0;0;0;0;0;0;0;0;0;0;0;0;0;0;0;0.129412;0.882353;0.996078;0.690196;0.0235294;0;0;0;0;0;0;0;0;0;0;0;0;0;0;0;0;0;0;0;0;0;0;0;0.65098;0.996078;0.996078;0.184314;0.0196078;0.00392157;0;0;0;0;0;0;0;0;0;0;0;0;0;0;0;0;0;0;0;0;0;0;0.984314;0.996078;0.996078;0.996078;0.996078;0.709804;0.678431;0.678431;0.392157;0.341176;0.0627451;0;0;0;0;0;0;0;0;0;0;0;0;0;0;0;0;0;0;0;0;0;0;0;0;0;0;0;0;0;0;0;0;0;0;0;0;0;0;0;0;0;0;0;0;0;0;0;0;0;0;0;0;0;0;0;0;0;0;0;0;0;0;0;0;0;0;0
