0;0;0;0;0;0;0;0;0;0;0;0;0;0;0;0;0;0;0;0;0;0;0;0;0;0;0;0;0;0;0;0;0;0;0;0;0;0;0;0;0;0;0;0;0;0;0;0;0;0;0;0;0;0;0;0;0;0;0;0;0;0;0;0;0;0;0;0;0;0;0;0;0;0;0;0;0;0;0;0;0;0;0;0;0;0;0;0;0;0;0;0;0;0;0;0;0;0;0;0;0;0;0;0;0;0;0;0;0;0;0;0;0;0;0;0;0;0;0;0;0;0;0;0;0;0;0;0;0;0;0;0;0;0;0;0;0;0;0;0;0;0;0;0;0;0;0;0;0;0;0;0;0;0;0;0;0;0;0;0;0;0;0;0;0;0;0;0;0;0;0;0;0;0;0;0;0;0;0;0;0;0.0745098;0.415686;0.847059;1;1;0.776471;0.235294;0;0;0;0;0;0;0;0;0;0;0;0;0;0;0;0;0;0;0;0.00392157;0.341176;0.929412;0.996078;0.996078;0.996078;0.996078;0.996078;0.972549;0.203922;0;0;0;0;0;0;0;0;0;0;0;0;0;0;0;0;0;0;0.211765;0.996078;0.996078;0.996078;0.835294;0.301961;0.67451;0.996078;0.996078;0.596078;0;0;0;0;0;0;0;0;0;0;0;0;0;0;0;0;0;0.207843;0.92549;0.996078;0.972549;0.403922;0.137255;0;0.054902;0.662745;0.996078;0.972549;0.317647;0;0;0;0;0;0;0;0;0;0;0;0;0;0;0;0.0588235;0.898039;0.996078;0.980392;0.372549;0;0;0;0;0.352941;0.996078;0.996078;0.501961;0;0;0;0;0;0;0;0;0;0;0;0;0;0;0;0.721569;0.996078;0.996078;0.54902;0;0;0;0;0;0.443137;0.996078;0.996078;0.415686;0;0;0;0;0;0;0;0;0;0;0;0;0;0;0.129412;0.952941;0.996078;0.866667;0.0117647;0;0.00784314;0.00392157;0;0.101961;0.87451;0.996078;0.952941;0.12549;0;0;0;0;0;0;0;0;0;0;0;0;0;0;0.505882;0.996078;0.996078;0.12549;0;0;0.458824;0.678431;0.180392;0.666667;0.996078;0.996078;0.647059;0;0;0;0;0;0;0;0;0;0;0;0;0;0;0;0.745098;0.996078;0.780392;0.00784314;0;0;0.141176;0.976471;0.996078;0.996078;0.996078;0.984314;0.290196;0;0;0;0;0;0;0;0;0;0;0;0;0;0;0;0.823529;0.996078;0.709804;0;0;0;0;0.439216;0.996078;0.996078;0.996078;0.611765;0;0;0;0;0;0;0;0;0;0;0;0;0;0;0;0;0.823529;0.996078;0.858824;0.0156863;0;0.0901961;0.360784;0.721569;0.996078;0.996078;0.976471;0.137255;0;0;0;0;0;0;0;0;0;0;0;0;0;0;0;0;0.462745;0.996078;0.996078;0.886275;0.588235;0.933333;0.996078;0.996078;0.996078;0.996078;0.6;0;0;0;0;0;0;0;0;0;0;0;0;0;0;0;0;0;0.0117647;0.784314;0.996078;0.996078;0.996078;0.996078;0.996078;0.996078;0.996078;0.807843;0.027451;0;0;0;0;0;0;0;0;0;0;0;0;0;0;0;0;0;0;0.00784314;0.309804;0.635294;0.647059;0.45098;0.929412;0.996078;0.988235;0.372549;0;0;0;0;0;0;0;0;0;0;0;0;0;0;0;0;0;0;0;0;0;0;0;0.137255;0.996078;0.996078;0.713725;0;0;0;0;0;0;0;0;0;0;0;0;0;0;0;0;0;0;0;0;0;0;0;0.0117647;0.6;0.996078;0.996078;0.388235;0;0;0;0;0;0;0;0;0;0;0;0;0;0;0;0;0;0;0;0;0;0;0;0.278431;0.996078;0.996078;0.894118;0.054902;0;0;0;0;0;0;0;0;0;0;0;0;0;0;0;0;0;0;0;0;0;0;0.0156863;0.952941;0.996078;0.960784;0.313725;0;0;0;0;0;0;0;0;0;0;0;0;0;0;0;0;0;0;0;0;0;0;0;0.305882;0.996078;0.996078;0.466667;0;0;0;0;0;0;0;0;0;0;0;0;0;0;0;0;0;0;0;0;0;0;0;0;0.129412;0.8;0.788235;0.0117647;0;0;0;0;0;0;0;0;0;0;0;0;0;0;0;0;0;0;0;0;0;0;0;0;0;0;0;0;0;0;0;0;0;0;0;0;0;0;0;0;0;0;0;0;0;0;0;0;0;0;0;0;0;0;0;0;0;0;0;0;0;0;0;0;0;0;0;0;0
0;0;0;0;0;0;0;0;0;0;0;0;0;0;0;0;0;0;0;0;0;0;0;0;0;0;0;0;0;0;0;0;0;0;0;0;0;0;0;0;0;0;0;0;0;0;0;0;0;0;0;0;0;0;0;0;0;0;0;0;0;0;0;0;0;0;0;0;0;0;0;0;0;0;0;0;0;0;0;0;0;0;0;0;0;0;0;0;0;0;0;0;0;0;0;0;0;0;0;0;0;0;0;0;0;0;0;0;0;0;0;0;0;0;0;0;0;0;0;0;0;0;0;0;0;0.596078;0.835294;0.243137;0;0;0;0;0;0;0;0;0;0;0;0;0;0;0;0;0;0;0;0;0;0;0;0;0;0.596078;0.988235;0.556863;0;0;0;0;0;0;0;0;0;0;0;0;0;0;0;0;0;0;0;0;0;0;0;0;0;0.596078;0.992157;0.796078;0;0;0;0;0;0;0;0;0;0;0;0;0;0;0;0;0;0;0;0;0;0;0;0;0;0.596078;0.988235;0.635294;0;0;0;0;0;0;0;0;0;0;0;0;0;0;0;0;0;0;0;0;0;0;0;0;0;0.596078;0.992157;0.796078;0;0;0;0;0;0;0;0;0;0;0;0;0;0;0;0;0;0;0;0;0;0;0;0;0;0.596078;0.988235;0.796078;0;0;0;0;0;0;0;0;0;0;0;0;0;0;0;0;0;0;0;0;0;0;0;0;0;0.517647;0.992157;0.796078;0;0;0;0;0;0;0;0;0;0;0;0;0;0;0;0;0;0;0;0;0;0;0;0;0;0.360784;0.988235;0.87451;0.0784314;0;0;0;0;0;0;0;0;0;0;0;0;0;0;0;0;0;0;0;0;0;0;0;0;0.443137;0.992157;0.996078;0.196078;0;0;0;0;0;0;0;0;0;0;0;0;0;0;0;0;0;0;0;0;0;0;0;0;0.439216;0.988235;0.992157;0.196078;0;0;0;0;0;0;0;0;0;0;0;0;0;0;0;0;0;0;0;0;0;0;0;0;0.596078;0.992157;0.996078;0.196078;0;0;0;0;0;0;0;0;0;0;0;0;0;0;0;0;0;0;0;0;0;0;0;0;0.596078;0.988235;0.992157;0.196078;0;0;0;0;0;0;0;0;0;0;0;0;0;0;0;0;0;0;0;0;0;0;0;0;0.596078;0.992157;0.996078;0.196078;0;0;0;0;0;0;0;0;0;0;0;0;0;0;0;0;0;0;0;0;0;0;0;0;0.596078;0.988235;0.992157;0.196078;0;0;0;0;0;0;0;0;0;0;0;0;0;0;0;0;0;0;0;0;0;0;0;0;0.360784;0.992157;0.996078;0.439216;0;0;0;0;0;0;0;0;0;0;0;0;0;0;0;0;0;0;0;0;0;0;0;0;0.2;0.988235;0.992157;0.435294;0;0;0;0;0;0;0;0;0;0;0;0;0;0;0;0;0;0;0;0;0;0;0;0;0.2;0.992157;1;0.196078;0;0;0;0;0;0;0;0;0;0;0;0;0;0;0;0;0;0;0;0;0;0;0;0;0.2;0.988235;0.992157;0.196078;0;0;0;0;0;0;0;0;0;0;0;0;0;0;0;0;0;0;0;0;0;0;0;0;0.360784;0.992157;1;0.196078;0;0;0;0;0;0;0;0;0;0;0;0;0;0;0;0;0;0;0;0;0;0;0;0;0.121569;0.909804;0.835294;0.0392157;0;0;0;0;0;0;0;0;0;0;0;0;0;0;0;0;0;0;0;0;0;0;0;0;0;0;0;0;0;0;0;0;0;0;0;0;0;0;0;0;0;0;0;0;0;0;0;0;0;0;0;0;0;0;0;0;0;0;0;0;0;0;0;0;0;0;0;0;0;0;0;0;0;0;0;0;0;0;0;0;0;0;0;0;0;0;0;0;0;0;0;0;0;0;0;0;0;0;0;0;0;0;0;0;0;0;0;0;0;0;0;0;0;0;0;0;0;0;0;0;0;0;0
0;0;0;0;0;0;0;0;0;0;0;0;0;0;0;0;0;0;0;0;0;0;0;0;0;0;0;0;0;0;0;0;0;0;0;0;0;0;0;0;0;0;0;0;0;0;0;0;0;0;0;0;0;0;0;0;0;0;0;0;0;0;0;0;0;0;0;0;0;0;0;0;0;0;0;0;0;0;0;0;0;0;0;0;0;0;0;0;0;0;0;0;0;0;0;0;0;0;0;0;0;0;0;0;0;0;0;0;0;0;0;0;0;0;0;0;0;0;0.160784;0.588235;0.964706;1;0.996078;0.996078;0.996078;0.831373;0.839216;0.329412;0;0;0;0;0;0;0;0;0;0;0;0;0;0;0;0;0;0;0.866667;0.992157;0.992157;0.992157;0.992157;0.992157;0.992157;0.992157;0.992157;0.956863;0.341176;0;0;0;0;0;0;0;0;0;0;0;0;0;0;0;0;0;0.341176;0.992157;0.980392;0.85098;0.658824;0.447059;0.447059;0.694118;0.964706;0.992157;0.980392;0.282353;0;0;0;0;0;0;0;0;0;0;0;0;0;0;0;0;0.0392157;0.262745;0.235294;0;0;0;0;0;0.211765;0.847059;0.992157;0.631373;0;0;0;0;0;0;0;0;0;0;0;0;0;0;0;0;0;0;0;0;0;0;0;0;0;0.611765;0.992157;0.839216;0;0;0;0;0;0;0;0;0;0;0;0;0;0;0;0;0;0;0;0;0;0;0;0;0.388235;0.988235;0.992157;0.47451;0;0;0;0;0;0;0;0;0;0;0;0;0;0;0;0;0;0;0;0;0;0;0.00392157;0.145098;0.886275;0.992157;0.831373;0.0313725;0;0;0;0;0;0;0;0;0;0;0;0;0;0;0;0;0;0;0.227451;0.52549;0.65098;0.65098;0.658824;0.992157;0.992157;0.992157;0.647059;0;0;0;0;0;0;0;0;0;0;0;0;0;0;0;0;0;0;0.141176;0.94902;0.992157;0.992157;0.992157;0.992157;0.992157;0.992157;0.992157;0.796078;0.380392;0.0156863;0;0;0;0;0;0;0;0;0;0;0;0;0;0;0;0;0.329412;0.992157;0.992157;0.992157;0.992157;0.992157;0.992157;0.992157;0.992157;0.992157;0.992157;0.87451;0.0627451;0;0;0;0;0;0;0;0;0;0;0;0;0;0;0;0.0666667;0.772549;0.992157;0.992157;0.992157;0.666667;0.443137;0.607843;0.827451;0.992157;0.992157;0.992157;0.780392;0.129412;0;0;0;0;0;0;0;0;0;0;0;0;0;0;0;0.0117647;0.184314;0.0196078;0.0196078;0.00392157;0;0;0.0117647;0.160784;0.498039;0.992157;0.992157;0.392157;0;0;0;0;0;0;0;0;0;0;0;0;0;0;0;0;0;0;0;0;0;0;0;0;0.0823529;0.894118;0.992157;0.929412;0.25098;0;0;0;0;0;0;0;0;0;0;0;0;0;0;0;0;0;0;0;0;0;0;0;0;0.0431373;0.901961;0.992157;0.545098;0;0;0;0;0;0;0;0;0;0;0;0;0;0;0;0;0;0;0;0;0;0;0;0;0;0.894118;0.992157;0.545098;0;0;0;0;0;0;0;0;0;0;0;0;0;0;0.0117647;0.0823529;0.419608;0.0313725;0;0;0;0;0;0;0.184314;0.945098;0.992157;0.545098;0;0;0;0;0;0;0;0;0;0;0;0;0;0;0.490196;0.992157;0.992157;0.682353;0.266667;0.266667;0.266667;0.266667;0.266667;0.647059;0.901961;0.992157;0.992157;0.27451;0;0;0;0;0;0;0;0;0;0;0;0;0;0;0.545098;0.980392;0.992157;0.992157;0.992157;0.992157;0.992157;0.992157;0.992157;0.992157;0.992157;0.92549;0.439216;0.0196078;0;0;0;0;0;0;0;0;0;0;0;0;0;0;0;0.372549;0.87451;0.992157;0.992157;0.992157;0.992157;0.992157;0.992157;0.964706;0.643137;0.0392157;0;0;0;0;0;0;0;0;0;0;0;0;0;0;0;0;0;0;0.109804;0.686275;0.992157;0.992157;0.992157;0.92549;0.584314;0.34902;0;0;0;0;0;0;0;0;0;0;0;0;0;0;0;0;0;0;0;0;0;0;0;0;0;0;0;0;0;0;0;0;0;0;0;0;0;0;0;0;0;0;0;0;0;0;0;0;0;0;0;0;0;0;0;0;0;0;0;0;0;0;0;0;0;0;0;0;0;0;0;0;0;0;0;0;0;0;0;0;0;0;0;0;0;0;0;0;0;0;0;0;0;0;0;0;0;0;0;0;0;0;0;0;0;0;0;0;0;0;0;0;0;0;0;0;0;0;0;0;0;0
0;0;0;0;0;0;0;0;0;0;0;0;0;0;0;0;0;0;0;0;0;0;0;0;0;0;0;0;0;0;0;0;0;0;0;0;0;0;0;0;0;0;0;0;0;0;0;0;0;0;0;0;0;0;0;0;0;0;0;0;0;0;0;0;0;0;0;0;0;0;0;0;0;0;0;0;0;0;0;0;0;0;0;0;0;0;0;0;0;0;0;0;0;0;0;0;0;0;0;0;0;0;0;0;0;0;0;0;0;0;0;0;0;0;0;0;0;0;0;0;0;0;0;0;0;0;0;0;0;0;0;0;0;0;0;0;0;0;0;0;0;0;0;0;0;0;0;0;0;0;0;0;0;0;0;0;0;0;0;0;0;0;0;0;0;0;0;0;0;0;0;0;0;0;0;0;0;0;0;0;0;0;0;0;0;0;0;0;0;0;0;0;0;0;0;0;0;0;0;0;0;0;0;0.0901961;0.992157;0.992157;0.992157;0.992157;0.992157;0.992157;0.996078;0.992157;0.992157;0.541176;0.0470588;0;0;0;0;0;0;0;0;0;0;0;0;0;0;0;0;0.0901961;0.988235;0.988235;0.988235;0.988235;0.988235;0.988235;0.992157;0.988235;0.988235;0.988235;0.643137;0;0;0;0;0;0;0;0;0;0;0;0;0;0;0;0;0.0156863;0.454902;0.905882;0.819608;0.988235;0.988235;0.988235;0.992157;0.988235;0.988235;0.988235;0.772549;0;0;0;0;0;0;0;0;0;0;0;0;0;0;0;0;0;0;0.0313725;0.0235294;0.0392157;0.0392157;0.603922;0.956863;0.988235;0.988235;0.988235;0.772549;0;0;0;0;0;0;0;0;0;0;0;0;0;0;0;0;0;0;0;0;0;0;0;0.282353;0.988235;0.988235;0.988235;0.494118;0;0;0;0;0;0;0;0;0;0;0;0;0;0;0;0;0;0;0;0;0;0;0;0.133333;0.988235;0.988235;0.768627;0.0745098;0;0;0;0;0;0;0;0;0;0;0;0;0;0;0;0;0;0;0;0;0;0;0;0.341176;0.988235;0.988235;0.454902;0;0;0;0;0;0;0;0;0;0;0;0;0;0;0;0;0;0;0;0;0;0;0;0;0.560784;0.988235;0.988235;0.207843;0.176471;0.0392157;0;0;0;0;0;0;0;0;0;0;0;0;0;0;0;0;0;0;0.0156863;0.305882;0.305882;0.678431;0.882353;0.988235;0.988235;0.988235;0.988235;0.639216;0.027451;0;0;0;0;0;0;0;0;0;0;0;0;0;0;0;0;0;0.607843;0.988235;0.988235;0.988235;0.992157;0.988235;0.988235;0.988235;0.988235;0.988235;0.0823529;0;0;0;0;0;0;0;0;0;0;0;0;0;0;0;0;0;0.909804;0.992157;0.992157;0.992157;1;0.992157;0.886275;0.862745;0.862745;0.713725;0.0392157;0;0;0;0;0;0;0;0;0;0;0;0;0;0;0;0;0;0.482353;0.729412;0.411765;0.901961;0.992157;0.921569;0.12549;0;0;0;0;0;0;0;0;0;0;0;0;0;0;0;0;0;0;0;0;0;0;0;0.121569;0.913725;0.992157;0.372549;0;0;0;0;0;0;0;0;0;0;0;0;0;0;0;0;0;0;0;0;0;0;0;0;0.305882;0.988235;0.980392;0.27451;0;0;0;0;0;0;0;0;0;0;0;0;0;0;0;0;0;0;0;0;0;0;0;0;0.584314;0.988235;0.862745;0;0;0;0;0;0;0;0;0;0;0;0;0;0;0;0;0;0;0;0;0;0;0;0;0;0.733333;0.988235;0.862745;0;0;0;0;0;0;0;0;0;0;0;0;0;0;0;0;0;0;0;0;0;0;0;0;0;0.733333;0.988235;0.92549;0.145098;0;0;0;0;0;0;0;0;0;0;0;0;0;0;0;0;0;0;0;0;0;0;0;0;0.733333;0.988235;0.992157;0.301961;0;0;0;0;0;0;0;0;0;0;0;0;0;0;0;0;0;0;0;0;0;0;0;0;0.733333;0.988235;0.992157;0.301961;0;0;0;0;0;0;0;0;0;0;0;0;0;0;0;0;0;0;0;0;0;0;0;0;0.415686;0.745098;0.501961;0.0392157;0;0;0;0;0;0;0;0;0;0;0;0;0;0;0;0;0;0;0;0;0;0;0;0;0;0;0;0;0;0;0;0;0;0;0;0;0;0;0;0
0;0;0;0;0;0;0;0;0;0;0;0;0;0;0;0;0;0;0;0;0;0;0;0;0;0;0;0;0;0;0;0;0;0;0;0;0;0;0;0;0;0;0;0;0;0;0;0;0;0;0;0;0;0;0;0;0;0;0;0;0;0;0;0;0;0;0;0;0;0;0;0;0;0;0;0;0;0;0;0;0;0;0;0;0;0;0;0;0;0;0;0;0;0;0;0;0;0;0;0;0;0;0;0;0;0;0;0;0;0;0;0;0;0;0;0;0;0;0;0;0;0;0;0;0;0;0;0;0;0;0;0;0;0;0;0;0;0;0;0;0;0;0;0;0;0;0;0;0;0;0;0.0352941;0.364706;0.607843;0.607843;0.458824;0.917647;0.501961;0.196078;0;0;0;0;0;0;0;0;0;0;0;0;0;0;0;0;0;0;0;0.160784;0.831373;0.996078;0.996078;0.996078;0.996078;0.996078;0.996078;0.980392;0.427451;0.00392157;0;0;0;0;0;0;0;0;0;0;0;0;0;0;0;0;0;0.72549;0.996078;0.996078;0.847059;0.74902;0.996078;0.996078;0.996078;0.996078;0.996078;0.333333;0;0;0;0;0;0;0;0;0;0;0;0;0;0;0;0;0;0.72549;0.996078;0.490196;0.054902;0.00392157;0.137255;0.137255;0.243137;0.913725;0.996078;0.807843;0;0;0;0;0;0;0;0;0;0;0;0;0;0;0;0;0;0.72549;0.996078;0.235294;0;0;0;0;0;0.494118;0.996078;0.858824;0;0;0;0;0;0;0;0;0;0;0;0;0;0;0;0;0;0.72549;0.996078;0.235294;0;0;0;0;0;0.494118;0.996078;0.858824;0;0;0;0;0;0;0;0;0;0;0;0;0;0;0;0;0;0.72549;0.996078;0.643137;0.137255;0;0;0;0;0.360784;0.996078;0.858824;0;0;0;0;0;0;0;0;0;0;0;0;0;0;0;0;0;0.172549;0.905882;0.996078;0.811765;0.0941176;0;0;0.0470588;0.54902;0.996078;0.858824;0;0;0;0;0;0;0;0;0;0;0;0;0;0;0;0;0;0;0.407843;0.996078;0.996078;0.901961;0.517647;0.376471;0.698039;0.996078;0.996078;0.858824;0;0;0;0;0;0;0;0;0;0;0;0;0;0;0;0;0;0;0.00392157;0.164706;0.835294;0.996078;0.996078;0.996078;0.996078;0.996078;0.996078;0.784314;0;0;0;0;0;0;0;0;0;0;0;0;0;0;0;0;0;0;0;0;0.0392157;0.203922;0.584314;0.584314;0.478431;0.596078;0.996078;0.462745;0;0;0;0;0;0;0;0;0;0;0;0;0;0;0;0;0;0;0;0;0;0;0;0;0.0666667;0.909804;0.92549;0.0588235;0;0;0;0;0;0;0;0;0;0;0;0;0;0;0.054902;0.0431373;0;0;0;0;0;0;0;0.00392157;0.627451;0.996078;0.682353;0;0;0;0;0;0;0;0;0;0;0;0;0;0;0.172549;0.952941;0.901961;0.0666667;0;0;0;0;0;0;0.584314;0.996078;0.972549;0.345098;0;0;0;0;0;0;0;0;0;0;0;0;0;0;0.133333;0.933333;0.996078;0.0980392;0;0;0;0;0.00392157;0.443137;0.980392;0.972549;0.501961;0;0;0;0;0;0;0;0;0;0;0;0;0;0;0;0;0.584314;0.996078;0.376471;0;0;0;0;0.0235294;0.996078;0.996078;0.447059;0;0;0;0;0;0;0;0;0;0;0;0;0;0;0;0;0;0.266667;0.996078;0.913725;0.380392;0.470588;0.141176;0.215686;0.694118;0.996078;0.890196;0.027451;0;0;0;0;0;0;0;0;0;0;0;0;0;0;0;0;0;0.0823529;0.996078;0.996078;0.996078;0.996078;0.996078;0.996078;0.996078;0.996078;0.254902;0;0;0;0;0;0;0;0;0;0;0;0;0;0;0;0;0;0;0.0823529;0.996078;0.996078;0.996078;0.968627;0.819608;0.745098;0.431373;0.184314;0.00784314;0;0;0;0;0;0;0;0;0;0;0;0;0;0;0;0;0;0;0.0196078;0.329412;0.960784;0.709804;0.356863;0;0;0;0;0;0;0;0;0;0;0;0;0;0;0;0;0;0;0;0;0;0;0;0;0;0;0;0;0;0;0;0;0;0;0;0;0;0;0;0;0;0;0;0;0;0;0;0;0;0;0;0;0;0;0;0;0;0;0;0;0;0;0;0;0;0;0;0;0;0;0;0;0;0;0;0;0;0;0;0;0;0;0;0;0;0;0;0;0;0;0;0;0;0;0;0;0;0;0;0
0;0;0;0;0;0;0;0;0;0;0;0;0;0;0;0;0;0;0;0;0;0;0;0;0;0;0;0;0;0;0;0;0;0;0;0;0;0;0;0;0;0;0;0;0;0;0;0;0;0;0;0;0;0;0;0;0;0;0;0;0;0;0;0;0;0;0;0;0;0.776471;0.929412;0.196078;0;0;0;0;0;0;0;0;0;0;0;0;0;0;0;0;0;0;0;0;0;0;0;0;0.482353;0.964706;0.988235;0.439216;0;0;0;0;0;0;0;0;0;0;0;0;0;0;0;0;0;0;0;0;0;0;0;0.34902;0.964706;0.988235;0.901961;0.0980392;0;0;0;0;0;0;0;0;0;0;0;0;0;0;0;0;0;0;0;0;0;0;0.0627451;0.811765;0.988235;0.988235;0.815686;0;0;0;0;0;0;0;0;0;0;0;0;0;0;0;0;0;0;0;0;0;0;0.0627451;0.796078;0.992157;0.988235;0.862745;0.145098;0;0;0;0;0;0;0;0;0;0;0;0;0;0;0;0;0;0;0;0;0;0;0.113725;0.992157;1;0.992157;0.219608;0;0;0;0;0;0;0;0;0;0;0;0;0;0;0;0;0;0;0;0;0;0;0.0745098;0.709804;0.988235;0.992157;0.87451;0.145098;0;0;0;0;0;0;0;0;0;0;0;0;0;0;0;0;0;0;0;0;0;0;0.65098;0.988235;0.988235;0.992157;0.227451;0;0;0;0;0;0;0;0;0;0;0;0;0;0;0;0;0;0;0;0;0;0;0;0.772549;0.988235;0.988235;0.698039;0.0352941;0;0;0;0;0;0;0;0;0;0;0;0;0;0;0;0;0;0;0;0;0;0;0.188235;0.890196;0.988235;0.988235;0.54902;0;0;0;0;0;0;0;0;0;0;0;0;0;0;0;0;0;0;0;0;0;0;0;0.576471;0.992157;0.992157;0.992157;0;0;0;0;0;0;0;0;0;0;0;0;0;0;0;0;0;0;0;0;0;0;0;0.396078;0.976471;0.988235;0.988235;0.8;0;0;0;0;0;0;0;0;0;0.188235;0.576471;0.882353;0.756863;0.109804;0;0;0;0;0;0;0;0;0;0.443137;0.988235;0.988235;0.901961;0.0980392;0;0;0;0;0;0;0;0.176471;0.588235;0.890196;0.992157;0.988235;0.988235;0.756863;0;0;0;0;0;0;0;0;0;0.443137;0.988235;0.988235;0.87451;0;0;0;0;0;0;0.0509804;0.603922;0.917647;0.988235;0.988235;0.992157;0.988235;0.988235;0.87451;0;0;0;0;0;0;0;0;0;0.443137;0.988235;0.988235;0.937255;0.247059;0;0;0;0;0;0.74902;0.988235;0.988235;0.988235;0.988235;0.992157;0.988235;0.988235;0.87451;0;0;0;0;0;0;0;0;0;0;0.886275;0.992157;0.992157;0.992157;0.752941;0.443137;0.443137;0.501961;0.992157;1;0.992157;0.992157;0.992157;0.992157;1;0.992157;0.992157;0.635294;0;0;0;0;0;0;0;0;0;0;0.392157;0.988235;0.988235;0.988235;0.992157;0.988235;0.988235;0.988235;0.988235;0.992157;0.988235;0.988235;0.988235;0.988235;0.992157;0.87451;0.227451;0.0352941;0;0;0;0;0;0;0;0;0;0;0.0745098;0.694118;0.988235;0.988235;0.992157;0.988235;0.988235;0.988235;0.988235;0.992157;0.988235;0.988235;0.960784;0.764706;0.521569;0.145098;0;0;0;0;0;0;0;0;0;0;0;0;0;0.0745098;0.388235;0.87451;0.929412;0.988235;0.988235;0.988235;0.988235;0.992157;0.988235;0.901961;0.47451;0;0;0;0;0;0;0;0;0;0;0;0;0;0;0;0;0;0;0;0.196078;0.439216;0.866667;0.988235;0.988235;0.992157;0.498039;0.0980392;0;0;0;0;0;0;0;0;0;0;0;0;0;0;0;0;0;0;0;0;0;0;0;0;0;0;0;0;0;0;0;0;0;0;0;0;0;0;0;0;0;0;0;0;0;0;0;0;0;0;0;0;0;0;0;0;0;0;0;0;0;0;0;0;0;0;0;0;0;0;0;0;0;0;0;0;0;0;0;0;0;0;0;0;0;0;0;0;0;0;0;0;0;0;0;0;0;0;0;0;0;0;0;0;0;0;0;0;0;0;0;0;0;0;0;0;0;0;0;0;0;0;0;0;0;0;0;0;0;0;0;0;0;0;0;0;0;0;0;0;0;0;0;0;0;0;0;0;0;0;0;0;0;0;0;0;0;0;0;0;0;0;0;0;0;0;0;0;0;0;0;0;0;0;0;0;0
0;0;0;0;0;0;0;0;0;0;0;0;0;0;0;0;0;0;0;0;0;0;0;0;0;0;0;0;0;0;0;0;0;0;0;0;0;0;0;0;0;0;0;0;0;0;0;0;0;0;0;0;0;0;0;0;0;0;0;0;0;0;0;0;0;0;0;0;0;0;0;0;0;0;0;0;0;0;0;0;0;0;0;0;0;0;0;0;0;0;0;0;0;0;0;0;0;0;0;0;0;0;0;0;0;0;0;0;0;0;0;0;0;0;0;0;0;0;0;0;0;0;0;0;0;0;0;0;0;0;0;0;0;0;0;0;0;0;0;0;0;0;0;0;0;0;0;0;0;0;0;0;0;0;0;0;0;0;0;0;0;0;0;0;0;0;0;0;0;0;0;0;0;0;0;0;0;0;0;0;0;0;0;0;0;0;0;0;0;0;0;0;0;0;0;0;0;0;0;0;0;0;0;0;0;0;0;0;0;0;0;0;0;0;0;0;0;0;0;0;0;0;0;0;0;0;0;0;0.054902;0.588235;0.996078;0.996078;0.996078;0.996078;0.996078;0.996078;0.996078;0.403922;0.235294;0.231373;0.231373;0.231373;0.231373;0.705882;0.937255;0.160784;0;0;0;0;0;0;0;0;0;0;0.588235;0.992157;0.992157;0.992157;0.992157;0.992157;0.992157;0.992157;0.992157;0.992157;0.996078;0.992157;0.992157;0.992157;0.992157;0.992157;0.992157;0.827451;0.211765;0;0;0;0;0;0;0;0;0;0.996078;0.992157;0.992157;0.992157;0.992157;0.992157;0.992157;0.992157;0.992157;0.992157;0.996078;0.992157;0.992157;0.992157;0.992157;0.992157;0.992157;0.992157;0.827451;0.156863;0;0;0;0;0;0;0;0;0.996078;0.992157;0.992157;0.992157;0.992157;0.992157;0.992157;0.992157;0.992157;0.992157;0.843137;0.835294;0.945098;0.992157;0.992157;0.992157;0.992157;0.941176;0.423529;0.0156863;0;0;0;0;0;0;0;0;0.698039;0.992157;0.992157;0.631373;0.603922;0.603922;0.603922;0.603922;0.603922;0.603922;0;0;0.427451;0.964706;0.992157;0.992157;0.992157;0.682353;0;0;0;0;0;0;0;0;0;0;0.0901961;0.380392;0.380392;0.027451;0;0;0;0;0;0;0;0;0;0.921569;0.992157;0.992157;0.941176;0.262745;0;0;0;0;0;0;0;0;0;0;0;0;0;0;0;0;0;0;0;0;0;0;0.588235;0.980392;0.992157;0.992157;0.854902;0;0;0;0;0;0;0;0;0;0;0;0;0;0;0;0;0;0;0;0;0;0;0.145098;0.784314;0.992157;0.992157;0.8;0.101961;0;0;0;0;0;0;0;0;0;0;0;0;0;0;0;0;0;0;0;0;0;0.12549;0.74902;0.992157;0.992157;0.992157;0.380392;0;0;0;0;0;0;0;0;0;0;0;0;0;0;0;0;0;0;0;0;0;0;0.231373;0.992157;0.992157;0.992157;0.992157;0.380392;0;0;0;0;0;0;0;0;0;0;0;0;0;0;0;0;0;0;0;0;0;0;0.235294;0.996078;0.996078;0.996078;0.909804;0.294118;0;0;0;0;0;0;0;0;0;0;0;0;0;0;0;0;0;0;0;0;0;0;0.588235;0.992157;0.992157;0.992157;0.603922;0;0;0;0;0;0;0;0;0;0;0;0;0;0;0;0;0;0;0;0;0;0;0;0.996078;0.992157;0.992157;0.992157;0.603922;0;0;0;0;0;0;0;0;0;0;0;0;0;0;0;0;0;0;0;0;0;0;0.713725;0.996078;0.992157;0.992157;0.847059;0.0431373;0;0;0;0;0;0;0;0;0;0;0;0;0;0;0;0;0;0;0;0;0;0;0.768627;0.996078;0.992157;0.992157;0.537255;0;0;0;0;0;0;0;0;0;0;0;0;0;0;0;0;0;0;0;0;0;0;0;0.768627;1;0.992157;0.992157;0.0705882;0;0;0;0;0;0;0;0;0;0;0;0;0;0;0;0;0;0;0;0;0;0;0;0.768627;0.996078;0.992157;0.992157;0.0705882;0;0;0;0;0;0;0;0;0;0;0;0;0;0;0;0;0;0;0;0;0;0;0;0.529412;0.996078;0.992157;0.992157;0.0705882;0;0;0;0;0;0;0;0;0;0;0;0;0;0;0;0;0;0;0;0;0;0;0;0;0.996078;0.992157;0.992157;0.0705882;0;0;0;0;0;0;0;0;0;0;0;0;0;0;0;0;0;0;0;0;0;0;0;0;0.403922;0.992157;0.992157;0.0705882;0;0;0;0;0;0;0;0;0;0
0;0;0;0;0;0;0;0;0;0;0;0;0;0;0;0;0;0;0;0;0;0;0;0;0;0;0;0;0;0;0;0;0;0;0;0;0;0;0;0;0;0;0;0;0;0;0;0;0;0;0;0;0;0;0;0;0;0;0;0;0;0;0;0;0;0;0;0;0;0;0;0;0;0;0;0;0;0;0;0;0;0;0;0;0;0;0;0;0;0;0;0;0;0;0;0;0;0;0;0;0;0;0;0;0;0;0;0;0;0;0;0;0;0;0;0;0;0;0;0;0;0;0;0;0;0;0;0;0;0;0;0;0;0;0;0;0;0;0;0;0;0;0;0;0;0;0.380392;0.729412;0.0705882;0;0;0;0;0;0.0980392;0.760784;0.619608;0;0;0;0;0;0;0;0;0;0;0;0;0;0;0;0;0;0.788235;0.992157;0.305882;0;0;0;0;0;0.482353;0.992157;0.764706;0;0;0;0;0;0;0;0;0;0;0;0;0;0;0;0;0;0.996078;0.992157;0.423529;0;0;0;0;0;0.533333;0.992157;0.764706;0;0;0;0;0;0;0;0;0;0;0;0;0;0;0;0;0;0.639216;0.992157;0.682353;0;0;0;0;0;0.533333;0.992157;0.976471;0.141176;0;0;0;0;0;0;0;0;0;0;0;0;0;0;0;0;0.760784;0.992157;0.537255;0;0;0;0;0;0.533333;0.992157;0.905882;0.0941176;0;0;0;0;0;0;0;0;0;0;0;0;0;0;0;0;0.52549;0.996078;0.996078;0.309804;0;0;0;0;0.121569;0.941176;1;0.239216;0;0;0;0;0;0;0;0;0;0;0;0;0;0;0;0;0.215686;0.980392;0.992157;0.631373;0;0;0;0;0;0.764706;0.996078;0.529412;0;0;0;0;0;0;0;0;0;0;0;0;0;0;0;0;0;0.839216;0.992157;0.835294;0;0;0;0;0;0.764706;0.996078;0.796078;0;0;0;0;0;0;0;0;0;0;0;0;0;0;0;0;0;0.490196;0.992157;0.921569;0.533333;0.537255;0.533333;0.533333;0.329412;0.8;0.996078;0.92549;0.156863;0.156863;0.156863;0.156863;0.156863;0.27451;0.533333;0.185039;0;0;0;0;0;0;0;0;0;0.313725;0.992157;0.992157;0.992157;0.996078;0.992157;0.992157;0.992157;0.992157;0.996078;0.992157;0.992157;0.992157;0.992157;0.996078;0.992157;0.992157;0.992157;0.607843;0;0;0;0;0;0;0;0;0;0.0509804;0.878431;0.996078;0.996078;1;0.996078;0.996078;0.996078;0.996078;1;0.996078;0.996078;0.996078;0.996078;1;0.996078;0.996078;0.870588;0.176471;0;0;0;0;0;0;0;0;0;0.0117647;0.152941;0.152941;0.152941;0.152941;0.152941;0.152941;0.501961;0.854902;0.996078;0.984314;0.647059;0.529412;0.529412;0.533333;0.356863;0.152941;0.0705882;0;0;0;0;0;0;0;0;0;0;0;0;0;0;0;0;0;0;0.384314;0.996078;0.968627;0.211765;0;0;0;0;0;0;0;0;0;0;0;0;0;0;0;0;0;0;0;0;0;0;0;0;0.176471;0.996078;0.992157;0.505882;0;0;0;0;0;0;0;0;0;0;0;0;0;0;0;0;0;0;0;0;0;0;0;0;0;0.996078;0.992157;0.682353;0;0;0;0;0;0;0;0;0;0;0;0;0;0;0;0;0;0;0;0;0;0;0;0;0;0.760784;0.996078;0.756863;0.0196078;0;0;0;0;0;0;0;0;0;0;0;0;0;0;0;0;0;0;0;0;0;0;0;0;0.611765;0.992157;0.968627;0.0705882;0;0;0;0;0;0;0;0;0;0;0;0;0;0;0;0;0;0;0;0;0;0;0;0;0.34902;0.992157;0.898039;0.0509804;0;0;0;0;0;0;0;0;0;0;0;0;0;0;0;0;0;0;0;0;0;0;0;0;0.52549;0.992157;0.992157;0.0745098;0;0;0;0;0;0;0;0;0;0;0;0;0;0;0;0;0;0;0;0;0;0;0;0;0.231373;0.960784;0.494118;0.0196078;0;0;0;0;0;0;0;0;0;0;0;0;0;0;0;0;0;0;0;0;0;0;0;0;0;0;0;0;0;0;0;0;0;0;0;0;0;0;0;0;0;0;0;0;0;0;0;0;0;0;0;0;0;0;0;0;0;0;0;0;0;0;0;0;0;0;0;0;0;0;0;0;0;0;0;0;0;0;0;0;0;0;0;0;0;0;0;0;0;0;0;0
0;0;0;0;0;0;0;0;0;0;0;0;0;0;0;0;0;0;0;0;0;0;0;0;0;0;0;0;0;0;0;0;0;0;0;0;0;0;0;0;0;0;0;0;0;0;0;0;0;0;0;0;0;0;0;0;0;0;0;0;0;0;0;0;0;0;0;0;0;0;0;0;0;0;0;0;0;0;0;0;0;0;0;0;0;0;0;0;0;0;0;0;0.666667;0.992157;1;0.352941;0;0;0;0;0;0;0;0;0;0;0;0;0;0;0;0;0;0;0;0;0;0;0;0.0745098;0.768627;0.988235;0.992157;0.764706;0.0745098;0;0;0;0;0;0;0;0;0;0;0;0;0;0;0;0;0;0;0;0;0;0;0.0509804;0.733333;0.988235;0.992157;0.988235;0.341176;0;0;0;0;0;0;0;0;0;0;0;0;0;0;0;0;0;0;0;0;0;0;0;0.282353;0.87451;0.992157;0.988235;0.462745;0;0;0;0;0;0;0;0;0;0;0;0;0;0;0;0;0;0;0;0;0;0;0;0;0.309804;0.992157;0.988235;0.764706;0;0;0;0;0;0;0;0;0;0;0;0;0;0;0;0;0;0;0;0;0;0;0;0.0509804;0.74902;1;0.992157;0.768627;0;0;0;0;0;0;0;0;0;0;0;0;0;0;0;0;0;0;0;0;0;0;0;0.113725;0.988235;0.992157;0.988235;0.27451;0;0;0;0;0.188235;0;0;0;0;0;0;0;0;0;0;0;0;0;0;0;0;0;0;0.113725;0.988235;0.992157;0.988235;0.392157;0.588235;0.772549;0.776471;0.772549;0.890196;0.709804;0.0980392;0;0;0;0;0;0;0;0;0;0;0;0;0;0;0;0;0.113725;0.988235;0.992157;0.988235;0.988235;0.988235;0.988235;0.992157;0.988235;0.988235;0.988235;0.803922;0.372549;0;0;0;0;0;0;0;0;0;0;0;0;0;0;0;0.113725;0.988235;0.992157;0.988235;0.988235;0.988235;0.988235;0.992157;0.988235;0.988235;0.988235;0.988235;0.796078;0.0588235;0;0;0;0;0;0;0;0;0;0;0;0;0;0;0.113725;0.992157;1;0.992157;0.992157;0.992157;0.745098;0.552941;0.945098;0.992157;0.992157;0.992157;1;0.807843;0.0980392;0;0;0;0;0;0;0;0;0;0;0;0;0;0.113725;0.988235;0.992157;0.988235;0.988235;0.4;0.0470588;0;0.0941176;0.105882;0.509804;0.988235;0.992157;0.988235;0.215686;0;0;0;0;0;0;0;0;0;0;0;0;0;0.113725;0.988235;0.992157;0.988235;0.937255;0.254902;0;0;0;0;0.113725;0.988235;0.992157;0.988235;0.215686;0;0;0;0;0;0;0;0;0;0;0;0;0;0.482353;0.988235;0.992157;0.988235;0.4;0;0;0;0;0;0.113725;0.988235;0.992157;0.764706;0.0745098;0;0;0;0;0;0;0;0;0;0;0;0;0.12549;0.843137;0.988235;0.992157;0.988235;0.215686;0;0;0;0;0;0.113725;0.988235;0.992157;0.654902;0;0;0;0;0;0;0;0;0;0;0;0;0;0.223529;0.992157;0.992157;1;0.992157;0.870588;0.396078;0;0;0;0.101961;0.811765;0.992157;1;0.658824;0;0;0;0;0;0;0;0;0;0;0;0;0;0.0235294;0.509804;0.988235;0.992157;0.988235;0.988235;0.976471;0.882353;0.639216;0.333333;0.784314;0.988235;0.988235;0.992157;0.47451;0;0;0;0;0;0;0;0;0;0;0;0;0;0;0.027451;0.215686;0.870588;0.988235;0.988235;0.988235;0.988235;0.992157;0.988235;0.988235;0.988235;0.988235;0.894118;0.0823529;0;0;0;0;0;0;0;0;0;0;0;0;0;0;0;0;0.14902;0.509804;0.901961;0.988235;0.988235;0.992157;0.988235;0.988235;0.976471;0.87451;0.184314;0;0;0;0;0;0;0;0;0;0;0;0;0;0;0;0;0;0;0;0.0980392;0.501961;0.988235;0.992157;0.988235;0.988235;0.568627;0;0;0;0;0;0;0;0;0;0;0;0;0;0;0;0;0;0;0;0;0;0;0;0;0;0;0;0;0;0;0;0;0;0;0;0;0;0;0;0;0;0;0;0;0;0;0;0;0;0;0;0;0;0;0;0;0;0;0;0;0;0;0;0;0;0;0;0;0;0;0;0;0;0;0;0;0;0;0;0;0;0;0;0;0;0;0;0;0;0;0;0;0;0;0;0;0;0;0;0;0;0;0;0;0;0;0;0;0;0;0;0;0;0;0;0;0;0;0;0;0;0;0;0;0;0;0;0;0;0;0;0;0;0;0;0;0;0;0;0;0;0;0;0;0;0;0;0;0
0;0;0;0;0;0;0;0;0;0;0;0;0;0;0;0;0;0;0;0;0;0;0;0;0;0;0;0;0;0;0;0;0;0;0;0;0;0;0;0;0;0;0;0;0;0;0;0;0;0;0;0;0;0;0;0;0;0;0;0;0;0;0;0;0;0;0;0;0;0;0;0;0;0;0;0;0;0;0;0;0;0;0;0;0;0;0;0;0;0;0;0;0;0;0;0;0;0;0;0;0;0;0;0;0;0;0;0;0;0;0;0;0;0;0;0;0;0;0;0;0;0;0;0;0;0;0;0;0;0;0;0;0;0.12549;0.372549;0.592157;0.184314;0;0;0;0;0;0;0;0;0;0;0;0;0;0;0;0;0;0;0;0;0;0;0;0.368627;0.92549;0.996078;0.996078;0.905882;0;0;0;0;0;0;0;0;0;0;0;0;0;0;0;0;0;0;0;0;0;0.0705882;0.552941;0.952941;0.996078;0.996078;0.964706;0.686275;0;0;0;0;0;0;0;0;0;0;0;0;0;0;0;0;0;0;0;0;0;0.427451;0.996078;0.996078;0.996078;0.835294;0.203922;0;0;0;0;0;0;0;0;0;0;0;0;0;0;0;0;0;0;0;0;0.337255;0.654902;0.960784;0.996078;0.988235;0.509804;0.0431373;0;0;0;0;0;0;0;0;0;0;0;0;0;0;0;0;0.137255;0.552941;0.517647;0.372549;0.694118;0.992157;0.996078;0.996078;0.909804;0.321569;0;0;0;0;0;0;0;0;0;0;0;0;0;0;0;0;0.0352941;0.180392;0.886275;0.996078;0.996078;0.996078;0.996078;0.996078;0.996078;0.890196;0.2;0;0;0;0;0;0;0;0;0;0;0;0;0;0;0;0;0.215686;0.831373;0.996078;0.996078;0.937255;0.956863;0.996078;0.996078;0.956863;0.447059;0.0235294;0;0;0;0;0;0;0;0;0;0;0;0;0;0;0;0;0;0.498039;0.996078;1;0.996078;0.419608;0.313725;0.568627;0.568627;0.141176;0;0;0;0;0;0;0;0;0;0;0;0;0;0;0;0;0;0;0;0.329412;0.996078;0.996078;0.996078;0.901961;0.439216;0.0823529;0;0;0;0;0;0;0;0;0;0;0;0;0;0;0;0;0;0;0;0;0;0.0666667;0.937255;0.996078;0.996078;0.996078;0.996078;0.87451;0.321569;0;0;0;0;0;0;0;0;0;0;0;0;0;0;0;0;0;0;0;0;0;0.0156863;0.137255;0.427451;0.694118;0.839216;0.996078;0.992157;0.490196;0;0;0;0;0;0;0;0;0;0;0;0;0;0;0;0;0;0;0;0;0;0;0;0;0.0156863;0.862745;0.996078;0.721569;0.0862745;0;0;0;0;0;0;0;0;0;0;0;0;0;0;0;0;0;0;0;0;0;0;0;0.0196078;0.976471;0.996078;0.843137;0.0156863;0;0;0;0;0;0;0;0;0;0;0;0;0;0;0;0;0;0;0;0;0;0;0;0.14902;0.996078;0.996078;0.835294;0;0;0;0;0;0;0;0;0;0;0;0;0;0;0;0;0.0509804;0.0823529;0.0392157;0;0;0;0.0980392;0.592157;0.941176;0.996078;0.996078;0.266667;0;0;0;0;0;0;0;0;0;0;0;0;0;0;0;0;0.870588;0.996078;0.819608;0.67451;0.67451;0.67451;0.960784;0.996078;0.996078;0.996078;0.784314;0.0156863;0;0;0;0;0;0;0;0;0;0;0;0;0;0;0;0;0.815686;0.996078;0.996078;0.996078;0.996078;0.996078;0.996078;0.996078;0.980392;0.705882;0.113725;0;0;0;0;0;0;0;0;0;0;0;0;0;0;0;0;0;0.294118;0.854902;0.996078;0.996078;0.996078;0.996078;0.890196;0.670588;0.207843;0;0;0;0;0;0;0;0;0;0;0;0;0;0;0;0;0;0;0;0;0.0666667;0.180392;0.180392;0.180392;0.180392;0.0980392;0;0;0;0;0;0;0;0;0;0;0;0;0;0;0;0;0;0;0;0;0;0;0;0;0;0;0;0;0;0;0;0;0;0;0;0;0;0;0;0;0;0;0;0;0;0;0;0;0;0;0;0;0;0;0;0;0;0;0;0;0;0;0;0;0;0;0;0;0;0;0;0;0;0;0;0;0;0;0;0;0;0;0;0;0;0;0;0;0;0;0;0;0;0;0;0;0;0;0;0;0;0;0;0;0;0;0;0;0;0;0;0;0;0;0;0;0;0;0;0;0;0;0;0;0;0;0;0
0;0;0;0;0;0;0;0;0;0;0;0;0;0;0;0;0;0;0;0;0;0;0;0;0;0;0;0;0;0;0;0;0;0;0;0;0;0;0;0;0;0;0;0;0;0;0;0;0;0;0;0;0;0;0;0;0;0;0;0;0;0;0;0;0;0;0;0;0;0;0;0;0;0;0;0;0;0;0;0;0;0;0;0;0;0;0;0;0;0;0;0;0;0;0;0;0;0;0;0;0;0;0;0;0;0;0;0;0;0;0;0;0;0;0;0;0;0;0;0;0;0;0;0.25098;0.501961;0.501961;0.74902;0.74902;0.501961;0;0;0;0;0;0;0;0;0;0;0;0;0;0;0;0;0;0;0;0;0;0.74902;1;1;1;1;1;1;1;1;1;0.25098;0;0;0;0;0;0;0;0;0;0;0;0;0;0;0;0;0.74902;1;1;1;1;1;1;1;1;1;1;1;0.74902;0;0;0;0;0;0;0;0;0;0;0;0;0;0;0.501961;1;1;1;1;1;0.501961;0.501961;0.501961;1;1;1;1;1;0.74902;0;0;0;0;0;0;0;0;0;0;0;0;0;1;1;1;1;0.501961;0;0;0;0;0;0.25098;1;1;1;1;0.25098;0;0;0;0;0;0;0;0;0;0;0;0;1;1;1;1;0.25098;0;0;0;0;0;0;0;0.501961;1;1;0.74902;0;0;0;0;0;0;0;0;0;0;0;0.25098;1;1;1;0;0;0;0;0;0;0;0;0;0;1;1;1;0.25098;0;0;0;0;0;0;0;0;0;0.25098;1;1;1;0.501961;0;0;0;0;0;0;0;0;0;0;0.501961;1;1;0;0;0;0;0;0;0;0;0;0;0.501961;1;1;0.501961;0;0;0;0;0;0;0;0;0;0;0;0.74902;1;1;0;0;0;0;0;0;0;0;0;0;1;1;1;0.25098;0;0;0;0;0;0;0;0;0;0;0;1;1;1;0;0;0;0;0;0;0;0;0;0.501961;1;1;0.501961;0;0;0;0;0;0;0;0;0;0;0;0;1;1;1;0;0;0;0;0;0;0;0;0;0.501961;1;1;0;0;0;0;0;0;0;0;0;0;0;0;0;1;1;0.501961;0;0;0;0;0;0;0;0;0;0.74902;1;1;0;0;0;0;0;0;0;0;0;0;0;0;0.25098;1;1;0.501961;0;0;0;0;0;0;0;0;0;0.74902;1;1;0;0;0;0;0;0;0;0;0;0;0;0;1;1;1;0;0;0;0;0;0;0;0;0;0;0.74902;1;1;0;0;0;0;0;0;0;0;0;0;0;0.25098;1;1;1;0;0;0;0;0;0;0;0;0;0;0.501961;1;1;0.74902;0.25098;0;0;0;0;0;0;0;0.25098;0.74902;1;1;1;0.74902;0;0;0;0;0;0;0;0;0;0;0;0.74902;1;1;1;1;0.501961;0.501961;0.501961;0.501961;0.501961;0.501961;1;1;1;1;0.501961;0;0;0;0;0;0;0;0;0;0;0;0;0;0.74902;1;1;1;1;1;1;1;1;1;1;1;1;1;0.25098;0;0;0;0;0;0;0;0;0;0;0;0;0;0;0.501961;1;1;1;1;1;1;1;1;1;1;0.501961;0;0;0;0;0;0;0;0;0;0;0;0;0;0;0;0;0;0;0.501961;0.501961;0.74902;1;0.501961;0.74902;0.501961;0.25098;0;0;0;0;0;0;0;0;0;0;0;0;0;0;0;0;0;0;0;0;0;0;0;0;0;0;0;0;0;0;0;0;0;0;0;0;0;0;0;0;0;0;0;0;0;0;0;0;0;0;0;0;0;0;0;0;0;0;0;0;0;0;0;0;0;0;0;0;0;0;0;0;0;0;0;0;0;0;0;0;0;0;0;0;0;0;0;0;0;0;0;0;0;0;0;0;0;0;0;0;0;0;0;0;0;0;0;0;0;0;0;0;0;0;0;0;0;0;0;0;0;0
0;0;0;0;0;0;0;0;0;0;0;0;0;0;0;0;0;0;0;0;0;0;0;0;0;0;0;0;0;0;0;0;0;0;0;0;0;0;0;0;0;0;0;0;0;0;0;0;0;0;0;0;0;0;0;0;0;0;0;0;0;0;0;0;0;0;0;0;0;0;0;0;0;0;0;0;0;0;0;0;0;0;0;0;0;0;0;0;0;0;0;0;0;0;0;0;0;0;0;0;0;0;0;0;0;0;0;0;0;0;0;0;0;0;0;0;0;0;0;0;0;0;0;0;0;0;0;0;0;0.0745098;0.0941176;0.0941176;0.0352941;0;0;0;0;0;0;0;0;0;0;0;0;0;0;0;0;0;0;0;0;0;0.184314;0.470588;0.631373;0.92549;0.988235;0.992157;0.760784;0.254902;0;0;0;0;0;0;0;0;0;0;0;0;0;0;0;0;0;0;0.223529;0.682353;0.992157;0.988235;0.988235;0.988235;0.988235;0.992157;0.988235;0.717647;0;0;0;0;0;0;0;0;0;0;0;0;0;0;0;0;0;0.266667;0.878431;0.988235;0.992157;0.988235;0.72549;0.627451;0.627451;0.992157;0.988235;0.717647;0;0;0;0;0;0;0;0;0;0;0;0;0;0;0;0.0431373;0.741176;0.964706;0.988235;0.988235;0.952941;0.537255;0.145098;0;0;0.992157;0.988235;0.717647;0;0;0;0;0;0;0;0;0;0;0;0;0;0;0.0431373;0.792157;0.992157;0.992157;0.992157;0.745098;0.207843;0;0.027451;0.258824;0.74902;1;0.992157;0.678431;0;0;0;0;0;0;0;0;0;0;0;0;0;0;0.454902;0.992157;0.988235;0.988235;0.839216;0.235294;0.0196078;0.266667;0.729412;0.988235;0.988235;0.992157;0.792157;0.0980392;0;0;0;0;0;0;0;0;0;0;0;0;0;0;0.329412;0.992157;0.988235;0.666667;0.0509804;0.12549;0.341176;0.988235;0.988235;0.988235;0.988235;0.678431;0.0980392;0;0;0;0;0;0;0;0;0;0;0;0;0;0;0;0;0.427451;0.545098;0.0509804;0.298039;0.854902;0.992157;0.988235;0.988235;0.854902;0.423529;0;0;0;0;0;0;0;0;0;0;0;0;0;0;0;0;0;0;0;0;0.333333;0.894118;0.988235;0.992157;0.988235;0.658824;0.345098;0;0;0;0;0;0;0;0;0;0;0;0;0;0;0;0;0;0;0;0.0509804;0.462745;0.992157;0.992157;0.992157;0.94902;0.529412;0;0;0;0;0;0.027451;0.0196078;0;0;0;0;0;0;0;0;0;0;0;0;0;0.0862745;0.831373;0.988235;0.988235;0.988235;0.823529;0.164706;0;0;0;0;0;0.0352941;0.607843;0.694118;0.141176;0;0;0;0;0;0;0;0;0;0;0;0.223529;0.803922;0.992157;0.988235;0.988235;0.72549;0.0235294;0;0;0;0;0;0.027451;0.607843;0.988235;0.988235;0.658824;0;0;0;0;0;0;0;0;0;0.0666667;0.486275;0.956863;0.988235;0.992157;0.988235;0.988235;0.92549;0.811765;0.815686;0.729412;0.486275;0.811765;0.811765;0.831373;0.988235;0.988235;0.988235;0.988235;0;0;0;0;0;0;0;0;0;0.592157;0.988235;0.988235;0.988235;0.992157;0.988235;0.988235;0.988235;0.988235;0.992157;0.988235;0.988235;0.988235;0.988235;0.992157;0.988235;0.988235;0.988235;0.784314;0;0;0;0;0;0;0;0;0.380392;0.992157;0.992157;0.992157;0.992157;1;0.976471;0.968627;0.992157;0.992157;1;0.992157;0.968627;0.901961;0.945098;1;0.937255;0.901961;0.529412;0.0431373;0;0;0;0;0;0;0;0;0.992157;0.988235;0.988235;0.839216;0.4;0.360784;0.294118;0.262745;0.360784;0.360784;0.360784;0.360784;0.262745;0;0.164706;0.360784;0.129412;0;0;0;0;0;0;0;0;0;0;0;0.870588;0.988235;0.792157;0.0509804;0;0;0;0;0;0;0;0;0;0;0;0;0;0;0;0;0;0;0;0;0;0;0;0;0.141176;0.627451;0.458824;0;0;0;0;0;0;0;0;0;0;0;0;0;0;0;0;0;0;0;0;0;0;0;0;0;0;0;0;0;0;0;0;0;0;0;0;0;0;0;0;0;0;0;0;0;0;0;0;0;0;0;0;0;0;0;0;0;0;0;0;0;0;0;0;0;0;0;0;0;0;0;0;0;0;0;0;0;0;0;0;0;0;0;0;0;0;0;0;0;0;0;0;0;0;0;0;0;0;0;0;0;0;0;0;0;0;0;0;0;0;0;0;0;0;0;0;0;0;0;0;0;0;0;0;0;0;0;0;0;0;0;0;0;0;0;0;0;0;0;0;0;0;0;0;0;0;0;0;0;0;0;0;0;0;0;0;0;0;0;0;0
0;0;0;0;0;0;0;0;0;0;0;0;0;0;0;0;0;0;0;0;0;0;0;0;0;0;0;0;0;0;0;0;0;0;0;0;0;0;0;0;0;0;0;0;0;0;0;0;0;0;0;0;0;0;0;0;0;0;0;0;0;0;0;0;0;0;0;0;0;0;0;0;0;0;0;0;0;0;0;0;0;0;0;0;0;0;0;0;0;0;0;0;0;0;0;0;0;0;0;0;0;0;0;0;0;0;0;0;0;0;0;0;0;0;0;0;0;0;0;0;0;0;0;0;0;0;0;0;0;0;0;0;0;0;0;0;0;0;0;0;0;0;0;0;0;0;0;0;0;0;0.0509804;0.0941176;0.0941176;0.0941176;0.0941176;0.0941176;0.0745098;0;0.0352941;0.0941176;0.588235;0.996078;0.333333;0.0941176;0.00784314;0;0;0;0;0;0;0;0;0;0;0;0;0.0862745;0.623529;0.988235;0.988235;0.988235;0.988235;0.996078;0.839216;0.184314;0.482353;0.988235;0.988235;0.988235;0.988235;0.988235;0.0823529;0;0;0;0;0;0;0;0;0;0;0;0.101961;0.6;0.988235;0.988235;0.988235;0.988235;0.988235;0.996078;0.988235;0.988235;0.988235;0.988235;0.988235;0.988235;0.988235;0.988235;0.333333;0;0;0;0;0;0;0;0;0;0;0.101961;0.592157;0.988235;0.988235;0.988235;0.988235;0.690196;0.623529;0.662745;0.988235;0.988235;0.988235;0.823529;0.623529;0.858824;0.988235;0.988235;0.988235;0;0;0;0;0;0;0;0;0;0.0862745;0.6;0.988235;0.988235;0.988235;0.988235;0.654902;0.0941176;0;0.0509804;0.533333;0.533333;0.701961;0.533333;0;0.635294;0.988235;0.988235;0.988235;0;0;0;0;0;0;0;0;0;0.184314;0.988235;0.988235;0.988235;0.988235;0.639216;0.121569;0;0;0;0;0;0.364706;0.533333;0;0.286275;0.843137;0.988235;0.988235;0;0;0;0;0;0;0;0;0.0588235;0.698039;0.988235;0.988235;0.988235;0.639216;0.129412;0;0;0;0;0;0;0.133333;0.192157;0;0.411765;0.894118;0.988235;0.988235;0;0;0;0;0;0;0;0;0.756863;0.988235;0.988235;0.988235;0.988235;0.447059;0;0;0;0;0;0;0;0;0;0;0.635294;0.988235;0.988235;0.988235;0;0;0;0;0;0;0;0;0.996078;0.988235;0.988235;0.988235;0.611765;0.0784314;0;0;0;0;0;0;0;0;0;0;0.635294;0.988235;0.988235;0.988235;0;0;0;0;0;0;0;0;0.996078;0.988235;0.988235;0.654902;0.0470588;0;0;0;0;0;0;0;0;0;0;0;0.635294;0.988235;0.988235;0.988235;0;0;0;0;0;0;0;0;0.92549;0.996078;0.996078;0.662745;0.0509804;0;0;0;0;0;0;0;0;0;0;0.54902;0.996078;0.996078;0.996078;0.0862745;0;0;0;0;0;0;0;0;0.0941176;0.988235;0.988235;0.988235;0.533333;0;0;0;0;0;0;0;0;0.0705882;0.184314;0.623529;0.988235;0.988235;0.988235;0.0823529;0;0;0;0;0;0;0;0;0.0941176;0.988235;0.988235;0.988235;0.658824;0.12549;0;0;0;0;0;0;0;0.364706;0.988235;0.988235;0.988235;0.988235;0.988235;0.0823529;0;0;0;0;0;0;0;0;0.0941176;0.988235;0.988235;0.988235;0.988235;0.447059;0;0;0;0;0;0;0.101961;0.592157;0.988235;0.988235;0.988235;0.721569;0.623529;0.054902;0;0;0;0;0;0;0;0;0.0941176;0.988235;0.988235;0.988235;0.988235;0.694118;0.454902;0.454902;0.0823529;0;0.0431373;0.454902;0.6;0.988235;0.988235;0.988235;0.698039;0.145098;0;0;0;0;0;0;0;0;0;0;0.0941176;0.988235;0.988235;0.988235;0.988235;0.988235;0.988235;0.988235;0.176471;0;0.0941176;0.988235;0.988235;0.988235;0.988235;0.988235;0.356863;0;0;0;0;0;0;0;0;0;0;0;0.0352941;0.47451;0.988235;0.988235;0.988235;0.988235;0.988235;0.988235;0.698039;0.635294;0.0352941;0.356863;0.356863;0.356863;0.356863;0.356863;0.129412;0;0;0;0;0;0;0;0;0;0;0;0;0.0509804;0.466667;0.988235;0.988235;0.988235;0.988235;0.988235;0.988235;0.988235;0.666667;0;0;0;0;0;0;0;0;0;0;0;0;0;0;0;0;0;0;0;0.0509804;0.176471;0.176471;0.619608;0.988235;0.988235;0.988235;0.988235;0.905882;0;0;0;0;0;0;0;0;0;0;0;0;0;0;0;0;0;0;0;0;0;0;0.0470588;0.0823529;0.0823529;0.0823529;0.0823529;0.0784314;0;0;0;0;0;0;0;0;0;0;0;0;0;0;0;0;0;0;0;0;0;0;0;0;0;0;0;0;0;0;0;0;0;0;0;0;0;0;0;0;0;0;0;0;0;0;0;0;0;0;0;0;0;0;0;0;0;0;0;0;0;0;0;0;0;0;0;0;0;0;0;0;0;0;0;0;0;0;0;0;0;0;0;0;0;0;0;0;0;0;0;0;0;0;0;0
0;0;0;0;0;0;0;0;0;0;0;0;0;0;0;0;0;0;0;0;0;0;0;0;0;0;0;0;0;0;0;0;0;0;0;0;0;0;0;0;0;0;0;0;0;0;0;0;0;0;0;0;0;0;0;0;0;0;0;0;0;0;0;0;0;0;0;0;0;0;0;0;0;0;0;0;0;0;0;0;0;0;0;0;0;0;0;0;0;0;0;0;0;0;0;0;0;0;0;0;0;0;0;0;0;0;0;0;0;0;0;0;0;0;0;0;0;0;0;0;0;0;0;0;0.219608;0.356863;0.792157;0.996078;0.996078;0.996078;0.419608;0;0;0;0;0;0;0;0;0;0;0;0;0;0;0;0;0;0;0.0156863;0.0666667;0.235294;0.882353;0.992157;0.992157;0.992157;0.992157;0.992157;0.945098;0.376471;0.0117647;0;0;0;0;0;0;0;0;0;0;0;0;0;0;0;0.207843;0.529412;0.992157;0.992157;0.992157;0.992157;0.992157;0.992157;0.992157;0.992157;0.992157;0.992157;0.12549;0;0;0;0;0;0;0;0;0;0;0;0;0;0;0.188235;0.878431;0.992157;0.992157;0.992157;0.992157;0.992157;0.901961;0.862745;0.862745;0.921569;0.992157;0.992157;0.65098;0.054902;0;0;0;0;0;0;0;0;0;0;0;0;0.207843;0.878431;0.992157;0.992157;0.992157;0.992157;0.992157;0.521569;0.164706;0;0;0.454902;0.992157;0.992157;0.992157;0.694118;0.0313725;0;0;0;0;0;0;0;0;0;0;0.0156863;0.529412;0.992157;0.992157;0.992157;0.886275;0.631373;0.156863;0.00784314;0;0;0;0.364706;0.956863;0.992157;0.992157;0.992157;0.0588235;0;0;0;0;0;0;0;0;0;0;0.423529;0.992157;0.992157;0.992157;0.529412;0.2;0;0;0;0;0;0;0;0.364706;0.729412;0.992157;0.992157;0.415686;0;0;0;0;0;0;0;0;0;0.32549;0.964706;0.992157;0.992157;0.552941;0.0156863;0;0;0;0;0;0;0;0;0;0.0470588;0.878431;0.992157;0.776471;0.0941176;0;0;0;0;0;0;0;0;0.356863;0.992157;0.992157;0.513725;0.196078;0;0;0;0;0;0;0;0;0;0;0;0.870588;0.992157;0.992157;0.34902;0;0;0;0;0;0;0;0;0.560784;0.992157;0.584314;0.00784314;0;0;0;0;0;0;0;0;0;0;0;0;0.870588;0.992157;0.992157;0.34902;0;0;0;0;0;0;0;0;0.996078;0.992157;0.572549;0;0;0;0;0;0;0;0;0;0;0;0;0;0.870588;0.992157;0.992157;0.34902;0;0;0;0;0;0;0;0;0.996078;0.992157;0.572549;0;0;0;0;0;0;0;0;0;0;0;0;0;0.870588;0.992157;0.992157;0.34902;0;0;0;0;0;0;0;0;0.996078;0.992157;0.572549;0;0;0;0;0;0;0;0;0;0;0;0;0;0.870588;0.992157;0.992157;0.34902;0;0;0;0;0;0;0;0;0.996078;0.992157;0.572549;0;0;0;0;0;0;0;0;0;0;0;0;0.235294;0.92549;0.992157;0.858824;0.192157;0;0;0;0;0;0;0;0;1;0.992157;0.913725;0.305882;0.0862745;0;0;0;0;0;0;0;0;0;0.239216;0.901961;0.992157;0.992157;0.701961;0;0;0;0;0;0;0;0;0;0.662745;0.992157;0.992157;0.992157;0.760784;0.0823529;0;0;0;0;0;0;0.388235;0.513725;0.901961;0.992157;0.992157;0.992157;0.368627;0;0;0;0;0;0;0;0;0;0.27451;0.92549;0.992157;0.992157;0.992157;0.886275;0.870588;0.870588;0.870588;0.870588;0.870588;0.870588;0.960784;0.992157;0.992157;0.992157;0.992157;0.992157;0.0588235;0;0;0;0;0;0;0;0;0;0;0.333333;0.992157;0.992157;0.992157;0.992157;0.992157;0.992157;0.992157;0.992157;0.992157;0.992157;0.992157;0.992157;0.992157;0.992157;0.858824;0.415686;0.027451;0;0;0;0;0;0;0;0;0;0;0.00392157;0.0588235;0.145098;0.701961;0.756863;0.992157;0.992157;0.992157;0.992157;0.992157;0.992157;0.992157;0.992157;0.756863;0.701961;0.12549;0;0;0;0;0;0;0;0;0;0;0;0;0;0;0;0;0.0705882;0.34902;0.513725;0.992157;0.992157;0.992157;0.992157;0.509804;0.34902;0.0666667;0;0;0;0;0;0;0;0;0;0;0;0;0;0;0;0;0;0;0;0;0;0;0;0;0;0;0;0;0;0;0;0;0;0;0;0;0;0;0;0;0;0;0;0;0;0;0;0;0;0;0;0;0;0;0;0;0;0;0;0;0;0;0;0;0;0;0;0;0;0;0;0;0;0;0;0;0;0;0;0;0;0;0;0;0;0;0;0;0;0;0;0;0;0;0;0;0;0;0;0;0;0;0;0;0;0;0;0;0;0;0;0;0;0;0;0;0;0;0;0;0
0;0;0;0;0;0;0;0;0;0;0;0;0;0;0;0;0;0;0;0;0;0;0;0;0;0;0;0;0;0;0;0;0;0;0;0;0;0;0;0;0;0;0;0;0;0;0;0;0;0;0;0;0;0;0;0;0;0;0;0;0;0;0;0;0;0;0;0;0;0;0;0;0;0;0;0;0;0;0;0;0;0;0;0;0;0;0;0;0;0;0;0;0;0;0;0;0;0;0;0;0;0;0;0;0;0;0;0;0;0;0;0;0;0;0;0;0;0;0;0;0;0;0;0;0;0;0;0;0;0;0;0;0;0;0;0;0;0;0;0;0;0;0;0;0;0;0;0;0.556863;0.996078;0.643137;0.607843;0.607843;0.607843;0.607843;0.607843;0.513725;0.203922;0;0;0;0;0;0;0;0;0;0;0;0;0;0;0;0;0.00392157;0.545098;0.972549;0.992157;0.992157;0.992157;0.992157;0.992157;0.992157;0.992157;0.992157;0.984314;0.713725;0.0823529;0;0;0;0;0;0;0;0;0;0;0;0;0;0;0.141176;0.992157;0.992157;0.992157;0.992157;0.992157;0.992157;0.992157;0.992157;0.992157;0.992157;0.992157;0.992157;0.960784;0.192157;0;0;0;0;0;0;0;0;0;0;0;0;0;0.615686;0.992157;0.996078;0.992157;0.992157;0.992157;0.921569;0.917647;0.960784;0.992157;0.996078;0.992157;0.992157;0.996078;0.776471;0.223529;0;0;0;0;0;0;0;0;0;0;0;0;0.823529;0.992157;0.992157;0.992157;0.960784;0.419608;0.0196078;0;0.184314;0.309804;0.403922;0.94902;0.992157;0.996078;0.992157;0.776471;0.0745098;0;0;0;0;0;0;0;0;0;0;0;0.819608;0.992157;0.992157;0.729412;0.0862745;0;0;0;0;0;0;0.105882;0.745098;0.980392;0.992157;0.992157;0.454902;0;0;0;0;0;0;0;0;0;0;0;0.819608;0.992157;0.968627;0.313725;0;0;0;0;0;0;0;0;0;0.466667;0.992157;0.996078;0.639216;0;0;0;0;0;0;0;0;0;0;0;0.819608;0.992157;0.545098;0;0;0;0;0;0;0;0;0;0;0.00784314;0.721569;0.992157;0.976471;0.25098;0;0;0;0;0;0;0;0;0;0.168627;0.952941;0.992157;0.52549;0;0;0;0;0;0;0;0;0;0;0;0.407843;0.996078;0.996078;0.572549;0;0;0;0;0;0;0;0;0;0.00392157;0.823529;0.992157;0.521569;0;0;0;0;0;0;0;0;0;0;0;0.00784314;0.843137;0.992157;0.815686;0;0;0;0;0;0;0;0;0;0;0.819608;0.992157;0.521569;0;0;0;0;0;0;0;0;0;0;0;0;0.52549;0.992157;0.960784;0.172549;0;0;0;0;0;0;0;0;0;0.823529;0.992157;0.52549;0;0;0;0;0;0;0;0;0;0;0;0;0.52549;0.996078;0.996078;0.211765;0;0;0;0;0;0;0;0;0;0.819608;0.992157;0.545098;0;0;0;0;0;0;0;0;0;0;0;0;0.52549;0.992157;0.992157;0.211765;0;0;0;0;0;0;0;0;0;0.819608;0.992157;0.968627;0.207843;0;0;0;0;0;0;0;0;0;0;0;0.635294;0.992157;0.992157;0.211765;0;0;0;0;0;0;0;0;0;0.588235;0.992157;0.996078;0.682353;0.0509804;0;0;0;0;0;0;0;0;0.0509804;0.65098;0.984314;0.996078;0.839216;0.027451;0;0;0;0;0;0;0;0;0;0.027451;0.882353;0.992157;0.992157;0.8;0.313725;0.0196078;0;0;0;0;0;0.211765;0.8;0.992157;0.992157;0.992157;0.572549;0;0;0;0;0;0;0;0;0;0;0;0.14902;0.921569;0.996078;0.992157;0.996078;0.862745;0.682353;0.52549;0.52549;0.52549;0.705882;0.968627;0.996078;0.992157;0.996078;0.666667;0.00392157;0;0;0;0;0;0;0;0;0;0;0;0;0.568627;0.992157;0.992157;0.992157;0.992157;0.996078;0.992157;0.992157;0.996078;0.992157;0.992157;0.996078;0.992157;0.752941;0.164706;0;0;0;0;0;0;0;0;0;0;0;0;0;0.0196078;0.423529;0.839216;0.996078;0.992157;0.996078;0.992157;0.992157;0.996078;0.992157;0.992157;0.905882;0.694118;0.0470588;0;0;0;0;0;0;0;0;0;0;0;0;0;0;0;0;0.027451;0.345098;0.662745;0.992157;0.992157;0.992157;0.992157;0.972549;0.6;0.152941;0;0;0;0;0;0;0;0;0;0;0;0;0;0;0;0;0;0;0;0;0;0;0;0;0;0;0;0;0;0;0;0;0;0;0;0;0;0;0;0;0;0;0;0;0;0;0;0;0;0;0;0;0;0;0;0;0;0;0;0;0;0;0;0;0;0;0;0;0;0;0;0;0;0;0;0;0;0;0;0;0;0;0;0;0;0;0;0;0;0;0;0
0;0;0;0;0;0;0;0;0;0;0;0;0;0;0;0;0;0;0;0;0;0;0;0;0;0;0;0;0;0;0;0;0;0;0;0;0;0;0;0;0;0;0;0;0;0;0;0;0;0;0;0;0;0;0;0;0;0;0;0;0;0;0;0;0;0;0;0;0;0;0;0;0;0;0;0;0;0;0;0;0;0;0;0;0;0;0;0;0;0;0;0;0;0;0;0.14902;0.564706;0.992157;0.992157;1;0.807843;0.0980392;0;0;0;0;0;0;0;0;0;0;0;0;0;0;0;0;0;0;0.223529;0.333333;0.337255;0.858824;0.988235;0.988235;0.988235;0.992157;0.988235;0.705882;0;0;0;0;0;0;0;0;0;0;0;0;0;0;0;0;0;0.176471;0.917647;0.988235;0.992157;0.988235;0.988235;0.988235;0.862745;0.992157;0.988235;0.815686;0.0745098;0;0;0;0;0;0;0;0;0;0;0;0;0;0;0;0;0.588235;0.988235;0.988235;0.992157;0.988235;0.776471;0.329412;0.145098;0.992157;0.988235;0.988235;0.329412;0;0;0;0;0;0;0;0;0;0;0;0;0;0;0;0;0.466667;0.988235;0.988235;0.992157;0.498039;0.0980392;0;0;0.992157;0.988235;0.988235;0.329412;0;0;0;0;0;0;0;0;0;0;0;0;0;0;0;0;0;0;0;0;0;0;0;0;1;0.992157;0.894118;0.184314;0;0;0;0;0;0;0;0;0;0;0;0;0;0;0;0;0;0;0;0;0;0;0.286275;0.882353;0.992157;0.988235;0.27451;0;0;0;0;0;0;0;0;0;0;0;0;0;0;0;0;0;0;0;0;0;0;0;0.662745;0.988235;0.992157;0.729412;0.0470588;0;0;0;0;0;0;0;0;0;0;0;0;0;0;0;0;0;0;0;0;0;0;0.027451;0.698039;0.988235;0.992157;0.592157;0;0;0;0;0;0;0;0;0;0;0;0;0;0;0;0;0;0;0;0;0;0;0;0.529412;0.988235;0.988235;0.992157;0.105882;0;0;0;0;0;0;0;0;0;0;0;0;0;0;0;0;0;0;0;0;0;0;0.337255;0.992157;0.992157;0.992157;0.309804;0;0;0;0;0;0;0;0;0;0;0;0;0;0;0;0;0;0;0;0;0;0;0;0.333333;0.988235;0.988235;0.988235;0;0;0;0;0;0;0;0;0;0;0;0;0;0;0;0;0;0;0;0;0;0;0;0.101961;0.784314;0.988235;0.988235;0.862745;0;0;0;0;0;0;0;0;0;0;0;0;0;0;0;0;0;0;0;0;0;0.0156863;0.113725;0.501961;0.988235;0.988235;0.92549;0.196078;0;0;0;0;0;0;0;0.027451;0.113725;0.0509804;0;0;0;0;0;0;0;0;0;0;0;0.419608;0.988235;0.992157;0.988235;0.988235;0.988235;0.741176;0.309804;0;0;0;0;0;0;0.529412;0.988235;0.741176;0;0;0;0;0;0;0;0;0.447059;0.933333;0.992157;0.992157;0.992157;1;0.992157;0.992157;0.992157;0.992157;0.752941;0.294118;0;0;0;0.2;0.933333;0.992157;0.992157;0.992157;0;0;0;0;0;0;0;0;0.992157;0.988235;0.988235;0.94902;0.654902;0.658824;0.654902;0.913725;0.988235;0.988235;0.992157;0.952941;0.454902;0.109804;0.188235;0.933333;0.988235;0.988235;0.988235;0.8;0;0;0;0;0;0;0;0;0.992157;0.913725;0.643137;0.192157;0;0;0;0.168627;0.584314;0.890196;0.992157;0.988235;0.988235;0.843137;0.890196;0.992157;0.988235;0.988235;0.839216;0.341176;0;0;0;0;0;0;0;0;0.329412;0.219608;0;0;0;0;0;0;0;0.184314;0.929412;0.988235;0.988235;0.988235;0.988235;0.992157;0.988235;0.960784;0.290196;0;0;0;0;0;0;0;0;0;0;0;0;0;0;0;0;0;0;0;0.196078;0.619608;0.988235;0.988235;0.988235;0.992157;0.8;0.341176;0;0;0;0;0;0;0;0;0;0;0;0;0;0;0;0;0;0;0;0;0;0;0;0;0;0;0;0;0;0;0;0;0;0;0;0;0;0;0;0;0;0;0;0;0;0;0;0;0;0;0;0;0;0;0;0;0;0;0;0;0;0;0;0;0;0;0;0;0;0;0;0;0;0;0;0;0;0;0;0;0;0;0;0;0;0;0;0;0;0;0;0;0;0;0;0;0;0;0;0;0;0;0;0;0;0;0;0;0;0;0;0;0;0;0;0;0;0;0;0;0;0;0;0;0;0;0;0;0;0;0;0;0;0;0;0;0;0;0;0;0;0;0;0;0
0;0;0;0;0;0;0;0;0;0;0;0;0;0;0;0;0;0;0;0;0;0;0;0;0;0;0;0;0;0;0;0;0;0;0;0;0;0;0;0;0;0;0;0;0;0;0;0;0;0;0;0;0;0;0;0;0;0;0;0;0;0;0;0;0;0;0;0;0;0;0;0;0;0;0;0;0;0;0;0;0;0;0;0;0;0;0;0;0;0;0;0;0;0;0;0;0;0;0;0;0;0;0.0117647;0.458824;0.956863;0.788235;0.0235294;0;0;0;0;0;0;0;0;0;0;0;0;0;0;0;0;0;0;0;0;0;0;0.0431373;0.635294;0.996078;0.996078;0.996078;0.0470588;0;0;0;0;0;0;0;0;0;0;0;0;0;0;0;0;0;0;0;0;0.0235294;0.470588;0.92549;0.996078;0.996078;0.996078;0.996078;0.0470588;0;0;0;0;0;0;0;0;0;0;0;0;0;0;0;0;0;0;0;0.027451;0.6;0.996078;0.996078;0.996078;0.996078;0.996078;0.905882;0.0431373;0;0;0;0;0;0;0;0;0;0;0;0;0;0;0;0;0;0;0.0901961;0.360784;0.996078;0.996078;0.996078;0.996078;0.94902;0.670588;0.027451;0;0;0;0;0;0;0;0;0;0;0;0;0;0;0;0;0;0;0.215686;0.901961;0.996078;0.996078;0.996078;0.996078;0.870588;0.278431;0;0;0;0;0;0;0;0;0;0;0;0;0;0;0;0;0;0;0;0.133333;0.901961;0.996078;0.996078;0.996078;0.996078;0.686275;0.0509804;0;0;0;0;0;0;0;0;0;0;0;0;0;0;0;0;0;0;0;0.454902;0.745098;0.996078;0.996078;0.996078;0.996078;0.843137;0.0862745;0;0;0;0;0;0;0;0;0;0;0;0;0;0;0;0;0;0;0.027451;0.294118;0.901961;0.996078;0.996078;0.996078;0.996078;0.996078;0.996078;0.588235;0.223529;0.027451;0;0;0;0;0;0;0;0;0;0;0;0;0;0;0;0.145098;0.576471;0.996078;0.996078;0.996078;0.996078;0.996078;0.996078;0.996078;0.996078;0.996078;0.996078;0.572549;0.0235294;0;0;0;0;0;0;0;0;0;0;0;0;0;0.152941;0.698039;0.996078;0.996078;0.996078;0.996078;0.996078;0.996078;0.996078;0.996078;0.996078;0.996078;0.996078;0.996078;0.466667;0;0;0;0;0;0;0;0;0;0;0;0;0.0392157;0.905882;0.996078;0.996078;0.996078;0.996078;0.996078;0.996078;0.996078;0.996078;0.996078;0.996078;0.996078;0.996078;0.996078;0.580392;0;0;0;0;0;0;0;0;0;0;0;0;0.447059;0.996078;0.996078;0.996078;0.996078;0.996078;0.996078;0.996078;0.996078;0.913725;0.443137;0.678431;0.788235;0.996078;0.996078;0.917647;0.211765;0;0;0;0;0;0;0;0;0;0;0;0.537255;0.996078;0.996078;0.996078;0.996078;0.996078;0.929412;0.654902;0.298039;0.12549;0;0;0.0588235;0.168627;0.898039;0.996078;0.556863;0;0;0;0;0;0;0;0;0;0;0;0.537255;0.996078;0.996078;0.996078;0.996078;0.670588;0.117647;0;0;0;0;0;0;0;0.321569;0.964706;0.717647;0.0196078;0;0;0;0;0;0;0;0;0;0;0.34902;0.996078;0.996078;0.996078;0.996078;0.341176;0.196078;0;0;0;0;0;0;0;0.537255;0.988235;0.607843;0.00784314;0;0;0;0;0;0;0;0;0;0;0.0509804;0.996078;0.996078;0.996078;0.996078;0.937255;0.94902;0.905882;0.905882;0.905882;0.905882;0.905882;0.905882;0.905882;0.988235;1;0.556863;0;0;0;0;0;0;0;0;0;0;0;0.0509804;0.996078;0.996078;0.996078;0.996078;0.996078;0.996078;0.996078;0.996078;0.996078;0.996078;0.996078;0.996078;0.996078;0.996078;0.996078;0.556863;0;0;0;0;0;0;0;0;0;0;0;0.00392157;0.356863;0.996078;0.996078;0.996078;0.996078;0.996078;0.996078;0.996078;0.996078;0.996078;0.996078;0.996078;0.996078;0.996078;0.6;0.027451;0;0;0;0;0;0;0;0;0;0;0;0;0.00392157;0.309804;0.270588;0.819608;0.996078;0.996078;0.996078;0.996078;0.996078;0.611765;0.509804;0.509804;0.509804;0.0784314;0.0117647;0;0;0;0;0;0;0;0;0;0;0;0;0;0;0;0;0;0;0;0;0;0;0;0;0;0;0;0;0;0;0;0;0;0;0;0;0;0;0;0;0;0;0;0;0;0;0;0;0;0;0;0;0;0;0;0;0;0;0;0;0;0;0;0;0;0;0;0;0;0;0;0;0;0;0;0;0;0;0;0;0;0;0;0;0;0;0;0;0;0;0;0;0;0;0;0;0;0;0;0;0;0;0;0;0;0;0;0;0;0;0;0;0;0;0;0;0;0;0;0;0;0;0;0;0;0;0;0;0;0;0;0;0;0;0;0;0;0;0;0;0;0;0;0;0;0;0
0;0;0;0;0;0;0;0;0;0;0;0;0;0;0;0;0;0;0;0;0;0;0;0;0;0;0;0;0;0;0;0;0;0;0;0;0;0;0;0;0;0;0;0;0;0;0;0;0;0;0;0;0;0;0;0;0;0;0;0;0;0;0;0;0;0;0;0;0;0;0;0;0;0;0;0;0;0;0;0;0;0;0;0;0;0;0;0;0;0;0;0;0;0;0;0;0;0;0;0;0;0;0;0;0;0;0;0;0;0;0;0;0;0;0;0;0;0;0;0;0;0;0;0;0;0;0;0;0;0;0;0.0509804;0.866667;0.454902;0;0;0;0;0;0;0;0;0;0;0;0;0;0;0;0.0862745;0.545098;0;0;0;0;0;0;0;0;0.458824;0.996078;0.611765;0;0;0;0;0;0;0;0;0;0;0;0;0;0;0.0784314;0.584314;0.968627;0.0627451;0;0;0;0;0;0;0;0.858824;0.996078;0.403922;0;0;0;0;0;0;0;0;0;0;0;0;0;0.0941176;0.811765;0.996078;0.709804;0.0117647;0;0;0;0;0;0;0;0.858824;0.996078;0.243137;0;0;0;0;0;0;0;0;0;0;0;0;0.0470588;0.611765;0.996078;0.85098;0.0823529;0;0;0;0;0;0;0;0;0.858824;0.996078;0.243137;0;0;0;0;0;0;0;0;0;0;0;0;0.501961;0.996078;0.960784;0.176471;0;0;0;0;0;0;0;0;0.00784314;0.866667;0.996078;0.243137;0;0;0;0;0;0;0;0;0;0;0;0.25098;0.94902;0.996078;0.611765;0;0;0;0;0;0;0;0;0;0.211765;0.996078;0.996078;0.243137;0;0;0;0;0;0;0;0;0;0;0;0.643137;0.996078;0.843137;0.101961;0;0;0;0;0;0;0;0;0;0.313725;0.996078;0.894118;0.00392157;0;0;0;0;0;0;0;0;0;0;0.0588235;0.917647;0.996078;0.482353;0;0;0;0;0;0;0;0;0;0;0.560784;0.996078;0.894118;0;0;0;0;0;0;0;0;0;0;0;0.552941;1;0.92549;0.0980392;0;0;0;0;0;0;0;0;0;0;0.74902;0.996078;0.894118;0;0;0;0;0;0;0;0;0;0;0;0.639216;0.996078;0.564706;0;0;0;0;0;0;0;0;0.0470588;0.235294;0.478431;0.952941;0.996078;0.894118;0;0;0;0;0;0;0;0;0;0;0;0.94902;0.996078;0.505882;0;0;0;0.0235294;0.152941;0.423529;0.423529;0.694118;0.854902;0.996078;0.996078;0.996078;0.996078;0.894118;0;0;0;0;0;0;0;0;0;0;0;0.94902;0.996078;0.862745;0.721569;0.721569;0.721569;0.8;0.996078;0.996078;0.996078;0.996078;0.980392;0.870588;0.415686;0.937255;0.996078;0.639216;0;0;0;0;0;0;0;0;0;0;0;0.713725;0.996078;0.996078;0.996078;0.996078;0.996078;0.886275;0.701961;0.619608;0.333333;0.309804;0;0;0;0.913725;0.996078;0.541176;0;0;0;0;0;0;0;0;0;0;0;0.0196078;0.34902;0.384314;0.384314;0.25098;0.0352941;0.0235294;0.00392157;0;0;0;0;0;0;0.913725;0.996078;0.945098;0.152941;0;0;0;0;0;0;0;0;0;0;0;0;0;0;0;0;0;0;0;0;0;0;0;0;0.913725;0.996078;0.996078;0.243137;0;0;0;0;0;0;0;0;0;0;0;0;0;0;0;0;0;0;0;0;0;0;0;0;0.607843;0.996078;0.996078;0.243137;0;0;0;0;0;0;0;0;0;0;0;0;0;0;0;0;0;0;0;0;0;0;0;0;0.403922;0.996078;0.996078;0.243137;0;0;0;0;0;0;0;0;0;0;0;0;0;0;0;0;0;0;0;0;0;0;0;0;0.129412;0.941176;0.996078;0.243137;0;0;0;0;0;0;0;0;0;0;0;0;0;0;0;0;0;0;0;0;0;0;0;0;0;0.556863;0.894118;0.160784;0;0;0;0;0;0;0;0;0;0;0;0;0;0;0;0;0;0;0;0;0;0;0;0;0;0;0;0;0;0;0;0;0;0;0;0;0;0;0;0;0;0;0;0;0;0;0;0;0;0;0;0;0;0;0;0;0;0;0;0;0;0;0;0;0;0;0;0;0;0;0;0;0;0;0;0;0;0;0;0;0;0;0;0;0;0;0;0;0;0;0;0;0;0;0;0;0;0;0;0;0;0;0;0;0;0;0;0;0;0;0;0;0;0;0;0;0;0
